<?xml version="1.0" encoding="UTF-8"?>
<svg version="1.1" viewBox="0 0 28.747 28.747" xmlns="http://www.w3.org/2000/svg" xmlns:osb="http://www.openswatchbook.org/uri/2009/osb" xmlns:xlink="http://www.w3.org/1999/xlink">
    <defs>
        <filter id="filter6206-7" color-interpolation-filters="sRGB">
            <feGaussianBlur stdDeviation="0.658125"/>
        </filter>
    </defs>
    <g transform="translate(0 -1093.8)">
        <path transform="matrix(1.0781 0 0 1.0641 -.093733 2.7509)" d="m4.4177 1028.2v1.6051h-1.6052v18.192h1.6052v2.1402h18.192v-2.1402h2.1402v-18.192h-2.1402v-1.6051z" fill="#263238" filter="url(#filter6206-7)" opacity=".2"/>
        <rect x="2.9987" y="1096.8" width="22.749" height="22.749" rx="1.1973" ry="1.1974" fill="#424242"/>
        <g transform="translate(-22.32 1056.5)">
            <path d="m0 0h51.2v51.2h-51.2z" fill="none" stroke-width="1.0667"/>
            <g transform="matrix(.33601 0 0 .33601 1.5296 73.043)">
                <path d="m0 0h51.2v51.2h-51.2z" fill="none" stroke-width="1.0667"/>
            </g>
            <g transform="matrix(.37187 0 0 .37187 38.802 63.239)">
                <path d="m0 0h51.2v51.2h-51.2z" fill="none" stroke-width="1.0667"/>
                <g transform="matrix(2.6891 0 0 2.6891 -82.906 -48.45)">
                    <path d="m0 0h51.2v51.2h-51.2z" fill="none" stroke-width="1.0667"/>
                </g>
            </g>
        </g>
        <path d="m4.1958 1096.8c-0.66332 0-1.1979 0.5346-1.1979 1.1979v0.3334c0-0.6634 0.53459-1.1979 1.1979-1.1979h20.354c0.66332 0 1.1979 0.5345 1.1979 1.1979v-0.3334c0-0.6633-0.5346-1.1979-1.1979-1.1979z" fill="#fff" opacity=".2"/>
        <rect x="128" y="546.52" width="42.667" height="42.667" fill="none" stroke-width="1.0667"/>
        <rect x="128" y="631.85" width="42.667" height="42.667" fill="none" stroke-width="1.0667"/>
        <rect x="128" y="674.52" width="42.667" height="42.667" fill="none" stroke-width="1.0667"/>
        <rect x="128" y="589.19" width="42.667" height="42.667" fill="none" stroke-width="1.0667"/>
        <rect x="128" y="717.19" width="42.667" height="42.667" fill="none" stroke-width="1.0667"/>
        <rect x="213.33" y="546.52" width="42.667" height="42.667" fill="none" stroke-width="1.0667"/>
        <rect x="213.33" y="631.85" width="42.667" height="42.667" fill="none" stroke-width="1.0667"/>
        <rect x="213.33" y="674.52" width="42.667" height="42.667" fill="none" stroke-width="1.0667"/>
        <rect x="213.33" y="589.19" width="42.667" height="42.667" fill="none" stroke-width="1.0667"/>
        <rect x="213.33" y="717.19" width="42.667" height="42.667" fill="none" stroke-width="1.0667"/>
        <rect x="298.67" y="546.52" width="42.667" height="42.667" fill="none" stroke-width="1.0667"/>
        <rect x="298.67" y="631.85" width="42.667" height="42.667" fill="none" stroke-width="1.0667"/>
        <rect x="298.67" y="674.52" width="42.667" height="42.667" fill="none" stroke-width="1.0667"/>
        <rect x="298.67" y="589.19" width="42.667" height="42.667" fill="none" stroke-width="1.0667"/>
        <rect x="298.67" y="717.19" width="42.667" height="42.667" fill="none" stroke-width="1.0667"/>
        <rect x="170.67" y="546.52" width="42.667" height="42.667" fill="none" stroke-width="1.0667"/>
        <rect x="170.67" y="631.85" width="42.667" height="42.667" fill="none" stroke-width="1.0667"/>
        <rect x="170.67" y="674.52" width="42.667" height="42.667" fill="none" stroke-width="1.0667"/>
        <rect x="170.67" y="589.19" width="42.667" height="42.667" fill="none" stroke-width="1.0667"/>
        <rect x="170.67" y="717.19" width="42.667" height="42.667" fill="none" stroke-width="1.0667"/>
        <rect x="256" y="546.52" width="42.667" height="42.667" fill="none" stroke-width="1.0667"/>
        <rect x="256" y="631.85" width="42.667" height="42.667" fill="none" stroke-width="1.0667"/>
        <rect x="256" y="674.52" width="42.667" height="42.667" fill="none" stroke-width="1.0667"/>
        <rect x="256" y="589.19" width="42.667" height="42.667" fill="none" stroke-width="1.0667"/>
        <rect x="256" y="717.19" width="42.667" height="42.667" fill="none" stroke-width="1.0667"/>
        <rect x="128" y="759.85" width="42.667" height="42.667" fill="none" stroke-width="1.0667"/>
        <rect x="213.33" y="759.85" width="42.667" height="42.667" fill="none" stroke-width="1.0667"/>
        <rect x="298.67" y="759.85" width="42.667" height="42.667" fill="none" stroke-width="1.0667"/>
        <rect x="170.67" y="759.85" width="42.667" height="42.667" fill="none" stroke-width="1.0667"/>
        <rect x="256" y="759.85" width="42.667" height="42.667" fill="none" stroke-width="1.0667"/>
        <rect x="341.33" y="589.19" width="42.667" height="42.667" fill="none" stroke-width="1.0667"/>
        <rect x="341.33" y="631.85" width="42.667" height="42.667" fill="none" stroke-width="1.0667"/>
        <rect x="341.33" y="717.19" width="42.667" height="42.667" fill="none" stroke-width="1.0667"/>
        <rect x="341.33" y="546.52" width="42.667" height="42.667" fill="none" stroke-width="1.0667"/>
        <rect x="341.33" y="674.52" width="42.667" height="42.667" fill="none" stroke-width="1.0667"/>
        <rect x="341.33" y="759.85" width="42.667" height="42.667" fill="none" stroke-width="1.0667"/>
        <rect x="160" y="578.52" width="192" height="192" fill="none" stroke-width="1.0667"/>
        <g transform="matrix(.37344 0 0 .37344 4.7333 1097.4)">
            <path d="m0 0h51.2v51.2h-51.2z" fill="none" stroke-width="1.0667"/>
        </g>
        <g transform="matrix(.36471 0 0 .36471 5.1356 1097.4)">
            <path d="m0 0h51.2v51.2h-51.2z" fill="none" stroke-width="1.0667"/>
        </g>
        <g transform="matrix(.41585 0 0 .41585 84.325 1055.9)">
            <g transform="matrix(.062269 0 0 .062269 -28.238 185.29)">
                <g transform="matrix(38.618 0 0 38.618 14724 -13542)">
                    <g transform="matrix(.71436 0 0 .71436 -400.52 188.34)">
                        <path d="m1293.2-120.67c-181.75 0.2763-511.18 0.13525-699.05 0.13998-2.3216 10.413-3.593 21.251-3.593 32.384v114c207.65 0.73695 494.72 0.38136 706.23 0.3733v-114.37c0-11.18-1.2522-22.07-3.593-32.523zm-458.69 295.56c-78.385-4e-3 -158.85 0.17892-243.95 0.55995v138.63c286.34-0.39317 421.73-0.13827 706.23-0.32664v-137.75c-163.2-0.53005-311.22-1.1113-462.28-1.1199z" opacity="0" stroke-width="1.4932"/>
                    </g>
                </g>
            </g>
        </g>
        <path d="m24.549 1119.5c0.66325 0 1.1979-0.5346 1.1979-1.1979v-0.3333c0 0.6632-0.53461 1.1978-1.1979 1.1978h-20.354c-0.66325 0-1.1979-0.5346-1.1979-1.1978v0.3333c0 0.6633 0.53461 1.1979 1.1979 1.1979z" fill="#263238" opacity=".2"/>
    </g>
    <g>
        <flowRoot fill="#000000" font-family="Roboto" font-size="12.8px" letter-spacing="0px" stroke-width="1.0667px" word-spacing="0px" style="line-height:0.01%" xml:space="preserve"><flowRegion><rect x="11.375" y="11.984" width="4.7893" height="5.388" stroke-width="1.1378px"/></flowRegion><flowPara font-size="4px" style="line-height:1.25">your</flowPara></flowRoot>
        <image x="-12.938" y="-4.0456" width="54.702" height="36.468" display="none" opacity=".42857" preserveAspectRatio="none" xlink:href="data:image/png;base64,iVBORw0KGgoAAAANSUhEUgAABLAAAAMgCAMAAAAEPmswAAADAFBMVEUhlvMArpwAi3/9/f0xMTH5 u8g3R6j+syj+bkAAr50ArZsArJoAjIAAn48AqZgAqJcAjYEArJsAlYcAk4UAp5YAqpkAq5kAm4wA mYv///8AkIMAnY4AopIApJQAkYQAo5MhlfIAjoEAj4IAq5ogkOoAoZEAoJAAl4kAjH8AnI0AlIYy Li4cf83/tCYAmIoAin4aecQbfcoAppUbe8cAiXwApZQApZUAqpj/bT4fi+Igku0cgdEAh3ocg9Qe iN0dhNYfjucAppYxLzAgkuwAsZ7+vMn//v4AioEAi4AfjeQeit8Ajn4dhtgeh9sgkev/vcwglO84 RakCfHEAqZcAhHcAin8fj+g0KisArpv/tSIVZ18uNTU5RKoAgXQpQD4AiIQRb2cMj4QsOjkHgHf7 u8kArp4Nd24Ki3wmRkMFhIMArqIaXVcAs6EPd4oUlIkUcJCe19HW7OoYf8IArZoRfanJ6OXg8e8A dmoJfoZxv7gNf50HjYH3+/ogUUzksDHo9fSu29e74t4dVlHusS0dmOsUfrXZrjUjS0g7QasYdrop oJP1sisAkHzit8Lw+PcpWZ4Ig5EAuadVnJmAxsAamuIiYJkAjYNAmJMuUqKwp0LMrTr6sykbZ5Uf mY8zo5r0uscEq6oWcakdiHgUjnhroJ/Js7vac0mTzskwlY4RosusrbO3d1LpcUVkubG7sbjrucVY gWnAqz77/Pw+qZ/LdU2HoFAxTqQOh3ouhnQgkHQMpr58pKQPiKU+hG81Saf1b0Ivkm4+lWmleleG 0MkXkIYikooWnddcml+aqa0BwrNKraVNl2RrnFootKYHq7MImJ14nlU0SqZsf2QXtKShpEcIr54/ saeVo0vWtb+AfF8IlohTsamSe1uJpqgOsaBYta03v7ILl6wdpJU0r4RTyLwEpJ9SsHap491ysGcO mroSrpOKsVwDjooSiroGkJUHrpker46btrhtz8UUm48Xks9Im4CksVC2skiHtbSFjGtlk3b9/v0l Z6QPqpcOn5EcjNqwQ5/xAACA6UlEQVRo3uzbb2hTeb7H8T3pA3uSjH9mauxZnbG7Mv4ZiAHJTPIg TwZCGtgnBRtIH0jogyAEKS2lBRlpLS19YEFYLIItI2UEpeiAHZXVwlD/3Fu5/umI1ZVZpbc7dmrH cm+luyozMNz7O+mfnNRzktOc9F98v1gYd3cyOdMmH77f7+/7+8MfAAAAAAAAAAAAAAAAAAAAAAAA AAAAAAAAAAAAAAAAAAAAAAAAAAAAAAAAAAAAAAAAAAAAAAAAAAAAAAAAAAAAAAAAAAAAAAAAAAAA AAAAAAAAAAAAAAAAAAAAAAAAAAAAAAAAAAAAAAAAAAAAAAAAAAAAAAAAAAAAAAAAAAAAAAAAAAAA AAAAAAAAAAAAAAAAAAAAAAAAAAAAAAAAAAAAAAAAAAAAAAAAAAAAAAAAAAAAAAAAAAAAAAAAAAAA AAAAAAAAAAAAAAAAAAAAAAAAAAAAAAAAAAAAAAAAAAAAAAAAAAAAAAAAAAAAAAAAAAAAAAAAAAAA AAAAAAAAAAAAAAAAAAAAAAAAAAAAAAAAAAAAAAAAAAAAAAAAAAAAAAAAAAAAAAAAAAAAAAAAAAAA AAAAAAAAAAAAAAAAAAAAAAAAAAAAAAAAAAAAAABYoyrahM6kQaFXpf5h5n9S/88KfkgAVlaZmlSd g71DPYlEPC7ri8cTiZ6h3kE1uCrK+KEBWO6kUuspkVNxSV4MKS6SS625yC0Ay0GtqPp7RDklLS6s 5kNLvCze069WXPwwASxdVomoGkqIwMktqtJiS/wnMSRii9QCkP+wUgdVshzNVDoZM3iJ+KepqUVo AciXstmwWnxOmQwudSbPWAuA9bAaHErkI6qyxlZiaJDQApCzirbenmB+sypjbAV7ejsr+LEDWLS2 zv7EkgRV5uBK9HN6CGBxaaXTCEpL593mkF8BAHOd4GB/Qlq+tNIJLSnRT2YByKqss79HXva00qmz evo7y/h1AMjQCvb2SCuTVnp1Vg8bWgAMi6t3BlfS8ls4zqLMAqBXXK10VunGFmUWgAVEcRVcNWmV HlnBxFAnvyAA871gT1xeXXGVnlnxHgbwAJJxNZiQV2Ncpc+zEgyzALT1xqVVGlfpmSXFGWYB73lc 9a/irHo3tPqJLIC4Wt15RWQBaBuKr5G40kZWfIjIAt7DuJKjayattJEVlYks4P1S0R9cQ9XVwior 2F/BrxB4X5T1xoNrL67SGsPeMn6NwHsRV4OapXZpzZlbf2cvC3gPdPbIaziuNGVWDxd2gAKn3WSQ 1ip2HID3Y3iVKIC8SkVWglEWULjlVY9cGHmVKrLoC4HCVNEfL5S40hZZrDgABaizJ1g4aaXNLIos oOCmV/1BudDyan7FoZ9JFlBY5VUBxhVFFlCQ5VVvsEDzar7I6qXIAgpDW+FNr95NrB52soBC0CvL BZxX85El9fKrBtZ+eVXgcZXKLIosYI1LXXSWpEIPLHEhml84sHZV9EtLVl7Fk5bjRYtoC9kiBdas pVpmiCcEKRqNqn9a1Mvi0syL1D+x4ABA0w4uxTKDmjZTL189H5+YmJyYGH8+ZTp6EvGX4lWTyVe9 einlPbRm/k2jtIXAGlTWn//TQbWgEqkz+ba9tbVD1dr+ZnwqETWVVy8n3jZ1zLyqqevNxPirl/H8 ZtbMv6udvXdgzUmdDuaxuJoSJdKb9u51bneVe07T5EsziZV4/qZj7lVV4q/rOkRoPX8l5T+yJE4L gbU2vkrkN6/EqDxZWrWuS8aNe90cd1X3m1eJ7C9/3iXiKvWqZOR1t6uF1lQ+x/DqYaH0M4MsYG2O r/IUBMm0akrWR+sWcLtFYsWz5lWVzgvFP6z97aQYhMl5LbKkHQyygLWjN8/bDPGXE12tumk1n1iL z6u5zOpuejvuiue3LdzB2juwRmjG7fmaXk2Ndxmk1VxiZUocNa/WGb+4+9SNLTvyW2PJrqEyPgjA GlAxlJe4stc7HA57qkYSM/MMoTP5Mp4hr/oy5VXTgzOxcKkr+bTqe9bb85FYjp4KPgrAqtfWk4fL OPZ6uzwyPDz82DHz36NxsZXQlKHGWmecWPFXb6syvLDvbiQW9tj2isSy28V7jjyW6u3WMyto/5nD QmDV55X148FovePx8OhYbUtDy/TwfJGViKptoVHwVHVMTMUN5l9vMuXVqevl5TabTSTWDkkavdXQ 8OLW2P2RqMNuucraxGEhsMpZX2ewu1wjo9Mvmo+EFEX5ruX+5miqLewzjp6qpnHd7YT41ER3lXE/ +ORaLGJTeTwf7h9rFG+pFB2pqx27L/ssZZb6E9j0JYkFrGaDcavlla9kZKy2UQ2rUKhI/KVheH9q cfS5cXPnrurTOyqMJ8abMuTVlYPltlneyr8fT75nMigbbo0+LnFYTCzHetYbgFWcV1bLK9/2kbGW IyKsimaFlBeyz9Q4SgzedZrCxKu+THm1ez6vPJXHGpWi1NsqzbWjru0Oi3Osfaw3AKtVr8Vxe/2+ x9MNalOmoSjTrnrNhcC3hvlT1TrxTlMoBlhu44R7UD6fV7ZAzdG09xVvfOTFqG9/1Nocq4TEAlan fmv1VdQljzWEUsXVXHA0j/rs5hKr6/k7JdZEq3EPeUWTVx7P4fSgTEbWcRFZ1oqs6IZf+GAABZdX dpekNoML40rNjdrhem2PZ7gE+u42lhjTG+fVE01e2byn6xSdtxaN4X2Hy0pXKG/4pYzPBrDKlFnK K7vPdb+2WdHJDJEax8fqtVOp54ZTdHf73fVBWXtCONntNsqrUwdjmryqPqH73mKWVTc9knuVJX4c 9pJ/klhAIeVVvW9krKEoVKRPlFiOtHO/jiqjEutRzeagNtvaDfOq63osnK3Amh9lbXJZSKwoiQUU Ul65XKO1x0NGeSWmWGP2tKvMk0aDdHfr7V2pGisxNbnO6G9supuWV9UnvlMM3z7UOD3sq7dyVkhX CKzG+VUeh+2avixUO6JtysTg3SCx3O5T10RipZpHo7zqeFAeSeWVLXCswTCv1L5QFFkOC23hpo+Z vAMFkleO4VsG06v5Gqfu7/u1/+zEeLtxiRXbtV6eK7AMVxpOndEM3G1e57dHMj2Aur86FrSQWI7P SSxgtei1Mm533K89nqG8SgbWkcOfurTDdMNtBTHFOhPbNZNu6gTLbTSc1+ZVcgdLyfwESuP0iJXE osYCVonBoJW8Gn1xJHNYqBVOy7/2SNrEemXYFDbdiEV2qZP3eHzC4IjQ3aG5kaPuYAUuNWZ/hOZb w46cA0vybfs3HxRgjeeV5BN5FSrKRmm8tHGb5h3i8XGjEqv7QbjctndH0HjS5XZ3XU8vsJwZRu55 SSxh/U7uFQIrrzNhoSH03X9RlDUrRGB9d+KrP38hm5i7izS6FvN499rF9oNRpnU8iKQFVmVNixIy 8RDHbz22kFgbdnbyYQHWcl65HtcqJvJK7Qm/rvzoS1m7jGWwPupuvVse9nhLN8kGS6Nud9+1mDav vN47jWYeQt1g3WDPPbFKPiWxgJXVZiWv7PvHjpiKCrGKdSfg/bBE1pRYBrea3d1XdpeLq4FbXnUZ NY33ytM7wq9MdIQzsVl3f5+cc2DZ933axgcGWEEVPVbuD/pGTPViMz2hM2DbtVnWlFhGHV+furLg Kb/RZDjBSiuwxBlhi7nUFGeFh7dsspJYP1fwkQFWTFmPlYG7tG/0uMmoCClHawKeSKldTl2C7jMo sZpuqAVU5EGHQWClHxHaPN5LdYt4iq25B5bk+PiHMj40wEqxsjCaDKyQyagQu6OXvB6Pbc/8e8Wj E/r3btyt98QSe9h2yvhSTlqB5bUdNh+bLTWBL4I5B5a8+YN/8qEBVkivtbySfMNmW0Ix8D7s8doi uz9I3RQcN+j5uh+Fw7bImS630eWd8vTAqq41nZrKiUDgjxtyT6zohp0skAIrw9ICVvJVJaPNJhMr pNRWe0X/5tw5X2K9Mhq79x0M2wxHWN0PbOH0wDrdYL7A+o9Km/eT9UELyw1bWSAFVkJn3Ep9NTWl DnVKpo+YHXi3HPOqEyfn9vm4MNhkd7eLGip2r9Vt5laOOE/81txSg3pIePqAGI55q3/PPbHsX25l uQFYflYWGuTg619/OqQ2hY9rTY6xlLqn3mRB9KcvZ+MibnAFOjl1j10xSLOFHaHHduI7kyeVzd8G 1Ec4efHZT7knlmv7TpYbgOVWZmWhIfjTef/rQ+q33jVqsiELHT/h9SQTa64liz9/azB1vx2zxR4Z 9ItXDi7oCMXFZ5ObFefUptTm3Pij/1dfzoll923jqBBYblYG7sHff/X7n21Nzs83jZnsyMQQyzNT E33mmnnXl5Nug6s3MVv5qSqDMIssCKxLDSa3Rmd6UtvJby77L/zmyPmkoX49g3dgmVkZuMvR3wb8 /rPf7FQn7/WPb5kbY80Fhlic2rVDzjDEcq+7Eis/2KcfWF03Irb0tVGTIyyl7s5MhXfyot/vv/za nnNiOfbtYfAOLOsA65CUe15Jr8/6i4v9Dzfu2aQ2hcMvTI2xxBArMDcnL03WWAZDLLf7Uaz8TJdu YFUtHGHZvOZGWGKtIpx8e+fBm+rDn/9PC4m1fQuDd2D5WLqREzx23p/8zv8tvEV0VnZ1jBUyFRmB uUH5bvWFYojV59ZPpVjsWrt+YD05uGALq6bW1JsrtTUz777x6oD68MU//kvKNbHsm7f9UMGHCFgu /UFLAyzxfRcGvo/s3iOCx2GfNrNqHgqdc3rmEmvjVnGnT2xiVRkF1nXdwHK7H0TSAytwzMzuakhp OB1Ivnk4/GPy4f0XLn6a88ZsdD0b78DyDbAs1Fdy8LcLya98sf+Z2CnYIpo717CZ3QZxke/rwPwy wp/EACw+NbnYwBLXdtJnWJV3zIywxEaDbWaA5hQj9+TD+y9f3Z5zYrk+L2WMBSzTACthYWN0tiFU v/Nnv3F6nHtcctRhpilUq5zK1PrUH7fLcWlSd3fBOLCqxNpo+iHhgW9NjPyV0LnZhtAWvlg8+/TF z6o/zjWxHJu37WEbC1gOZUNBC3k11xCqX/mHYbG5vmWzbJfGmk3ERvPTSs3w6ZMv4vKE1cDyBk4o Jt655bR3Nq8Onp99erUp/CTnxLLv38k2FrAcedV7yMqN57mGUP3KX/6bmlilmyXHyK3sZ3VK0eFK T6rE8n72ZYYK65ruKWFV04LACoiZe9bAUhqfembf2Pm99vGvfvRFroHl2Lf1f/gsAUvfEB6yW2sI i+e/8QMXwyKxbKXr5fr7LdlzQznn8WovAe4qmaxa3FqDu+l2+gyr0sTMXSk6UT37vk7bTX8qsIqf /e2zkpwTi90GYBkKLCsbDfLUrwOawPKf9zjV23x7fZIj+8K7ohytCWhvAZb/44l+YD0xWhxVF93T AuvApcZsgSVW3OeH/c6rZ1OPL4ZwFyMf5nhJx27f/8H/VvBxApZWr4WNBunQa+0XXoyBvt8YTibW 5qh8K1tvJqbuxyq1aVN+UD+wuq/EwhH9wOpYcEp44GnWmbvSfCcw1xCKa4Rpz3/+m/AuR47XCh37 SrmiAyytTkt59fvN9C+8/5nTqdZKkV2++uGWrIHVeOlAWmCdeVRldJcwdsogsMLawPJWHs4Wk4py wjvXiM7tNKR62ofOyN4cV97tru17aQqBpW0ILZwQyod+G0j7woum6ntneGYetd83mu2kUPnuqanA ar1nGFjd6RVWwHkuS2CJhrB6riEMb3zoTw8s/9mrJz2lOf447Bu20hQCS6nfQl5Jh366nP6FV5dH kyWWeua33zWdJTwURXtMmCGwbovAeqR3gLgwsCprjmZ7z+bU8pfzm/MLH188f9i7JSjnuD66h4V3 YAkbQisbDaLAWphX6mqAc/bM76OSQy8yD8AV5ZYtYCKwxO6CLfbEVGB9nWVjVQkdnhtg2cLOh8Xv PP+F7096vFtz/JH4tpUO8qEClqwhlC0WWMUL+X+0hWf3qj7al6UpFDeQq00H1pV17uwzrAOnsxwS KkervcYFVrLE2i1uOO7MrcZy0BQCS6fXSl6JS4TFOoE1V2LZIpGPSqYzxoe6YFBp4pSw6YYaWN3u 7HcJD1zKfEgoGsJUQjovDug8/4WrJ8Xy66e5JJbd4dq3l5NCYIkaQit3CMWlHJ0CS3joCc/fD5x6 oWQMrLpjB0wEVrsaWA863Fn3sDyVTzPeuhZDs/mGUBRYN3We31/8o5jCef6c00Vou+Tb+RknhcCS NIRDVvJKCr4e0AusVIklAuQv9zM2hcrx02mBtfuKWzewrhsGlth011zN8XozbjWEREOoaUEvXtB9 fnGFW83aj3Nbxiop/YGmEFiKhtDKCaEkSzd1CyxRohycz5DAX6aLlEyXZO4c0BwTltuu6E7Wk4F1 r9Wd9fJzwJnp6rPY+zqdOpXcKCZYuv8CYhdLzdpPPs9ptcG3naYQWAJtlhpCST52Vvf7nlZi2Sr/ cTTDGEsJ/bd2r6E88kB3UNV+zTiwbqQFVnWmq8/KkcOV8xP3sEGBpa67J4s2z2cluc3dd5a28eEC VleBJQV/GzD4wosSK9UUVp6uM04ssWTg1Vx/jkTudRgG1m3dwOq6nhZYNRniUb26mBrxGxZYsz2h 2Mv4sCSHn47d9fneX8r4dAH59X9/tVRgSYduGnzh1RJro3asZHxwp4ROOAPawLrdpBdYXWcMA6vv mjawKmsyrGEpdZc0J4ThhwNGjz9wMfn46v2iYE4l1gf/5uMF5FXZf0mW8kqWLht84dNLLFH11Bqe 3CnKua80gRUuv9tepRtYEVu5bpZVnRJZpt0bNS7nlOOHPR4TBZa6inVypjq0lW4O5lJi7fq5gg8Y kE+Df7WUV1LQaISluVE4m1iXGkLmju3C5de7DAPrrm5gPdqdFljHDA8lQ//PvvnHNnHmabwZhImd AYYESCYBQ2ADk+jM6NBQvJwrXdWJPV1LDVHjKpGMokhdWTnlF0uLkgXxQ+yhKKSkbRo3QJJuDSRt kxQDIQkUJyW7t5TANSTHlkaki6jUPyq1PZ1EpW2X0953xmPPO/bYY5M57T/vI/WfFpzJ9PVHz/d5 n++lpgbEYBEJDZYYYvllxwfEeoqhcMW6PGyxsLCM1O5blkXxCkoNQ4m/8faFMcVisVxLIoxAc7RB VXW/elETWHDtqAksW9UVjwpYfQnHT+fryEBIkOMJ/aE40goyblkqd+1TEGt13jcv4COGhWWcFpm4 Q4T142SSr/xQELVYDU2X6ATAer1BXXXX2s2xXRSBdUMLWGfuulTASlh0pw+3sEq8T/rmkz39CBvB rYcqtqT9kvbt3JCNqw1YWMbphbcyzP9/Dgs0FUAslqMvQRYOVXf1bg5xv8qWBrCqjt1EgcU6phMA C7YWUStHhpIYLAAWE6UtW7g8I923ZMlaWbz1JXzIsLAMM1jmRfIKMqxkwLIPzakK6MMnE4BkvxpY wt1lCYF13KZXw2IdD7SBBWDsU3ZyCMG3kIS1SoYVngq3pP2eLGs3ZD/ChwwLyyD9rm7RwDL/d789 6ZceaY8mLnTSh9tQYHlcN49VaQCLSQSs01fRiZDlhrWBRR8cRvte/mBSd2if8qMfWrgu3RcFFqsg 5xV8zLCwjNG1usXyCkKswaRf+sx51PpUtGkPhfTBPhRYcE2o0WuwnYJeOvwXDWCdUl0ScmyLZlgG 7Yka5MeIlYZkjz45RxEqYq1P+01lrc+dwccMC8sQvfLW4nmVUfdTZtKvfX8I8Smc46HmUEgfnEZ3 cwjX2YtpAMtmuyKogEX+4ZJTM9pHfZzgn7cnffIh1ByKxMrfnvZQ+HJB8Yv4oGFhGaFHRgCL/yD5 XGUf9PnRoXBAqz4qzmoqYBH34lP3xMA6cUcNrJojS5xac+dD1UAYSjrMQuZOCCpgEZx1ZboF0jUb Ct7EBw0LywC9eMsAXkGINZL8e58550ecCtd2lNaqc3YKnApYGql7QmBVHVJl7kDF1zUN1h9qkJ9B +aaSGqxM1TArP3xOuks6a1cv3/J3fNSwsBavb40wWECsnzOTE6t/HL1tYx9o1EedS46gMIHU/bZG 6i4B66oGsE6rFnMIR+9+LYN1tA35EaQ/qPPYsROhRKwSC5/mReH6guv4qGFhGWCwMozgVdLlHPm2 7QCSXnMHOjVuCp17VVV3AbiUMrBsMZk7wU2fdGoMhNPo1Okf131qXzywWC47K01irS5+GVssLCyD DNaieQXU+8muNxRSAlKS6j1Ca+CkDwUWdN1PxYdY9xIA68xdQg2sloPO+BvCTgKtjLJTOryaDFFE vDzstn1pvbNKbLGwsAzQv97KWjywpL9ep2ux+tHpinVc3h9HLCek7ipgEVdsCYB1Og5Yx2540LiJ ZY84NdarG5DKKEHO6QyEYLAkYDGxHovIzUrrpa1ambv5l/i4YWEtTh8a0MEKA4vnkzcbYscrB9vy NzouxBpQXRMKxM0TtlgjlQBYVcevquJxrmEvHV+lv6zile5AOBRuY8TyCv5FYXFaxLKsXZf9PT5u WFiL0q5bGYsG1qqZGSnQqft6UHcoJNEVnYYjcfVR+vUaVjV7fXqoSgtYnrPxDuuUz6PK3C/Hxfr0 khYCTdz1bgjt9nlBQqy7uVbFLIYBYi1PaxE6a3Xe1hfwgcPCWoz+xC+aV+ZV139bKRLLXJd8Azps WFBi9cV5oLgQ6+xFW2rAsi27y6gcVkVnbM/dCTvPqL8i5/V4NRgID4SunnpGzSsgVv6WdBahLTvX bXqMDxwW1iK0+/fmxQMr43rHdzt5+Aw+46dJHQKMBNA7NzZu2Y++1IIu58Bi8pWYJpbtzH1tYJ24 oeIV64gL9cWdZ+SjyeCkXugWDD9te31HvTuGVwzpyV+XDrHWbM/7bjc+clhYT693eCMSrOuzjSXr xfmI/3pKN8QeU3UbBui/xabiDtVMSNw+kSKw1JvPYgsrFoYHHyKfLZAh3QBrjggPhExXd7NbjSuG JEnWuiGdFGtNkRVbLCysp9fGz3kDOg38jKnD016wVipjDeoQK3N+DPFYFb2xW9D0/l71TBjbXwBg CZrAuqeOsPYMxyz/OOkBVaNhXC9xm1yQH7W9ebajmVHbK1GEp2RHOinWjq0/YIuFhfX0BsuIK0IA 1qipsZ3Z9jx8FP/jiA4GhuZ8SBurYjpmC5peMrxHlbqfPRUDrBMJgHVHtfPHVjSpUQg7z73KtCkI Ab3AfXJKHl/d7q7WrloNYMF/Lnk2DYu1stj6Dj50WFhPq2u8IUs5Mx2tHS43a11nMfPmH/t1QNAf JBSP5eBiCu8QjFeoig3MnapUgAURVsxEGBPoQ8V9DzIQji3oxW1TkdYYGKzWHhcTzytR2avNqTcb NpQ82ohPHRbW02m3QVuE3zzxesFicVTxWjPPp0esipqYbgO9N2YmvHHGpibTFRFYvhhgVV1ULRKy ex6qQQiNBgeHrDzP6/FqcFyuYLiJrtbWRobR5BXJZK/g02k2vISPHRbW0+lDQwxWhnnza17vaG07 dMuzt2fwdfrECgnR6Y3c07ZXRSyaHt7DqkKs0xrAEnwxdYeqKwIaYXFcU6xxq3GQykaOLq+mAn75 j7vry8tN4UtCJo5XJENkb075Fe5cZ/0WHzssrKfSxltmY4DFX/eaWrs8DCwF5y/PAmIlz7HsQCwK 8VgP1QVPugktd4rbOVX6wLJV3a5WJVh9qjtCCLDaKhReEXM6vMpcCEQuM9213d7yUemSMB5XUvK+ bVWq7zBre/bMbnzwsLCeRuHI3YC1Z35mttxkaoShycMRW1fydW1TOsQaGVf2oDm2U9XGovf3qVKs 6ttxwCLigFV16KoaWC1q27Z3WpkzgVdDOnn7fLR8wXi6gMYdtW5NfyURi8lNtfJuWVmQg5sNWFhP pWvGGCzxmrDba/KGq0osm7OBr/vf5A1SMSFS6liOhiY0b3LSLWpgqbdzEgDrHuEi1Fs/KK9OtrCc UnAP9usYwKAQcWOMu9FUHraP2gZLnAoLi1MskFauXZ8zsxGfPCys9PW7fzMKWJC6t5pM3g6IsURk UcWr6nSi9xhitanaWPTRBjR2d/lO6QLLVnWnWkBb7pfRtgRND9REP5Gk9Hg1qNg/pr1+1GsytcKV ggyseF6RFFVYkNp7tGStzLW+go8eFlb6+tBsGLD41wBY5d4uT3v4e579vO5YmDkVTYmAL9P7EWLR B6fRtrtQfVcfWCduqCbCA50qXh1FGlj+pAV3u31o3hd9MKa9GbyjyTtR384wiXlFMdQW3pyaxSpy 49gdCyt97f6cN4hXYuoOF2mm8vIej3SZxnKblmfUZfycLHu3Z04pYHBwwypHNFCDxu7VqmKD7cRd EViMClhQakCBJVo2NHBHQjH/ePKnGkTuAxh3bYcXfrHW7tr2RLyiJBHUutSIlbUjG7fdsbDS1zu/ NhsHrJlusFgmr6nHFV6545i8FXV1bT8NJYYD3MQRCrEOdF6i0SVlFbDOnq6KAxahBtZ91URIDV9y Krza/0BpYPkDSRZy4DJgbsyv3F+6myVeQYTFuJPyiqI8hTtSGwp3Lmdw7I6Fla42fmiYwYLU3SKG WOCxZntq3VLDErL39Xyd5ccpQJY90V3cHEkqxfQmZfXP6Ww5gMyEnur7VQqdbMfigWU7cxM1WFwv ErnTh1uUAIsaSziownP2z4+Tyu0lA7wyibwqb+1pT44r0WNZn03pZa4tyn+0ER8/LKz09MLnZuOA FQ6xYoi1qQCy969/Tows+1AwOn6xXN9RJcaC0Ellse7YVMDyiMBCVwyrjn+KAItlp5VmF31woIFT Cu6JFnLgEfsXQj5S8Wlud32YVybvbL0+sCiyJKUlnaztW3/4BT5+WFjpGaw/1RkKrOsT5TKxuprd 4bGQJbeuNPObe4MSsuzalXcleCenldyJPvmAYNFiw/GqOIeFAMtWdUpASg2OmoGoW6PpprboJ5GC dsFdfLr++dCYgIyV7QzwKqzW7mq3PrAoMntlSjNhQT6eCbGw0gTWNQMnQpgJv+kOWyzwJB31jFv+ 1ucUZfDm5xtCC/2TmsiCAqk/OscdeBgtp8MiDdpscDGnlJlQC1jL7qIGy9G2V/mgo30sqxSwtAqj 8GRDI/PjPhRXTLursbs8Aqyudrc+r6DcAIDWf6NZ63LwTIiFlZ4e3zKSV2CxnsjAgrvC7kZ5LPSw hcUreH5V0YHxuUFNZtkHA0qMdaAlelVI77/MoRbris2WZCS0HUL3cjiyJRLgO+m9l6OBu6DFK4lW C8EAocRp4jjINPfMeiO/kAlaWCngqpCitq1IAVirt+X9Bh9ALKx09O1bhgIrg79uihgSyHy6mj3y bSGRvcPCZzyfVzgWmh/sj4uzoKUZiMbccFW4hNaoeorbOYcQYN2JA9bFsy7EYPVGaqjSBaEjyqvY Apb4MEMjU3PjPpJCcUW4q2Ec9EZ/nVHgL6PHKwAWECtvpzmFmbDkOj6AWFjpRO7X6gwGVnQmlDyJ ZLIYKQC3btlsNq9ZnkMSY6G5qZGhTFWgZbcrBVLW0TAQ2dGh97Yh5VHX1dNJgGVbdg9JsDil00Wf HPYgvBpR/Vy7fbJ/cAFoxVAqdwXzbHPPqDeKX2jwu/X9lcgrIJa/eLPuS83akPPoJXwEsbD+QRNh pUSsJ1FLIpbeZ7vqPW5xMPSwVC5k75Xrs0mPIPjGgwuDKmaJxCIVc3REJhZ9qYVALJZwLxmwjt1B I3dYI3TKF4Sd0QKqICC8CtNqah4mQYFU0Qpw5a5tBHul8Kp8AiZC8U/p8wqIlV+QZda9J8wuxjMh FlYa+t7AibAyDKzfKjOhhKzRnmbGHV6HLlkP2fuaXIoDPlBMIDg/KN0b2iOV90BkImO5NrncAGl5 Lxq73z1miwWWMhEe/9SFGKwHcnYvjpXRvJ0AXiG46p+aC42RpIAG7WFcueq7JtBfxFQ+2iw6LIYg 9HkFsi7P0psJV+Zu/Xd8BLGwUpeBE2HlX774MyDLPDOq+p5HkCUOhpwffAdvXp8jXtgJpJ8CZo1E M3hx2zjSf2IdfXK5AcY5VuliuW4cTwIsNMLiapoiyGuK+iuSiSw8i7QaGpwL+fx+lbOSceWp75r1 mtTqEAMspubdGiIRsBRcbdpUaN1SqfNi164rebQbn0EsrFT1nHETYWXlg4+/EIFlfhLzRTd5W0dh MIRCAMF6tq42m/k1eUx4PqP8ZCC4AAyxyxsxIUImFlfRFzFIR5DyqOvsxVhg3UO2oQlPNHLnpsOd Bid9pCay8Uz65obkn2SfBFqN+f0UEYcrhoFhcKI1llcTjW5xIHz743eJhPeDUVyBKOu6jKSv1mJZ XYJnQiysNCZCA4H1579eGK6U7glnY4llam2d7WisBWaxnLUoQzRZVnlII/1+IgCVUrFiDv8Mzflk w8PtuXxYskj04eFog4rwMPcjC9C2YzdjgHXopkdQDNaA0xkeKRv2ROL2wIJExnCbfYzyUxrmivE0 93TH48pkgjtCEVhfXTgXjbESAGtTWFTOep13+3JeHp4JsbD+ERPhvr98VPrZBvgwuCc0xcvrNXX3 1LsYN6xDb+Z50WSxngizKN+4PBraJxfkIEvg9kzLxGpSdmoE4c4xBVguCVhnlAhLaWE5LksjJQ0R 2B5WrouGxH1naRSElJ3yC7G0cre7hdrGrlHxYePVJQCwiJqPy76qYZPOg5siKizZntxirS2yPtqI TyEWVmr6+y3j1nL2/df5svO923kYg94v1/i+Q5ZVPtHR01xLtJesBmJlFOVHjRNkQ4IvGE7gMwdD pD9MrIoHErHEEpUyE356KAGwbLZTZ6uVBZ/OS06JV20V0k8R/L65funzwVwRZJy3Ytzt7Z7a+q5u 8Tm1nt5ULxos9t0vyz4KA4tK7q825efnb0q+VmixPJs/8xw+hlhYqemfjQTWf35ZduFc4RrezM9M aBJLgpbos2qZIh7+2Io8AtlsFigKbJZkgOZ8svupgIs+J0x1A9HUnKiOhlgKsGzRCCuauVdImb1y xUj5A1OT4eQq4CeFOGsFtGoGb+X1Jnzyjtp2oJTjk6Vl5//IJYnbCxVeAbGyV/LJiLV6a+5vntmF DyIWlr52P/PYwDvCyi/eKCv9zJGziue/eZLoay9+81u93V2Nbz4PJosvsqJ7N0CVseCgiJXB8XAY zjoe7AVi0funK6IOyxcJsWKBVXXstkuIRu6dsJVDQ14f5pWfDIr2agjMVeyloGit3LX1PcloJe4Z NYqdBnEiLPvyP+KAFYerMK9AW5Mt6VjWbMn/Hv4/YGFh6evFa2YjLwkvlJad/8CRbTGj6zla8ra2 jna8f33m13X7chmUWIAsn3hpCCaLoMJ3hXDX54Qi1YGIxfK4bp6wRTJ2CVhRgCERlmiwnCKvpHlQ 8AcWgIOw2EzG4ApoBbBq7IJLwdbyZM8MJSzJYL39RmnZlx+wDJk8vorgymrN37Y2mcda7575FT6I WFip6Lm3DARWxvCF0tKl5xxs3qq6bzqSAks0LK2tE91PAFrFOUy4oxW5yaN8oXnodk6FpOY5J4bn NKwuRy1WdSTEigEWGmFxDlh7pp1NvRWcVBYNjkizIJpchX+qBCsxZC8v13neHgoiLIb7qqy07I13 CSZVXlnzN+XtS/KGd1i/+xd8ELGw9LXrmcdG1twzht8rfbXsI4Yjiiv513QAIDEANNr9pKexHvoO brfbHUUWMT43ktk/PyZuQwOxjgJ7OqO7gNVXL9rChDp0WwWsM1eYSIRV0Qt/5+BAr7iFSJLjU5OT U8EALN/IE6P0wzziGNjRPSHCSv9hR+tFg8X98eOyV8veeJthUuKVCCxrfn6BJeE7trycW/hPOMTC wkohwtr1IW8ksP76XulScB8OglrOz3R7TakIWDEx2t3R1dhc64LpzC33SUlA1uAQXBcCsjj2MuwV 7m3bEwGW7/4yFFhCBFgnblZ7IqXThwfpkwO9EJCRMGOODAGuIrQSh0DCFYbVrEkfVfJjdrnc0kS4 FH7HC2pgacftMq4kLU9IrMqsIvb6ro34MGJh6Wnji58bCyz4Mr9a9omDZakN5vdNqaFADS2PSBN5 5y8QHByZEztZLNvXRNMtnJxiuVx3zqiBFc60qg7diEyEFbD2fLizgWMFSggtjEyFxgQySiuPOAZ2 j6YMK8RgscRnZa8CsM5RTOq8ysmx5hRZErw1s6XI/eYvMbCwsPT1q9/zhvFKLLq/WrpUvPN3EFz+ yzPdqeNAqjt4TbOjHT31zS7ZZgmkAAX4hZCPFFiud2DJ3l45xRKqbx+rQoF1RQKWzXbxqgwstmJ6 yf7hGg7aUvJHkDKtmNrmxp6O0dnyVMZAVWlUark7PnijDH7F984VMvoDYQRXIGvJhkTEsuzIrsap OxaWfoS18XGdocD6H8jcl5aWvQ1hE1fy7PsTpvQEzCqfmJWZFS5mAW/mg+OEwDoaOg8PRyxW9aen pRArFlj3fTKwHDVNrz8gHITgG5+bD/mo8LqgW6RVlzgGer3pPtqoVBoluHNgsJaWvvcJ4rAS+CsE V6KyN1QmeG0riv2PN+IQCwtLD1i7vzUwc48Aa2nZR9BAYNmtP3SUm9JVuWS0gFm1hGSzIH4PBIPj Y9DHqhluiZRHq8+eQoBFRIB15q4gZ+6O3oHLHGAzEArCMEgx0pWg2AvtnijXvQ/UNljVbilyPw8G SwRWIZOo3x47DsqyZu/QXoQ2ZxUUXt+NgYWFpaMXdj16yzheRYFVeuEDYAXLZKdtsaKJlmkU8iwZ WZBlhYBYhONAWw0bqY5eWRYG1g0UWMduRyIstqGX5QhfYBz+ohi1wxWk6//YN9+Ypu79j8MJsAAF ekGkEf8VFQ4yOJurmpn6y4actLtdPFTtQGFCpeFPEJuMPWBr9IHLBCOE2YQUlZteZ5s0TVbiA124 XYwmNHZR95PMzebesOX38CbbTXy2Z/f3PX/ac07P95wW2ronn/cDo+7It2X0lffn/X1/Jpbm18rs m4EVekmLnMHSUV7axb7DUgywmjQNVt3+nR3v44lV2bzzqyMALBAoE7C6//d8AYBVykQJliy2r+b7 y8o2y6wH8+4xYTC0El9/PYKmzFTB1DrAp+5pwLrySNx8Zr3Yt19/S1j57IqYWFrcLK3YLULeYBGe MGuwOGARmrxK91f7keoMW/AbTQc7prqPwY8jCJRhIvwgn5l78WQSWHQiRnH7zEsPNkkInhLzbkey 5UDI2vAESt0VwEK10ZUB6UNosdoqlK7GlhbtObyUfmSw9CywfMuudGBlFWDt59VQg03dazp++y/M hCBQBmAV/f59eSGAVUoHOFLYxjZtsfiVw7KFKRtJYCSk7klgPeeB9fKOBfcwSU7M98/k8kLKlnSs wSI9ceH9pYBlVPdXdXJc1SLtb8CuFe4xbPsSqqMgUIaJsOi7fEZY4kiYsli2ifu5EAttHC5OkDYc sFZuSIDleM76LZS5E1YcryxLazP2nF7GPFdp0BGhORFYpPoFIc5e1fJqrMd8v7c21rrRfA4/kSCQ hsE6XjhguQJ8iuVYsOeECvvMmtuB8VhC6t5+6SHvsDhgffF4AMersSV7LvYK8WrNbeMSLB1aI+Tf n3BLuGFe1dZW7VF+wyu3t04UHQeLBQJpAetY0f8VCFhseZS3WFOLOVksjhaEklhWvusuAEtwWNLM PSXb2II9t5dg7+eXcnQUVxrNElgqvGppaf6L4jtesaXhK3RlCz+SIJBWhPXf77sKBCyaDpg5i0W4 H+RKLFTZVBJr4DHPKB5YT7k/3H2ojLBsjqWyXF/A4hQ/EKKtHDoFLD2ZfkEo28dJi9tFXrW0bFes FVacrP3tKIRYIJB2hJXfzD25msNbrESMK3naLAv2shyBMT+ljLEsj24qgPViRQEslKKt5cgr+5pb x/HK5EsaLHY1RwIszP1gHdZgtXDq2K74zh3uqPu0CIoNIJBmhPVpnoHFLT8LHoRZ55sItqn5XIlh X3IoiGV5eIMD1koKWO3t90asyoFwfiZHXtqXhIHQE0/ySlh+NmIMFia/qpXjqqPFsEOZure6IcQC gbSB9XnegeWnU5/pOR9f9CRzvCksK5u5ryw3WFZeSIDFzoftt54qDBaaSHMeCJM3hITXLwGWV0fi eJUGrHRedbAyGBoOKlL3KgAWCJRN5p5PYH0mAsvFxFep/EAD1aAUFss6cg/1GgRgWThgXXpswRis PMBSzxmsWCTFKw5YOlVe1WXgFSLWAfm3veJAy+eQuoNAmpn7ez+czzOwvllOAQttFHqTufdCbjWo shnkchT3hM9vscC6IwLr5hOLMsHK0d3NPHDbSM5geaIijJF99JK6TLzanx5fpXhlMLRukX/fa+r+ 81dI3UEgLYP1Zn4vCRGwfpUAq5SOhEw8NlCQlFtxE9VHFTPh40sSYLG/V14S2oicdoPQwf18xZ1d yglK3hqad0nZFaHaPCiL21O8amgwtMor7yf3134CFgsE0gLWl/kGVu+/5iSfapd/3clvAKI21kxu zQa3ElhPrrCuigfWExZYNxSXhGxvNS8NLB21Gne5JMBKhMhMF4Q4f2UQeIVUVS8DlsFwG4AFAmll 7nm+JETA+nlOzHmQxZrzJkez3PqjqIqlBNaju2nAejniUDqsslyI1b8wJvgrT0DqHdnSBpl93i4f BzlcNbQ2NG+VXhNWNd6G1B0EUgfW3rwDq7j3WUIKLFdyKGTDpEV7bjd1il4D2iZMAesRC6x7hCPP GZZwQagjKV+CcUmBFYwR2oUGbV61stouIVbF9talor0ALBBIbSI8XvT79TwDa1IOLLRSGHeKxOrf LLL6H7gJBbAcd16wuVUKWO3XnloxNayFTZ9qt88LF4QkFQvTUoPlYiIXSE1gacRXAq8aGxt3icSq OFT3edFxmAlBIDVgdR/5x/n88qp48segDFhswZLiiWXbPLHsOINFONheQ/vdkRSwLj12WDFF983O ovayJK9QZXTdL+UVAlbYSWptEOLy9jR/1cgSq1K8JiS/27sbgAUCqUZY//NDV76B9UuEdsk+2XRC qI/m4LFwd4So1kA8f6P9jRs8sB4iYF15ogQWit03ucvYX4byK1InVEbnZLxCm5JxCbBUAvfMvKqq OpRaK6wx/ucohFggkDqw8t1qYIH1ipZ/tMUYi03e5zcTgaMrQkLJK8JqZfdxksC60n765iOLElho l3EzzQZ7/9rS2KyOFyVrNHDAKl136uUGS7UxiuUVj6uqxuYtYq/ht08AWCCQeub+Sd6BhbafS9M/ 23Q4RgnEmh1bWNs4OxbTKg0eqwAsVL66JQBrBQErVcOyeuQx1tKDjVNy0W2Z5f2Vjgil2Ub0pvyB Jn3W/ipVb5fiiuUVUnNNBfedK9/aUXcVUncQSEXH9hZdzfclIQLWZ/40YCGACSs6SLMW9+LGTJbd vjgh2yPUOQUcWR1Prpy+9UIE1o07yRqW06mTxlgO9327fYPx1YQt6a+ItMBd2MwxyoC1YV5VCbxq 3scTq7yycf/tor3H4AcTBHp9wJJX3VPzk8eUtDu2iYUHG0iy2CRpVgzcKcK56kyOhJZHN0/feskD 6w4CFs8unlirTkrisdj0rH8D4+B9NA7aSN5gmVbjCl6xRXd1XtVp80pqrxCv9m2v5q8Jm2sBWCCQ xkj45fd55hUi1s9KYJUypVGTOel3Zgfci/1ZLur0o/jKIfFXJk8sJo57lod3RWDdbD/9khCL7s5Y jDRJiIVm0ZnskGWfQfaKnCWTvPJgeIWAFSKzGAileTueVwhY+3ZVs/8XKrbvBGCBQKqZ+16+hpVf YE0+m1N+vFGOFTWbRXpMLd2fyWJTZ2YGOR1JncFkivlCVllz9PS1e0QSWO33JMAiPCHfqlmKrIn5 B1kgq3+mf95tQe6K5IllIuIM5g2h3iiZbrCUjQYFrxqU/go5rH279rD/Fw5SXxbthdQdBMID61j3 v8/n32H9GMR8vktpZj3lsRA9ZseWFme0XVb/zMzi0pR0GjR7fN4YJa26j7wQgYXM1lMpsCgq5PUR 4pnELBpG1zIeyuIKHSrgCvmrMONSvh0XHV7VZ25gYfqiCl5tZ3VwD/rWHTB/d+QIAAsEwgPryAf/ 6CoAsMK0C0usuCRVImdnx9wajseOZsEF99jsrAxAUa/TLNvNIV6evvacW8exjNxo/+KxVbr7TJlX A4GQSXoosnbsoXa1Q2fuL0xYOEYKvEIFdwb7bkrXLxgzJu4q+VU6rnYh7agsLz9g+vzdbgAWCISP sLrz3xtFwPpF0WtIEisck9Fj1jLhXkC3dxg9WFxwT1nkuIpF132ESb5MSNw7jdZxksC69MQiXyU0 e7zrgVU5ssYmlhbQPSVGZeyhVt7S8QaLoHwRLK/YVoPTKDdYmrwyiLyqwvFq164tleU15Fcf7oZe AwikAqwPCwGsn77xY4GFiBX0USZp22CWGJtC/JhfXFt7wGttbXF+Yck9MWWx2cSsnTKZVqPhaIyi 0rafieft1x5zZVF2OrzyKA1Y6E4xtB4OOE0is0ibjT3Ujah1Xzz1PjpVeigXYBEmnTfBqLwXv1ej 0iDjVUcWvNqxY8fBmoqTO387CsACgVSAtfvo3/MPrOLif6kACxFrLuA0S00SSdpIy9jY1NTExITb 7Ua/Tk2NjVkc6K9JyWhnWg1EIl4nld5htxBPb6WA9ZIFlqLoTvH/VJKfcYc6BtChU9yhyVPZQ8VH SJIyra4vY6db9q3M+YwZeJU+EEp51azk1cGD1dX7B94EYIFAWKEa1puFAFbvz3MqwEJR9XLcR5nT tpNJDk8OqxXNdtzvZa12FlfeyFw4RCh4RVisj69de8IDi7zXfvMhZjOH0vkiy2EUfpnTD+VPdRCY U1lceXxhNfIiYAVDcmDV4QxWWqFBNb/ieHXowIFax9vQawCB1ID19vXyAgDrWVD1c15KuxLRmMmk XPgTprB0mcxULBBxzUWlSVRKDsfjL649GhCmw9M3VyyYL4zSr/iyP+xdRV8ry1MJ0kSF1udojfcR jhnVEiwtXqWAJfJqB8erQ4cObdm13/wWAAsEwk6ECFjvXC/ARNj74yv1DzoaC/2RwCqFQ5ZSJpPT Fwi6mKDXg/0HDseTS1885IDlsD49ffeOBf9lnIEEe2zIiaMeBnEmIsYe69J4G1EnbiBUNBokgXuK Vyl7tStlrw4he3Xg/R21p1hgwUwIAimBhXqjbxUCWMU/fabxSUdjIYMmtJiV0mYHheQJeeMJF+OP hyj802g359KllQH+t4/b745YVL4W4Qu7mNLgujemoyjtk7lzAxE/Q2u9iVIvrjIq51WL4oKwUcyv ZOMgy6v3399ysPbjt6A5CgK9XmCh1F2LWAhZ9Fw44PNQKuzg/p6l1XpkmWZQUL+qZowQsK5cuSMA 68kbN1SAxXqm2Poyw7jmwlFvDB1s0jjZ6Yuic2nNt8Bn7lhgYQdCaQFLlVc1B1oAWCDQ6waWRuou IssfjHtDHgcqLJgoqdg/EsRqKLAeSaCFHoYOeknV+dFqeXjzJg8sYuDhrRukRX269KCKAoPOTYTX vSEnQaWfbGL/TDhDgXjQnwFXCFgRlLlv0waWcEOYiVc7krxCwOo4dRWABQK9ZmA9i2QAFs+s5Ugc +R2nLmWqWNNj9cR8gfVwEHkr2uWi0ThochBawEraqoGVSy8Ii9ao5wuXsl8S+awgMlq+VY/kZHS0 xxnyRtHBTCZasZuE8QtG/FJOqtIg4ZW00SANsHaI/moLJ8PHACwQCA+svR/tLhCwfvojM7C4/J0p ReyIRwNeHyevNxCNh4MJNLxx1ECjIyp9agVOlpW7L4kksG6+1AIW4TALvSrELMa1nOBP9iZPXo9H gnMuhsnqpTMBDK9wAZaSV/vEwF0yDiJ/hdTw8dXdH0ERCwR6ncAqnvw1q089zywED//yHK9lv4v9 CwEadGnEZ9K+TrSs3Hg6wDswy50X90iL5tNmwht00eLBTKnkZFo8OPPL9vv0TZr+qgW/QYjjFYcr jldbWgFYINBrB1bmEEv26efhwUtMj9iSacycof5gufOSr2GxRazHz0csGWoS5hAqg4on0LiDszFY qDaKC7BqVQxWo8xgpeZByTjI8urkySoAFgikBqz3dl8tELB+jDClOYqmE4HMtSnHyKNU98qy8pB0 ZGxYrUbnGDrXF8fEncZsBkIDLsAS+6JyXtUcrmeB9R40R0EgpY4VEFjlf+QKLIaO+IhsWp4OB+63 6o9TaCxkcnx1LiZANuE6o+mVUWUDi+fVdgmvkvlVzcn66kYAFgj02oHFhli5uRjGv75qJgojcyye I7GYZR+p3miQA6tVNFjpvDoo41V1df3hxlMALBAIo+7uggLrWYLJycEkvCYTUSiZrYFlxpULsCIX jFnwqiHFK1mhIT1vF3CFgLW1mQdWdzf8gIJACmB1FwpYvb2vmFziq3DIXDhesdm7L5JDkOVi1rmJ UDVxx/qrKgmvUsAS8quTJ1lgbWUzrG4AFgj0moFVPPnNpmdCtGoYXc1uSXnTYjd1/Js2WYzfa9uW GVi4BlZaoUHGq8N76qtOAbBAoNcPrN5nc5u0WAwT9OpMRIFFmZyBxGaTLCZ4oUm1g4VL3HlgKQuj yfvBao5X9QAsECgzsCoKMhNustjAMOEQRRGFF0WgsZDZ3EQYz2SwsDeEsgZWstAg8upwfT2MhCDQ n+Kwiic/28xM6ELjoDMjrnR6vS4fyFpdL93MWCibCDMZrPRGQ2rhWbwgFPxVff3WreCwQKA/BVho JqQ3waugN4O9YjdidBSl27Zzm16NZ0bEEpYoTfoM2bsnsJnLTCboTE2E2M6oIROv+EJDst+e4lXl 4VYAFgj0ZwCreDK8YWDR/nBIq82g0xn1p4YHz4wjnTkzPEQYdTrFI3q9GT3CanB4yKHXaXkxk8kX Kd3oy3S51m3Kkjuu456WuMs3clh/VZMM3Nl5cOvWynoAFgikAay3CgisX/0bQ4GLnlvXuh3Usyg6 c3H0XEknUknf2enxwSHEJ8kjJPfI5dFzfSUlJX3nuCcIo17ztjC+TG9sLKTnfEYNg5WeuFdlYbB4 XiFgNQCwQKA/BVi9vwTpjZWvEgGPhr3S608NXh7ta+tsa2vr5H8pOXvxzJDeKD5i5B5h/yOnzjb2 iROU1mjI7hZuLG2jwzvlvMIBS1x6llZGtysbDTXJvB0Ba081AAsE+nOAVdz7R6lrI7wKejV4pW8y DV48V9LWWSJRZ1vnuYuDVBM/9emaHMOX0x5B7OobHR/SN6kPhmy/YSMey+UPNCl5lQJWR1oHS6xg 7ZPxSnpDmOTVnuoOABYIpAqsIwUF1kZidxfaddaI243GE+Pn2tpKFGprOzc+xA19+qah8bOYR5DN Gj1jNqoTi/J4gxsglosvYWGBleKVQWawJJWGHemVUYFX9SyvWGC9dQSABQKpAOudQgKr+JXLlXWQ HQmpx1ek3jw4muauRGR1Tg8SeoeeGJ4u6cE+glzW5RNW9bGQojZALLo02tSkWmnQ5FVaAyvVaEjx qqJ6PwALBFIF1rG3/95VMGAVT/68TGc7D0ZCZkq9djWEt1cCj3rOnTE1mc6oP4IGw9FBk17rsjBr YtGJv9kUV4T7N1DBYgP3ZOIuNhpYXu2ZrNlpfgeABQKpAOv4m3kAVpfaF5j86VV2cTbNBH3q/krf dGK6U8VeCTzqGzef6evReISdHM1NGsTyJrKrkNI0Z7CwkXtHRwvOYDXLB8L0irtwQ4h4VTm5pWns 7WMALBAID6y9R3/oynEmLK/c9Zfy3CyWi0lo5Ff6ncOj6vZK4FHfdJ/2I4h4l807SVViEYGsdh9d dCJkUym5t7TUSZZyGhQGa7ui4i5P3CsrJw+QY28eB2CBQCrA+jBnYHXVDH+r5rGytFj0sleLV4Pn ekoyqrMz0xNtPdOnNIjliWZTG8MbLJ5XHcPDtQYDzmA1yxJ3kVcnRV6xwJqsOGj+6uheABYIhAfW e+/++3yO289dFcPTzvOqFiuLi0JXadSjnl9tG+zLzKvOvnNtmaHWMzq0TfWykHLGmWxWh1QNVuvQ 6LDBoCy5K3ilqGAJvKqsRMD6/K/vAbBAIDywPjj2+/UcgVXc9c9zFw93qVwU9v7hykgsJu5U7V/p jWey4FVJ29nRks5siHXCqO6xYhEm8+5QgJT7qxSvDDunz4404AzWPmEg3IVpNIiJeyWrXac+Pf4B AAsEwgPr3aIvc+41dB0Y7xk8r0KsyWcROuMqcUidV/qseIVINN6XhcXq7Dl7Qr2QRfkyxVguOnzB qAAWH7g3jLeN18kNFrbjzg+EygoWy6s9+0y3i94FYIFAasC6/X2uwCqv+Lat79vrKl+k99cMQyHj 96peEBqNg1nxqqRnevBsFsBCxBo9oVJ6J5H1imZI3OiEz4gfCFuah0tKhjtUDNY+xU7OFnGHUKg0 cMCqMgKwQCCsducJWMVdrdM9o1XX1TYKX2kOhS4mrhpg6Y2D2URTLLAumkazIltnzzQ+xyJJUkes ag+FtD+avkWYBFaV6WzPtKdBYbCq5AZL2hkVDVaSVxX1DU08sHbvhp9PEEgJrN1Xv8+5iFW+dbCn Z7z3vNqCjuYONDOnOhDqjMg2dWaFobbxhotZAQs9enFI2ccieWCZvH5G64Yw/Lcm/Npza+3FnrbB FoN2yV2ZYMkGwsqK6hbBYQGvQCAcsLrzAKzi8/88iz6uXV0qCzpaQyHNRNUGQp0e9a+y4hWqYQ02 jHdm92xnyeUhYzqtOF7pdAQZV6+PohtCX4pXO2VbhIaO8bae0ZEG3BWhfCJM64zWpzqjHLBq6sir uwFYIBAOWEf2fvTukbc5YFXkNhNWDPagGEuljdVb/Id6w4kJrqoOhMPTWfIKZe7muuEsp0eWWKf0 CnvF8kqno0LquTu9HEhVsARgCbxq6Rjs+3/2zS62iXtN42Tic2HHgYkNSewQ0xkCdjIoc8pOiNJO QzFOREI+KmMwGis+js0Z3HWaJnxpQ7AAS5V1Ih0EjbS9OVAqFYGQ0kpwwUV7B0icSD17sdpqFXS2 4ki9OFJZadWblc7Nvv/5sOfT44CzV//npiX1x6BGPz3v8z4vkxQ6q51R44pQMxAeqVawtJ1RUFvb oeO//Pa9oVM972FgYWFZAQuao3NvHWK5JYuVn7Uh1vn/sq2Pjpz52mYg9NLxYrR+BEEuVa7z1S50 yEMZ8isFWBHC1mJNf/ndLBW0uiKExmiaSabPdvVblNyrlQY9sLZrO1gKr9oOcTff78HAwsKyA9ZY z6u37jWAxYoJSYYpdth5LOg2jNis3ewMFp0oueomUFakiKCQitb9eoGgrHgFQ+EDm/l15MwLqdFg kWD1PykzYLB6O0wGywisgzYToQqsAe7yqTEMLCwsS2BN9YyNb7vw9mtClGJlgViF7jkbYv1oQ6yR 72x4FWTrKlapBovzEmSu3sQLgvd0hqIsgRXxvhixCdwfSAGW+Sqn01tioOB1ttX+ilBfcq8c5WhL 7ohXe/eEPt02PtYzhYGFhWUDrK8aAazYHLJYrswuG2I1/XjPilgjf3xuDSwqImTr5hWTFhF9oGNa /1vyYrWOpQWWl/jiyzM2vKKDVhNhp78QRQZrv82KUDcRqgOhtcFq7/L9CQMLC8seWEPgsN5+TQgW az/0oJIpscVmVXjaklgjfyUsgUV66y00wHzHZDNSe53kCpshVpw2Z+4IWLMPRyx5RVnxCuZBP+Jk Mh+qJFj6FaGauOsM1glNgrW3AizPYH/fn7YNYWBhYVkC6ygA653PGrAmBN0SIXJKZsV2W2KZp8KR bx/w1ol7XbyKgrNhoql0hpSXfjRfyEo/qgN1TLSYI60cVoT7/DdnzLx6HtEYLM1AGPZnsklUq2jt r3H1XDFYSgdre7XkrgFW2w4/6o2O9RzFwMLCMgFLKmJNSb2Gt7dYsZ1FBh0h5+w81vkfHhoq72dG XixzloVR5wIWwCqayqbT+XIhXomjaC5TTKfT2VTUGVqo3EBpWu4Vcc++MT7mly/mj1sPhMArdBLE FH0dCrB6e42dhj2m0ugJPbBUXrXtPP7LufdQDQsDCwvLTCwErKGhBvQapKHwCaROMGo9abLzWP/+ v9+OnNFdunxuabCCOdi6OUx0TCpdLGTEXI4nKFJzK83nxIxQKOazjBPyGFeBpc28grr711oreGZk +o/fzar+ymCwwj4RWUEmG+81Gyxdyb3bVHLXnz0jXu09GLk5PoZ7o1hY9sAa3/b9nxsCrNhpAWwN EOvsXMzmSKdp7T9Hqsg6M/1w1gpYIb7oAJto0lUW4ixFSjqmS78kRXKZUtoJWUxKoGkZWF6tuOf3 pjUPOX3vc4qiLQ1WuFNE/irqKnR2mhOs1s0arJbdoU+2jWNgYWHZhFgArOFtlxGwPJ63t1hdaJCL JmsQ6/wP//Pl9EiliWlpsIJeB16BvcoLXIjyErbykkE6XsgmHYkVoszAimgs1sj0t399DuOgmVcA rHCH5K+A0VRdBkuN3LdbG6y2XV19n24bBmDhiRALyxJYp4bG37nQmNQd+u5P0JYOVZLsiNV03rP+ zYjsX0amXxAWCRZNlZIOvMoKvI8knOT3i05V+WQqEyJNwCIhxZKpOjL9m4dfRCJ6XoW0vEKPyqTE Vo3B6jIlWFYrQsPZM+KV50SYhhoW7o1iYdkCa2y853VjUnewWHMCIxPrScyOWKfP/8f6wy+np0em px8+560KDYXa/oqJluP+IFGHIn2Oy0YgFk0acAXiHtybHoEn/PbFF8scSVsDCw5yJAvHMEJvr/4o R99p6LYzWO16g9WyI3TywtHxMQwsLCxrYE0BsIYm7jYmdQdi7SnKxMqKbjtiNZ0+uPHgu4f3vvn6 mZW/4ko18/Yo3AGyfpKoT7Q/7hDfA7FIHbHkDIx4/t039x5+/eBf2QhF01YTIeTtmSyiYZQpBlv7 rQyWFljGK0JzabTNc34g+PHhIQAWrmFhYVkB650pFGL1/PetBgHLPbcsDUmAlUybXee9yb3TR8w+ mz1m5pU3yJeijMM4SNJE3SJDTheJSfjAoAlYXmL52bNZMkJSWl5pgNXXifqi0l81nasOhPUYLFtg tez2f9KDIiwMLCwsK30kA+syApanIcSKiXLZHDoDB2/FbD7TPRjmONYSL8WahoiBG0DSS2xGFF9I 1RwLIXknQwZeIWR5Ea0oytpg+Xrpkisqvz0jbwhrGqwBjcE6YcMrz2BXCAMLC6uGxUK9huEPv2+U w0L1UUF2NDApbdyas3vVrn7WDCyKhgEu6nAB6N0cr8C1cQ5XiTBkcn7SwCtSppUKLEOCFe7NKU8K YPZ39tsAS7oi7DaePdt0GgBY/dynp4ZxqwELyx5Yp4aGx1/fijUKWE2x1oJcMmeS6ZzbjljuXWET sSg2U7vfzjBlkdosr8C3nRSytT/XVYzTVC1e0Xpe+XyZtLzJhLo80dHvZLDMvNql45UCrJ1+/rOh YVgSYmBhYVmn7mhNOHz457mGAcs9t6HUqCDIEjrstoXu7f0GrJC5QtbRX9EksXmRx5yIFc1nOJq0 ApYFr3w+Xn3SKFN+ovCq2sHqUnmldhoGELCOHDGU3Nv1BqvttGeAzh0exktCLKwawOoZG5+c/Ldb DSliyRYrdjav2A90YLwzZu3e3DvCBFvteVJcpuyQNb0pr8C7EQ5TIWT5hTgdpEzAMgdYfb5gpuxS eJVMxzt0A6Hl2fNAHWfPYLDaW4/HJyfHx3owsLCwbIA1BcAannzVuBALiNWUUwYmFJILs7tilswC YilTIUlTrFhKRx2Yks94N8srVon2Kc6RWKm8kAAyUXa8ko8IfWE/MoKMciCUzfR3hPvrKLkfMhks A7Dg0GBXB//JJDgsnLljYdkIAWtoePj1XAOBBZE6NCor+VBeOLvbA8gyQct9wscSJBWkvbxYSKec rp3TGUKXXznCC17tPaZUU0m0K6x9phPNFoUcGfIHacqKV0GEK18oJ+QrNQkmm/F1Aq90V4StrbpO g9FgnVB5ZWy5e6DnnrgwPDyEgIV/MbGwLIElrQnH3/3nWONmQiDWiUzF0IBvShfi/n0tbrceiu7Y nKeXIjg+LhTTLoc7ZZeWV5JtYnOcQ/7OEuzttXmFWF5HYoEdzOYLIn8SoOUP0bQBWDAL9tGAq+rc ChGdvzMcNkTuWoOlAOuQAqwdWmCZDJbnYDD37ri0JMTAwsKy1EcysA78HGtUE0sm1o4qsQAEDDIv y50DbRBwIa8lq2Xnng1RKJTBXCUdWILMDKlYKpadX0ZTniDW9FjeeJzmVhbvz/Os2sdyOXwLHFW7 suWCIOYSHAmOSjMK+vuCRALGVvjL6HnVb4zcZWDt00TuqDN6UJNgbbfiled0yz5OBdZH+BcTC8sm xEJrwg9exRo5E4J70ngs1HBgUumikMmd3Wjdc3DHwe59vRuzT0ShlM+m0H90cFdyuZNSY6mV1RXo yPtLxVwNi+XNFTJ+bn4xUCEW7VCiV5406Upl00CtDGCLZ73gsqgIy+fETCGfjWrACo8U6girwLIz WNqS+05jZ7R6RoiA1d6RuPk+jIT4MAcLywFYw69jDZ0JodzQIqaSUa15YYAE5SKQICMIhRL4KsSq JONMK3TwV+EVx9++dnUF5jx/IVXgbT0WZFb5eJDzLgQePVWIFYGzH4Zx/jIGCAovS6XzxVJBkFQo SmTVvhv5Kz2vOkwrwt2VK8IaZ88qsFp2hGcgwsKXhFhYtYB1FK0Jx87NxRrpsNAddJOOWDKzQFFJ yr+76hITLWh4tRC4iIKpkOBKCcco2x6DKx8hWXbpSuDK04rHShSTTF3fGFUeVf1jVPsnaT+YEiBv tzVY+40G64hVyV1rsDxth+iZP4zhJSEWlnPqPvRPf2nsTCj1sXLZpAlJUUWu+gW8iqj5FeJV4P4y ACsopKBVQFkSiyIz2WTJTxD8nauBwI2navIehIMaZhPfHLV5WuBVprM/HFYT987K2bPCK+UqZ4/m ilDXcm83XuV4PHv38R//dgxn7lhYNS3W0akPh8aHJ/4u7fA8jSSWe+5sOrkZMtlQw1XhFQHzYCDw aI2HDCsIIZkNsSgaeBUtIGDNXxxtBo/1TCYWG8yVmQY8EZMVe8M+A680JXfTVY6mhGVjsE639858 /8H4+NCHU/gwBwvLfiaEa8LxyVOf3Yo1GlhN7lvqlc7b8cpLa3kVuHongeY7ABY0NwXWlGNRXjBf KBOHNyzffxRohhxrVvFYfiDW2/Mqn2vV8qpT18EyltwribvOYOlXhDAR7uhLXOiZHB/ChzlYWDVT d3Sc0/OHPzd8JoSp8NaA4Ho7ZDGuAqnwik0gXo0Grs9LwBLTDMq+Szn9vQ5JJQoQnkEPgkYj5Msr gebmQPPqskSsSMSf2NxUaDWhlryt/T69wdId5ezXdbCqA+EJM68qwGrZwxJ/mJrEERYWlmPqDiHW +39BM6GnsRYLpkK3mE6+ObLQ/TRV4dU88Ko5EFglEHwoCVjS3TIbDJIRucxAB09myqi9wKRFNCwm Vi4FRoFYj1aXE0QEgEX662k31Oo9ZAUfzIM+Y+KuM1j7dCX3I84G6/xgV+Lmu2Oo534UAwsLy1Zy dXTyw+9vxRrusJDJmpstuZLMm9IhXQmpgFcLo8gtPXo5g5Z+VFwCFmJaUeQpvySaE0spyUEx6bgE LAly8K4b4LEikYjXS4a4gutNozUoYpXjYcCVGVhdlsBSeWWTYFWA5dkR5i+fmsS1USwsxxALgDXR 89lWzIRSh/SQmE8m34hXTF4k1XIo8AriqObRwOLKDKEBFtrlpfKFjBiPx0WhrF7OQM6EJkWOW5KA hYjl5UkAltdLsUL2zYiF7NVyv8+KVzUM1k5Ny32wckW4V8erlm4q8tV7EwhY2GBhYdVO3SHEGjog z4RbQazYBqRKmzdZSVcpTnnVU8D5hSujCDyBBbmkQObSjKY2FU2l09mo5nAmL58azqzfkIAFxFoi eBIBy0uSmfwbBFlM0lXMyfYKAcvmKEd3RagFVk2D1b6f/+XcGERYp3rwkhALq3bqjmbCoVdzWwMs NBbuEsubDd8ZJi3wFV4p/grl50uo1KAHlstcRWXK8lsTKxdRiIXeeQWIJQHLSwXjpRSz2TjNVc7Q nWHVX4WNHfeuCq9Ug9VdWRGar3L0vGrZ0c9fHpMmQpy5Y2HVAtY7Uog1oRQbtkTuOQ+NprX6mcWg ZCpCV+bB2fvNilG6tD4jbwNzecbQ8tR9QFnOvvjZ+/JMKBHrpEIsMsgL+U08DjqLzgu8T7FXhgqW 4SjH8orQcPbc0mKcCLmveqSJ8Og7GFhYWDWIdVRqYo2fu+vZKosFJmtvf1xCVl2QkPCQIyt1BeCV 7K8gwrq+krAGlgExRQQs2B0m1pS3wntvVDwWSR8TS9n6nka6g4Tn8Yd9fT4ng6W9IjR2RlVgGa4I QYP7ud+dG5JaWHgixMKqI8SamHgF94RNWyX3YCcbF4pZSIIcKBGFrChdiLOVuJ1NLD9VoQN3ObNc PcByycCKeBPrl5T3wruvLpH8MZlYFMVnilnGMctCjE2VhVwI3JWJV512vNKV3NUOls3ZM9oR9vM3 JyekCAtPhFhYTiEWNLEOD7++5XZvJbH6vUROLORTrmTSFhNAKyaVLoicml4RxEl+dvWKyhwwSQml IKrNsCz68SUFWPzKdSXEkok1q3oskqYSCFlJ+40heCv0OCWR94f7kHyGDaHN1fPuSuJ+UNvBQsBq N1/lgAboxGX4PzCEa6NYWHVYLBRiTZy72xZr9HWOlli7wiwV5HKZUj6bckkJedQ0esGyryjkCG15 nZ9/eqXqkRbX6weW1LviqiGW3G6Y5RRgkVQoyIvwNC7zs8hPw7iy6VImR/rCfX4dr2pUsAwGS+GV /uzZ4K9gIuQ/PjeJSw1YWPXPhIcPv4ptpcVqig36OJYKUVxOFEr5dDaVUlZ7slypbDpfFOK8N6g5 aGb5eTW/kmKoa7e5OoFFS7zyevmlKu9Q8r46zxEIV0iUP0QggsLDyM9SXTemstl8sQC06usHXGl4 ZVXBMibuKrDUgdDQaTACa2d45ubEYTwRYmFtYiaceP37li21WLEdfSxLQKmAIgBaGaFQLOfz+TQI /lEuFoRMDmilOw1k+dvqflAC1j/uL7PKiXPcCVjy6Ofl1xc1wFKIRaqiQn46khClZ0FPks1Kj4Oe RswRwb4wopXf7zcOhP06XnUZOqPaDlbVYFUmQgOwWgaomQsTeCLEwqpLH03JM+G7P7dvJbCa3O6d fgk3KPKGTJ3l+FxclBTP8exJ6cfaQ2aCA179Q4Ob0RtLisGqH1jcnetaYAGx7t/mImRVdCgElDzG 50QxIwmeBobXkAQp+eTHdiDsNXdG99hcEW4fNHUa1NZoa+Jfzk1IE+HUR/jXEQvLwWLJTayJD14h qGwhsZrcR/wqcJQcSSP4AaEX+KuFZp09WlzfNLDY+YVq6i4Ta2GFrX43BaLpYDAYkuWvCH5k4pXt QKgFVre25G7glbmEBXeEMzffn1BaWPjXEQurvhBr4vXPu7aw2SDlWAdDLFGvWH7lWkDvjq6vVIAl 1gmsyMnVRzpgNQdGr93hvBpeUTK0JAVlIXQd3/i1Ciyf0WAZKlh6g9WtXRGesAJW1WDt7eZyn03g UgMWVr3Aki3W5IG7591bbLFiB4Mcy9YFLRYNcwE9atQWFkHQ9QLLy61d0n8KtLmuP2YjGlhVcEVX cRWM/Lq07g+Z5kFzBatLf0TYbSi5n1ADLG1ptGqwTg/2ztw8MCwbLAwsLCxHycCC7ujfW7Y0dpeI NUCzt+c5Z2Rx3OOLBl6NXlmtsI7OZGsXRyvAYuFzmo3EWlxnWVteIWDR1OPr1/4WVHhVo9Fg1XE3 GywjsDSR+85g/PuJyUkZWPiXEQvL2WJNSTPh8Lm77e6tnQmBWN3U+uodnnfgFc+9vBQwOqNLP9UL rKgGWDBYGoAF/YhLayRHGnBV9VdUZGPp6tUfIyEdrwwd917DQLjbYLCOGAZCmVfG0ujgPihhDUul BrwjxMKqcyZExYbJiVceOCj0eLaUWO79G/cX17wJrtY4mCDWruqzcgSsi48r1ixYG1hMuQqs2QUT sNBh4eo8H6EteBUM0Rz1+Frz6GqINgXu5sRdZ7D2qAarekW4vXJFaGmwpMj9A7nmjidCLKy6iCWH WHCe8/vBrbZYoK6Vi4H7txMJe17NzK7eMFMmcP12hXJBIVUbWFQFWOTT5tFm84c9uvaYS8CBjjG/ onnub0+vBgLXfj2+WV6pBkt7RWgwWBVeqZ2GPccTn0EJDu8IsbA2MxMOwUw4+f7dNojdPVsMrJbW n64GFtfmZ/hjVrjy8jMr1x5ZuaKF2cokGRJStY6omXyEVIBFRJYs4Ic+7urqrwme1POK5ImVJRhG A5d+DIasFoTWFaz9ho67RQfL2mCd6Ej87gCaCIfwRIiFtamZcAKaDW3tW7snlKbC9u77o4FH118u z1jMhdzM8tpiIGDliVYj6usjfsFVG1g8qVS9IpGfLlkBC4gVWFxaifBsRKYVTUU47tf1p/Dlo4Er SxtBLa6M/sqi0aCrYFl1RtvNBqulO4ha7hN4IsTCqh9Y0gE0qmId+Pn/YyZsGvwBNoCBGwsv53mO 07QcWI7jiccLVwIWMxxcLq8RVWAVHICVoJRmaoQwrwkr28LA4v21O/MkOpSOUBsrL1evwTAIrw5I G0JDoSGs4VVHlVfGyuhAtdKgWRG2W02E57d38blzk8hgocNnDCwsrP9j31xi2kj3LC4TNrExcKuM 7bKx3Tb4bTltY2KlbeM0iaxJeCiyUUBE5NJB4ibD3AyY10CIgEgITS8QElLvbrZZZZMsesOOXSTE ImoWaalJo0TZ9O1FsoymNV89XY+vqkwClSz+Z8MOpBL66ZzznX+9mfDa9Z5isfB7i/3q2QPLYnmD OnWKWl1bevwDOtHhlfmP+78+QYGshMXLwq8ZBKwIQ5fYo7gmsG5PuLhpaOTCYzVg0SaL2ppfm97b 2dnZm16bX6AZVqIn9YdexfugeIGlMRnVNVhih5UmxpYLxWIPvBGCQCcCFpMJC4Xq28rZZ0JErJfT Jeocg4vppRc/3v+B1n3kcNYXPlJqfmjmeYaBVSTS1KQLrEkeWK0X/rWuBiyELJpZpWdbW1srFEVx qKQDoVdt0ODUD4Qyg9WmZrDMHcELYxvFQj8cPoNAJyLWFTYTFhK/2yxXzx5YJvNrhiKIF6Wtmfn1 tekn02vr8wtbKu6KXTX8mG9gcdXURD4c1gTWnUmvAKz7a+rAYqHFSUiK0x9cGF6JJ+44YHETLAQs XCDEGayKc2w7VWATIbwRgkD1Wyx0T4imWIXihsdmhMUaOY9CodAkIVP1jPupLmodLac4YLUG9IA1 XgOWa1qdgngr9ziA41USzyvMZlR+9Sw2WOKVu6dvERkseoR1s/MGAAsEOpHFQpmwmHrbjiyWAaHw N/E8inZaOlApUWs/5Dl/1eRv2BzWusyJ3xolBWD9tHeOOgmvVo78Xm1cSQcNEl6lhZscUSBsw/IK bRrK/9PFJEIwWCDQiS0WnQkHNlrSRlgsk33/3YmMDwpqD/Icr5oC+buawOptHI0JwPLvrFAn+TtP yEBMc9AgACukNhmtNe5tmAaL45XF11eeGygwZzmd0GCBQJ9Qu/dUDbJYZvvrhRMZn487/jzHqybv xG3N2+fe3imCB1ZDK345qmbk1o9dMfWBOx8IcQarW2KwWmSBUAAWx6vZSnTs3rc9TCKEyh0E+qRM WLg0dz593gBgmWZn3388ifNZ2WnN8Pc2ZFkHWPFHNWA1PV2t/+9Qq4cuUqNvVxZYwhNht9RgVUST hg6cwep2DS1fKkAiBIE+CVid9BSrcL36nz4zyoRnTyzLbycJhdTWUlMNWJN3tIE1/JD007Tyt/oj kV/rt3Kl0pKXlAXCpPoDocbGnQGWfDMqMljmZvfYH/97vUCPsDoBWCDQyYQyIWOxcp3L/9ViMsJi ocH7zAmsz9ZRwwUeWLFxzdvnxsbhzdYATSukSORF3cBC94qvXCJcqfHKLeeVT8wrhcHCNVh2jyv/ 35051mANfgf/gCDQCVsspnbPoRbLYzcEWKbKm/rbJWr11wsCsIjRRh1g3c17/axaI8/r5WKJmjmO SHGlyINRzKChNhm12XAbd9wVYSU69Pfq9RxTuUODBQKdGFhci5W7tmyymYx4KDSZLXulekMhtfAi IwArPKo5dGduc0geWA31AqtEbb3IkBq8cuB4xQNLWGDZ5P7Kjpk0oLPn/D8vcwYL7p5BoJMTq/Pm pR5ksYrVt90WYyyWvf4ai1pAlzk8sJJTw3rAKscEYD2uE1hUaanPK5kzSAZYKgusdhGvvhcbrGwN WIqNu7klis6e+5HB6rkEmwYQ6JMyIVu7J/p3m9Nmg0Lhfr39ErXw+CTAujNJCJFQ/fpZvvRCBZZu HlQaLOkNYT0bd7TB8g79sz/BVu6QCEGgTwLWZcZi5artoQ5jgGW2valz1YkOZvICsMKP6gZWwN9Q H7DoBZZf4a+cOoMGxWRUCITNmAkWD6yRimOoXM0xBgsSIQj0ScS6QlsstHbP5XatPmNaLJOl8p6q z//M/CgAq5XQB9Z4mOVV3cCiZg4DBDYPSnjllvPKp5i4KwwWZuQeKC/ncszKHTYNINCnWSy+di9W g+42Y6YNpuwv03UV72Jg+WO6wLo1Hg6w8tcXCanVp95YfbhSDhqYRYNNvMAST0blG3f6inBsolqE yh0E+ixi0QeFqMUqFHeD7WY0HjWEWPvr9RTvImC1BrwP9YGVrAGrjtKd2tp55ZWdO6vs2yWDhhqv ZAusrOpNjtncEYyUl+nP3ANnhCDQJwOLv8/JDVTfum1mQxyWacTyeqYOYtWA1coAq/FUgUWVpj+4 ZGtRXX8lWWDheYWbjKInwnD5XnWAN1jfALBAoE+0WJeZ8WhuYLfFSk8bDCnez7+v49iPBxZ9cFMX sIRI2Kq/w6Ko9cf8A6EkDqr5KxGv2EVD2qYosOS8EoCVDWbG5npyzGj0MhgsEOiTgcXf5/Sn3oaM GmOho8I9/adCdtbA3jMHXHUDy+UK6AMLLdwPSVJaX4mAJfFXygfCi+qBUDIZFRr3NFH+A22w+Ksc ABYI9DktFv1QeH3DHsoaBCxT9uW7ElXHcDTSygFLv8O6Mxl2sQr4dW8JqYWnMVLDXmn4q27coIF5 IGxT4ZW54s7n5y4lmCfCm51XbsC/HQj0uRarkDto91mMyYQmc0W/eJcAi6wDWEkOWP7AkQ6wqNWd D6Rgr5TXOGq88ikGWGwe5BdY2MmoyeLzl7fR9wWDBQJ9NrGucBYr0b/x1t1iMeah0DRrfz2vQyxq 9UVDgwCsR/U7LH/gqXZFRq08+eCtm1eSQYOHeyCsf4FlttiSY/mNAcFgAa9AoM+2WMVcAq1HQ1mD XgpNlvNvdG3QUYQHVh07rNtlgo+E3qUtSrNwXzsmlesrybmzglftWrzC3eQIL4Rt7RF6M5orgsEC gU7FYl1iLFaueuDsNhtVY6HifUvbB209bb3AA0v/NOf2BAcsr5/c0ar0S9T8czImsldyXkVxvJJc EGIKd1WDNWtDk4aNHGOwLoHBAoE+E1g3ahbr31FHs1EWy2R5OX2upBnclgRgtTr1jp+H7+ZjLK8Q sPY0Gv0StXBIEiq8iqq9D7aLBw3CybM0EKpMGqxD5Tn0bTmDdQOABQJ9XijkW6xC4vdw0G5UjWWy v3ynVWNRz3Z+yvDAcugCa7Mp5mXlfzWt8XuprSNvTN1dSfJgMCjvr9Jp0WJUmgftmMIdbdx9gcVt 9GWhwQKBTgdY3/AWK1fcOHCm7UZ5rJHsvlbxTlFPXDyw/HoOq3d400vywPqwRmlgcClG4rZXKvZK watagVVR51UtEKbD5YmNIt9gwcgdBDoVi8VMG3LFXbe7+W8GOSzTbPb1glZ2W/uBBZbf73eOxnWA 9TDMAytwvE5pUPCVDq8k9ZX8fVDOK/ECCwesZmuePiJkJg1wRQgCnYrFoi8K6QOdRDF14AhmzcYR 641G8U6t38+zuGKAFdcEVvxRkqEVSXpdj+fVgbX2gZThSo9XovdB/oFQ1l9JgCUtsHze8na1mKCP csBggUCn2GLRFitR/PdFp8duFLBMZsv7j+pwmf9XponllT883qgDrCkngysaWC9UL3Oo+WOvKq5U 63bxQY70gVDPYNnCaIKFeIUM1nUwWCDQKRFrkLVYhUSisOuOViyGEWvEskep0mXm8YUmPw+sW9rA ujWaJFl5vU/Vgia1cBzQtFccrqwKf8XySvQ+KCqw2lQm7ugmx5qhJ1jspAE9EQKvQKBTsViDndfY aUMicRD2tRkWCk2WkWlVYC28iEQ4YBGTd+LaQ/fxMA8sUm03Sq0+7yNEsOJoJdw6S3HV3q7srzB7 BtWTHLRxb0eBMJVLsA0WbEZBoNMiFnugQ4fC3EY03G0gsbK/qI0bqNWnrQKwyre1gXV7sgasvVIJ W+KvHgUwvMK4K7G90uGVXZ1X5nR4bGKD5hVMGkCg07ZYaNpA9+7oQiecNOymEIXCykuVcQO1shNo oGkVCARiE3rAmiBYXsW8H7CeDfFqiSCw9krir0J4f3VRySsxsDC8ms1a84vL9ActDsBRDgh0usTq vIx69yJtsVIHMWvWuBrLXHk9Q+Et0RNXA4OrQIDM3B3WBNbdJgFYP2JnWNTWjoOo4UqNV9Y6eFVR BEJM3262+1zl7S7GYKHG/TI07iDQ6Vss1LsXNzyEz25cKDRn0R10CbtBuM8DyxvY1AbWZoyhFZL3 OW7VQK3s/UWo48qqbNt5Xon79pYWjUGDzGChySj9Qkg37mCwQKBTb7GE3n1gzkOkjds2mGYtb7Dv etT6jw0srwIu4qHW1L238RHB4goB6wizaqCePVHySuGu5LzyCP5K9D4oDoQSXkmB1RIdGloeSLBH hNc6ocECgU6ZWJeZk0L6FX7XGbUZSCyL+f1CCbeaet7KAyv5SGvqjlYNYRZXMcK7tKr4XdS56WMy KfZWeHclpMFaHOTucWzq+ytsIMyGMuVt5FfZxv0y8AoEOl1gfcOHwlyqWD0grAausUyWX96vYmzR whGXCF2u5FSjFrDQqoHFFUHE9p7JgUWV1uS8UuBKlVe490GVQYPAqxE7mrjfq/ancnwghI07CHTK NRZ/UphIFTfcYY+RxLL/trdFfVT05EsBP8srFzF6q1frkbAc5nmFHgllwKI+ru3HktrllWTNoODV 9/XxSgCWJZ0cG5srphJwRAgCnRGwbgwKoTCV2E0mPW3GEmtF7rFKpSeuVgZXCFjjWsvR+O18mMEV QZCKR0KqtH7IPg+K7RW+vZLUV3zdrnqPI+cVD6zZ5ii6eUYjXD4QDt4AYIFAp22xhL17KtF1EHDY 7AaOG+wvp8/JiUVNf2hleeWKTWoOsTYDYZZXhPdQ9khYotYPnUm5vdLxV6K6XdG3N+PfB0X+KhuM LG53oa/INe7wQggCnUGLdaUWCgvVA3+oxcDi3ZRVEotaf9zK8spFai1H0SMhGWZ5RbiOpC+OJWr+ MJzEle0acRDfX+kU7gKw2nzk4r1qQQiEg1egwQKBzoRY6AiamY8m+ufcZNBmYCg02fffnSvJnglf +HlgRe7GtR4JCR5Y3iVJtKR5RSQlWVDFXMnGV4o4iJkzYHFltniI8thcf4KdjF6iXwiBVyDQ2YRC RCx6PprK9e86Y+0VAz2WWUEsauEp67C8Xi+5Gdc4fZ5MssAKE8m9EiXm1cwhEVaaKxV3pcGrSp19 Oyrcw0Pl5f5cip6MXofJKAhkTCjM7RKEp9liLLEoiT1a2WnleOWNPVLfNcRvDzlpWiGRx2uiR0IJ r3C4kpTtfBisx1+p88rmyJe3c7VACAYLBDrbUMi+FKIai3AauXg3zdr31ymJP3ryKsDyyhubUt81 xO/6HSyvwq7H4lNqxKukU/VlEFdeCf4qLeWVzvugubYYtUbK22yBxRos4BUIdHahsPMmNx9FqXDj wBtNZw0kFnorXJcYpLV/tXpZEaN3etU7d68zzCpwKOrcEa/CTll3hcGVtGzn23bVul3jfdA80tHu Kt+by7G8QpNRmGCBQGdLLHbbgGqsVGEu6bfS4waTgW+FYmKh45wmllekxq4hjg5zWGAlk/6nz6ha HtwnnZq4OiGv9At3u4dEhXshRRdYcEMIAhkSCvkaK1Gc87qCho4bELHe1YiFjnMiDK7QZfOEBrAm o0kEK6QwscNnSsSrY5dTxCpZ046Dlai9ssnXV3XginkgXJwrJvgCCwIhCHTWFovdNrDEKuy6XCEj 76BNZjGxqJWlCwyuSJJouNur2rn/bGVw5XQSf01zwKKo+WNStWhX4RXvrtJavFLNg7P27uTY4nKB 4xVTYEEgBIHOmFjCFTSqsRK73ljQeGJR/FXNHppgscByPVSrsOKbD6xJ9viGPGYTZQndO+8TDpy7 qlVXGFxJ0qA4DrL9lV393pnOg2nnUHk7VSuwYNEAAhlRY93kTnQQsaoH3li7sakQXelwxCqh4xw/ C6wYqfZMGG+cIqLcbbPr+QwDLGpl+tjp0AyDsuUVZ6/k7ZWkvtLmlcWGLgi3q7kUf5IDhTsIZACw btTWWCjdVA9cYXqOZTKQWL/tneOM0vrjCAes2KgqsMajDicHrEN6516itvZoXmnhCt9e1cZXGF61 afLK3OzOlO9tIH9VK7Dg5hkEOntiMcX79QGmxkolNv5sdRo6IGWItUoTCxXnzzMsrwhi8k5cZec+ 0c7dNjuJJbRzp6iFpb+SUZ3mSgwrUXmlpJXMXqn07eaKtW+R5hW3wEK8GoTCHQQyusZCc6w/Ms7u rLHE+uX9TKlER7ujDOuvYskJPLB643cfhJzsdXM4ig5zqNL8kTuphytFdyWainK8atHglUXur7Kh wOLERiFVW4xCgQUCGUSsK8waiyNWYeOPCEMs44A1Yje/mf+IzFJpqc/L8CqWVHkmjPdOxazcnD38 1xpFrU4fOpxSXMmLdgyuFGV7S0W+FtXIg7NZNBidmON5BQssEMhI8TUW2o8yA9JwwOGpGNpjWcyv 361QFH2cw/Aqlgw8xF4TxhtH3VEHD6y9hbWnxw6HKq+UcVDJK5uEVyJgaeTBoBfxqoh4xS1Gb0KB BQIZZ7FuDHL7UXrxnirOOf0OT/OsocSyvNyboai1D/4YCyxyqjGOrbAmgw5e0f2jfTfTtmPToFp7 Ja6vcP2VHq+yiFdDNK/Qco0r3AeBVyCQgcTi9qP0uKELEYvoQ8Qyssaii6zX0/M7r1w0rujb5vFb cWyF9XOodt/sTMpwZVWUVzJeaeFKzCv1vn2E5tUY66/oQQNduMNiFAQylFhM8X69h6mxaGIF+qIe Y5t306z9t/3/I0gaV0iOMq517+2dIq0crdw694Icq2rdlaxr58v2ingsKq+vlHsGeztZLiNedTEF Vg8U7iCQ8cCii3dELLZ470oU5iK0xzKWWGZLpRKKkQyvCHced02IVliowsJdNytHonJeYc2VyF7V x6tskCyjgxyOV8wDIZwQgkBfgFg3JcTqizh9xjbvSOfNVpZXRPTBZrwXc0g4GcLySstd8U071l4J aRBXX+H7K/qAsMarm8ArEOgLEGuQfypkibXr7Uv6Wgwn1t/cLLAc5FSv0mLFN/9hPSGuuiVLBsnT IL+9kuJKj1djAq/YB0JYjIJAX4BY3FPhADNuoIkViyR9FbvBxDJZojSvwk7nKOaZMD5FuPFpUMdd pbFpUPY4yNsr9T1DyIXeBxleJdgBFjwQgkBfkljcUyHTvMcy4aDNcI9lccTQI2HSOql8Juy9NW6V de2hUJ24+l42bFc8DtrterxqtgaY98Eu0QMh8AoE+lLE4scNjMfqKs79lCeCNrux1bvpaoeTBlbw 59uKEit+dyKkOG/WvBgUYGVTqdolYVCUBjlciXhlt7n9i+h9sKuLG4zShTsMGkCgL0as7zprcyzG Y/2Uj4XSWWOBZbra5iSSSeuDh0pgPfJa3TrNlUc5af9e7WUQw6sONV51pN2RxQmxv6IfCL+DAgsE +lLAYuZYdCosMB6LvivMkO6LbcYS6/xVmyOcjBKK1r0X3eWozxikSbAOdyVdtkvSoJJXlm5HfpG+ H2T8VYHLg8ArEOhLEoudYzEDUppYuY0/M353d3bWWI91Po027O5xeeuO7nJCagfOqmHQpoErVV7J +6sRe3dyqHxvI8f6K24wCoMGEOhLE2uw8xqaY3GpsCux8Wekz+1rNphYJo8z2T4p37oPb/4jhE2D 6isGhbtSpsE2Ja4UfXuHJzxW3t7IdXF5EA2wrnUOAq9AoK/CY/UM9Bc4YlUPMhmnr8XgeYPZ5wj9 fFdWYg1POYOq7sqHCYM2mb2quSvplEGPV1kfUS5vVxMsrwr9aNAA/goE+kqIdZNp3gVi7Q7lw8xj oZGhcMRnffCoVwKs+K3xYNCq/i6IG7SrREEMrdSfBy0tIXreXuNVDwzcQaCvzWMVeWKldjN5Mpg2 tno/b/HIp6PDt39ux+HKp7oQxeGqWRtXmGtnm7uvXF5O8bwqgr8Cgb4+j4VSIXOl05XIzXkzLren 2WBifT8umY72Dj90etTsFdZdtbSo7xh4XMnCoHItar/ozKN5e47lFXofhANCEOirItYNhlg9QvOe ys39mUG30M0GT0jRdFScCHtHQz5VXHWr40ojDMpxhZlf+cJD5b/P5VJC397D8AoG7iDQ10Ssa+zm nfFY9GNhnq3eDSTW1VcPxcAavjPha/8sXin9VQfWX9V4ZWn2xejnQWSv+Hvn6/TBM/AKBPqqiMWs Gzhipbq+zVWXM3ki1J21GBgKL46KW/fhzaRHpWy/qHgYbNGYXcn8lfxxUMwrmztAPw/mvu1K1XjV CbwCgb66Hou/K2SI1ZXLLf805nf6KgbGwvOTt3rFiTDYLacV563SWFhVtGDV0YFPg6L2ypL1JNG6 fTlHz68EXkHfDgJ9hcTirnRqj4W5jT/GMmjf0GEYsa6KSywmEeLN1clxpeSVwl2ZzS2h2NDi/7dv fy1tpVscx3HoTQwa1DSKUTOt9U/b0CYmaRiT6DlWOPiXEDMqPezTzgiHkWkRUkEJnJsBGbzL1Vz1 xlfRm76SeQ2lr+Gs53n2s7O3idFOtVP1+2GYixptpwM/1lrPWrv7pWTKex7kHgf4VmsslVjN9YZU ulBryH5DfCb2tYqswBBr65f+XHCTod1Ke9uN9tMPgy1x1dfXkldvpR2c1u1guplXP6i8or4CvtWu 0NZYaT16r9X/qK48TES+0g7pYuLXLW+pYeHX+GibTYZzzpt7zx1c+fOqeTv4Np8bKh4U6yk9bk83 6yv6QeBb7gp9K6SpdPLoY7EqbWH+qyRWqOvVnQVvzX1nJPG5cZW/SFy1rjKodnDiUUWOnZNSXgXr K/pB4JtNLLOQ5Z7pSFuYma/VV5z7D0e+SpEVCu1498+PfxkYDey1m26w5Qan/egqdm5cBZfbR4ey B06jNp/Rz4P6HMesX5FXwLebWOX1B4H1hkyqVNj/6MiCw0zsbddVZ1Zo8c/fbU+48CI+2lpcXaC2 inUIq7bFldwOTgw4Mm0vlFKZ4DrDepm8Ar71QdYPvsfCVLJ01HCc4cFE9OqLrMWoHWIt3HmfO/Uy 2NILbrQZXHVKq7bFlZRXucGnlYPGkXodbD4Pss4AXL/EUm1hMrP/0slKkXX3qiNrMfRq4bHtCGd8 zWCnuDrjXPCM4up0Xqnyqnqwsy//lbYdJK+Aa5NYcqYjdzq+xJLZe1oudar39CTrSiNrcXHnZ1Ni bb2YnPHaQb13dcYaQ8u54OekleyK5gazssxwlE6bdtA+D26y3g5cjxrLPBYur616baFE1oc/ZJLV k7va40IZYv2iA2vh8c5Gzi2v/Gui5zaD4+Md5uyn46o7vKGmV8W6xJXXDq6uLfM8CFyjxJLR+2Zg kKUXHD5VK9ODI9FY+AqH7697f9ta0Fujf/bmvGaw/aT93MvmQFS1hJUur+RxUJ06q/LKP77aZNwO XKO2cN0OsuYL7mthpqAmWdUBWSO9wlsdO8TaehGJBvMq0jq6+rK4ets7KpfOanpVyLivg4V5O75a px0ErlGRpbfem22hzN5TclxYLzrZR/Fcb3i7+6qGWO/VEOvxnfddbjcYzKuNs9YYOqdVa1zJsH1S hu1SXhWSKW/avmq2RRm3A9ctscwgyz97V8+Fjaqzojbfr+i9MPQ6roZYW7/33M21aQc3OsXV+Blx 1RpWcjiYH3kiw/ZD8zjofx3kehC4jok1qwdZcqjTXCKVSqT24WO1Ojx4ZZvvr+/KEGth68XiP1vb wY1OzeDF06p7W4ZX6tB5t15TlaO3LCrllR5fMW4Hrukgy1t7dyNLhu/1e5Xqo3hi40omWYvbr+48 3vr3+8XLyau2gRWL9gw7B1U9bG9O21dNecX4Cri+g6xNty30FhwyheT+p2Kl2B8f3biCKisU+unn ra3/Peu1cRVMq/x5adUpqNy4mul5pIZX+0k9bDdx5baDm4yvgOsbWfoYekldQ/uLrFJtv1GR1fd4 InL5Kw6LI79vPX71OphXFyuuOtdVxt3oZH+xIoeDqfl0qjm9UrfOS+bYmf/twDVOLFtk+SIrWajt 7+rIym1c9u774saLrf/8FO5YXsU6VlfdHaorE1c7+zX9NmjjqllekVfAtW4L9exdLnUCRVYmma7V d2XHYapnJnK5y++h7p07v+WjHcqrWPu8ukBcRSYkrpwdmbUnM8HyanmJaTtwEyLruZq9/8M3ydKR pR4M67vZSnZKrWVdZmLJdc5/w8286hRXF6+uura7x6MTT4qV6u6efhr04srdbVfT9ufEFXBjiiyz ReqLrFJt72NWjd8T0djlRdbixKuhiJdX3qJop2bw/OKqO5ab7K8eOC/3aiVfXJnTQcor4EYlljvJ WnYnWea8UGZZc7X6x+pBdWxIrZJeVmKFZ7rduNpoV1yNnzFp75BWYbnCGXMOKhJXc8mUXWU4Pb0i r4CbkVj2udA3fNd9VaqwdlxvVA6q96Z6cpcVWaHXoVibvGq/036R4io6MXTfOTg4PDleK6R0NxsY tpvHQfIKuDmRVbbPhfpWx+0LdZVVSMmSQ0XdGI72xrq3Lyezwr68usDaVYfiKv/Pyf6sxFVjP1Ww 1ZXtBudseVUmroCbFVnP122Rter2hW5kpdOpo/pOxZGLncvrDMPB+qrjSvuZk/bu8fyz+Fi1Utmp H6XUWruNK/cSx5RXnA4CN7IvtLc6/shKmRiQJ0PHcZ5O9YxGwpdSZYV9m1dt3wXPjau+8cjI0NOK nDjXjzL2D5oODK/U2yDdIHAzI2vWbDjIQbS74uBVWbKZJevvUstUh4cmZi5lz2E82A1+TjPYpZeu Rnt0cdXYryVtrLpxpVYZ1KGzm1f8rwVuZGSV9VLWUrsqS86i00f1w8pBJTsgreHd8NsvDa1wzIur zzsY7JPaarRnKit/Fimu0roX9FdXuhk05RWr7cBNjqxZty/U94U2stzMkmiQMmtXyiyZwCekzur7 ssTq88XV+MXjajya6HmyIlsMqrhy4ypjXgZ1M6juBs3wapbyCrjpfaF6L7SjLN+Lod7HTKoBvM6s 7wYeTuTufllvGG4zu+q0d9UlaRVJxKdWVCsoxVUqbSft3stgc9bO6hVwKyLLHOvYvvDULEsN4CWz so5TLQ7ER2byfV+YWBeMq+3tt93SCcanpqsVp3hY369lmn8kb3blxpU5xCGugFtSZa2frrLs9rvu DaU1rDd+dCQ5hofk3TAW/ov30d0Xqq661JQ9lo8mBgeyTqVSbEhapdPun8VutQeqq3WqK+AWJZZu DE2VZZbf3e13m1mZZKF2Uv/0L1kqcKb7Byee5WN/rTsMn3uFI3fN4bw0gv33qzJl//FT/aRWSGaa aeU1g2tztrpisR24bZGlGkNdZdnO8FRmpUvztZP9+kuZfleK9/sHJ3ORfPjt5xdZZ68x6O2FfG9U hVVRltkru3VJq/lSuiWtTC/ozq5UM0hcAbetL/Qaw0Bn6MusZKmUPj75IJc7UmgVV8am4olo5HOX tLrbxlWXurqJRHMTg4/uFZ2KpFXjw8lxulRKBtOq2Qu6zSBPg8DtjSxTZanOUEWWLbN8dVaykD4+ VgtaOxJa1ezK2NBk4llEOkR1MhgKXaQrDDfDattEWCy2MTM68bD/XrZadcwu+/FxupAM1Fa2uDI3 g/ZlkLgCbm9k2cZQD7NsZxgos1IqPDIpCa03h7vValH+mR5+Eh/JRTfyutgKNbU9hA519+lRlam2 YvlILjE5OLBSdJxi0dk5fCNh5f4ercWVHV3ZZpC4Am73LGs2OMxqm1k6RpJqr3TvzeHLogSNlFvZ 4f6HkyOjMza4/MkVJIkVjm1EZkYTE/Gpge+qqsHMFncP3+ypzdBk8LcJpFVgdMWoHSCy5GDnwQOz /m7KrGBmBeKkML8qz4d7e42Gii0ZPR3IWvzwo6l4T8/ERELCK7KRz8f0fvtdmadLSM3kEiOTPfEn /WMrarAuny8WXzbe7O3JY+DqfCGYVS1pZW9wpBksE1cAVGaVzfz97Mzy50pyfm5NDePfvavLUvyO 46gcUlEkdVMx+3R65f7w8NjY8PD9lemn2WJVTdT1l2UVdbdR33v3Tg3X1+bmk6fDqn1ambWrMmkF wEaWzN/1AN6cGa6tBjKrpdKSmZPUWqulZOb4RNmX6Do8lLG8G06eirqxOWzUZV9BOc4kS/KjC+nA z3Kzyp9WKq4krcygnUk7gNOdoR5mPfDKLFtnqdBKtgstnVuSMPplMZU61k78jk/ML6rHRvPB9Okf kPFeBPUnTG3lFVcPGF0BOLvMUpklE3g9gp9ryax2odVMnrSJnrT5qPm3/Fqnb/Eqq2Zazekxu66t VFpRXAE4M7Oe28zSdZZtDk136E+tTKp9DJ1Lf2cgq3QfaBtBb4dB0ootBgDntobNzHKbQxtaptSy tZPngkFlpd0KzCusTFiZRjCQVsQVgHMzSzoxd56lCi2v0vKllltsBXLrXPZbkkl/VtnKallP2fXc SnpT0grAhcssNc/yBlpue2hKrUBs+aOrJcCCX2h+gxtVXmFlKiu3tFJzK4orAJ+bWW5vuGkrLd0f qkm8KbZUbPmDqyW+Tn9Jf75kyir9Gqgn7G5l5XWCpBWAvxJasza0bHtoUkvH1qqNLZtcVjCfLPeT 86YFNHXVsltZ6VV2E1aM2QF8caXlllpLOrXMWEvFluSWKbi87GrH/cSqTioVVXpgpbJK2kC3D6Sy AnApkeULLbdBdGPLBJeJLh1e7Zgvmg8uLzejymRVM6yIKwCXFVplCa3ZZmqZ3NLBZaLLhlcL80Xz wSWTVM2skp+p7gQJKwBXUGnNNost/YaoLS01w6uF+aL54Kb7faasmqWyAnC1oVX2UsvGliq5Nt3s akN90fvkupdVZcIKwFfJrbKJLcktFVy+6GpPf+a5m1Sz5TJJBeDvKLi+L5tG0eZXUPNL35uKiqAC 8PfnlqcZUUH8RQH45pQt/ioAXJuCi78KAAAAAAAAAAAAAAAAAAAAAAAAAAAAAAAAAAAAAAAAAAAA AAAAAAAAAAAAAAAAAAAAAAAAAAAAAAAAAAAAAAAAAAAAAAAAAAAAAAAAAAAAAAAAAAAAAAAAAAAA AAAAAAAAAAAAAAAAAAAAAAAAAAAAAAAAAAAAAAAAAAAAAAAAAAAAAAAAAAAAAAAAAAAAAAAAAAAA AAAAAAAAAAAAAAAAAAAAAAAAAAAAAAAAAAAAAAAAAAAAAAAAAAAAAAAAAAAAAAAAAAAAAAAAAAAA AAAAAAAAAAAAAAAAAAAAAAAAAAAAAAAAAAAAAAAAAAAAAAAAAAAAAAAAAAAAAAAAAAAAAAAAAAAA AAAAAAAAAAAAAAAAAAAAAAAAAAAAAAAAAAAAAAAAAAAAAAAAAAAAAAAAAAAAAAAAAAAAAAAAAAAA AAAAAAAAAAAAAAAAAMDN8H+VLeQ4lOdzUQAAAABJRU5ErkJggg== "/>
        <path d="m13.195 6.6719c-0.40897 0.00392-1.5451 0.14745-0.74633 0.55402 0.69265 0.53148 0.62426 1.4312 0.69232 2.2024 0.22583 1.3181 0.76232 2.5804 0.76247 3.9352 0.0251 0.49551 0.13922 0.42477 0.13022-0.01198 0.14683-1.6363-0.0041-3.2827 0.15742-4.918-0.074221-0.68715-0.40846-1.3724-0.9961-1.7617zm2.3457 0c-0.78283 0.52717-1.1299 1.546-0.9472 2.4555 0.08369 1.5541-0.03054 3.1154 0.14642 4.6656 0.17881-0.74592 0.11494-1.5471 0.35126-2.2907 0.28573-1.0323 0.5937-2.0768 0.57753-3.1576-0.089641-0.64002 0.93417-1.1937 0.84273-1.4823-0.30958-0.11261-0.63843-0.20333-0.97074-0.19053zm-3.8574 0.38867c-0.52947 0.083305-1.6353 0.51896-1.372 1.1132 0.92371 1.2878 1.669 2.7527 2.9501 3.7364-0.28388-0.79878-0.84238-1.5163-0.8154-2.4039-0.084792-0.81846-0.17176-1.6977-0.67648-2.3753zm5.3691 0c-0.47336 0.47709-0.60776 1.2104-0.69349 1.8573-0.087 0.75701-0.1125 1.5499-0.54444 2.2103-0.1408 0.27742-0.57021 1.1118-0.02326 0.52414 1.1491-1.0492 1.8832-2.4396 2.7729-3.6952-0.3617-0.477-0.91172-0.82623-1.5117-0.89648zm-7.0879 1.0762c-0.33286 0.51844-0.94825 1.128-0.61829 1.7912 0.44579 0.92796 1.5554 1.1501 2.4386 1.4647 0.3286 0.06079 1.0546 0.5146 1.0812 0.48868-0.6276-0.51607-1.3711-0.9174-1.8122-1.6287-0.49602-0.6281-0.80909-1.3729-1.0893-2.1158zm8.8066 0c-0.4755 1.3576-1.2523 2.6906-2.5221 3.4402-0.21948 0.15125-0.66624 0.53301-0.17718 0.20721 1.0329-0.62327 2.4566-0.61094 3.2123-1.6547 0.44184-0.55744 0.05586-1.2268-0.30659-1.7013-0.06777-0.097852-0.13657-0.19499-0.20636-0.29141zm-9.7129 1.9297c0.074753 1.18 0.5874 2.4855 1.689 3.0542 0.70558 0.27266 1.7204 0.24871 2.187-0.43825 0.01461-0.79285-1.0382-0.91212-1.6427-1.0526-0.86555-0.18936-1.8383-0.56341-2.179-1.4606zm10.619 0c-0.2915 0.82232-1.0979 1.2871-1.9062 1.4805-0.66752 0.2203-1.6033 0.17505-1.9625 0.90019 0.0147 0.83194 1.2579 0.91749 1.9023 0.77492 1.287-0.40642 1.8892-1.9186 1.9665-3.1556zm-10.705 1.1562c-0.17897 1.2796-0.036882 2.6844 0.70313 3.7754 0.33012 0.53647 1.162 0.95887 1.2898 0.06991 0.51985-1.004 1.6747-1.3559 2.4368-2.1266-0.7948 0.63738-1.9944 1.0299-2.9332 0.46186-0.85746-0.40498-1.1719-1.3633-1.4964-2.1806zm10.791 0c-0.33805 0.90894-0.74586 1.9601-1.7497 2.2978-0.89903 0.40052-1.9522-0.01112-2.68-0.57907 0.80176 0.80753 2.0588 1.1758 2.5141 2.2972 0.35076 0.96747 1.3524-0.2656 1.5392-0.80927 0.43525-0.99898 0.53747-2.1343 0.37645-3.2066zm-6.1387 3.0508c-0.95384-0.05338-1.3998 0.9131-2.0267 1.4463-0.73998 0.66614-1.9539 0.5708-2.6316-0.14065-0.24125-0.17884-0.7413-0.98886-0.73966-0.7963 0.43187 1.2931 1.7446 2.3741 3.1593 2.1351 0.89053-0.08471 1.3317-0.95988 2.0037-1.4199 0.6762 0.09551 1.2002-0.89205 0.459-1.1606l-0.07536-0.0318zm1.4863 0c-0.80284-0.01596-0.73596 1.2271 0.04477 1.1641 0.73371 0.25114 1.0521 1.133 1.8038 1.3801 1.1675 0.41594 2.4767-0.197 3.1272-1.2025 0.22512-0.27 0.6969-1.3671 0.19111-0.6231-0.50116 0.71192-1.3207 1.3596-2.245 1.1483-1.0482-0.12449-1.4318-1.2668-2.2715-1.7352-0.2035-0.08936-0.42768-0.13907-0.65038-0.13183zm-1.8184 1.7461c-0.62028 0.51268-1.0794 1.3534-1.9494 1.452-0.38597 0.11526-1.2374-0.7285-0.73849-0.0032 0.72349 0.92925 1.4286 1.9101 2.3794 2.6208 0.41231 0.254-0.03042-0.75176 0.01834-1.0413-0.21303-1.0215 0.09875-2.0327 0.29013-3.0282zm2.1504 0c0.20674 1.0327 0.51252 2.0916 0.27246 3.1484-0.0321 0.42894-0.38412 1.4076 0.26604 0.75786 0.85574-0.77232 1.5847-1.6768 2.2506-2.6142 0.22287-0.46838-0.62386 0.39811-0.96196 0.14392-0.79632-0.16837-1.2375-0.94832-1.8271-1.436zm-1.9805 0.07617c0.21258 0.98427-0.12107 1.9881 0.0529 2.9782 0.11861 1.065 0.47099 2.0916 0.8514 3.0882 0.58955-1.507 1.0674-3.1249 0.85571-4.7597-0.09992-0.35284 0.07648-1.2072-0.02765-1.2184-0.36013 0.4516-1.0919 0.47439-1.5237 0.13196-0.07475-0.06831-0.14246-0.14384-0.20867-0.2203z" display="none" fill="#fff"/>
        <path d="m13.101 6.4006c-0.31466-0.021138-0.80659 0.094694-1.201 0.26806 0.22464 0.18797 0.57183 0.4377 0.76619 0.7683 0.09719 0.1653 0.18762 0.31767 0.23851 0.50024 0.05012 0.17981 0.07982 0.37809 0.07388 0.49602-0.01192 0.23585 0.02779 0.74032 0.08443 1.0807 0.05663 0.34036 0.1773 0.74505 0.24484 1.0701 0.06754 0.32508 0.32638 1.1486 0.37148 1.4226 0.04511 0.27407 0.12212 0.72561 0.15197 1.0511 0.02985 0.32553 0.01928 0.86001 0.13509 1.0385 0.09963-1.0598 0.11742-1.8574 0.1182-2.2542 7.85e-4 -0.39688 0.0084-1.1651 0-1.2918-0.0084-0.12664 0.0169-1.0554 0.02533-1.2749 0.0084-0.21951 0.07176-0.80629 0.06754-0.97093-0.00421-0.16464-0.097084-0.54034-0.19418-0.78518-0.097105-0.24484-0.2744-0.53612-0.40105-0.68809-0.12664-0.15197-0.30166-0.29969-0.48124-0.43058zm2.535 0c-0.17958 0.1309-0.3546 0.27861-0.48124 0.43058s-0.30394 0.44325-0.40104 0.68809c-0.0971 0.24484-0.18996 0.62055-0.19418 0.78518-0.0042 0.16464 0.0591 0.75141 0.06754 0.97093 0.0084 0.21951 0.03376 1.1482 0.02533 1.2749-0.0084 0.12664-7.85e-4 0.89487 0 1.2918 7.84e-4 0.39688 0.01858 1.1945 0.1182 2.2542 0.1158-0.17846 0.10313-0.71294 0.13297-1.0385 0.02985-0.32552 0.10897-0.77707 0.15408-1.0511 0.04511-0.27407 0.30394-1.0975 0.37148-1.4226 0.06754-0.32508 0.18822-0.72977 0.24484-1.0701 0.05663-0.34036 0.09634-0.84483 0.08443-1.0807-0.0059-0.11793 0.02375-0.31621 0.07388-0.49602 0.05089-0.18257 0.14133-0.33494 0.23851-0.50024 0.19436-0.3306 0.54155-0.58033 0.76619-0.7683-0.3944-0.17337-0.88633-0.2892-1.201-0.26806zm-4.1687 0.42003c-0.40041 0.068742-0.65746 0.15042-0.91605 0.32294-0.25859 0.17252-0.47347 0.31933-0.71764 0.64588 0.27522 0.43998 0.51448 0.74551 0.71131 1.049 0.19684 0.30352 0.85509 1.3012 1.0659 1.583 0.21082 0.28186 0.97855 1.2319 1.5619 1.64-0.1987-0.571-0.41485-0.91925-0.54456-1.1904-0.12971-0.2712-0.27338-0.67688-0.29972-1.0216-0.026336-0.34471-0.10197-0.95187-0.15408-1.3551-0.052111-0.40321-0.15939-0.68581-0.27017-0.94771-0.11078-0.2619-0.16188-0.53215-0.43692-0.72608zm5.8023 0c-0.27504 0.19394-0.32824 0.46418-0.43903 0.72608s-0.21595 0.5445-0.26806 0.94771c-0.05211 0.40321-0.12775 1.0104-0.15408 1.3551-0.02634 0.34471-0.17001 0.75039-0.29972 1.0216-0.12972 0.27119-0.34587 0.61944-0.54456 1.1904 0.58338-0.40808 1.349-1.3582 1.5598-1.64 0.21082-0.28186 0.87118-1.2795 1.068-1.583 0.19683-0.30352 0.43609-0.60904 0.71131-1.049-0.24417-0.32655-0.45905-0.47336-0.71764-0.64588-0.25859-0.17252-0.51564-0.2542-0.91605-0.32294zm-7.6598 1.163c-0.20049 0.27691-0.40948 0.58256-0.51079 0.75141-0.10131 0.16886-0.27861 0.51712-0.27017 0.76197 0.00843 0.24484 0.17133 0.60409 0.36304 0.83162 0.19171 0.22753 0.6592 0.50789 0.85484 0.62055 0.19563 0.11265 1.3087 0.47907 1.5303 0.55301 0.22156 0.07394 0.7082 0.25354 1.2453 0.60155-0.40413-0.40027-0.91204-0.65828-1.3044-1.0026-0.39238-0.34431-0.70052-0.79116-0.90127-1.0638-0.20076-0.27264-0.32583-0.52056-0.4327-0.71764-0.10686-0.19708-0.37959-0.80107-0.57411-1.3361zm9.5172 0c-0.19452 0.53501-0.46726 1.139-0.57411 1.3361-0.10686 0.19708-0.23194 0.445-0.4327 0.71764-0.20076 0.27264-0.50889 0.71949-0.90127 1.0638-0.39238 0.3443-0.90029 0.60232-1.3044 1.0026 0.53712-0.34802 1.0238-0.52761 1.2453-0.60155s1.3346-0.44035 1.5303-0.55301c0.19563-0.11265 0.66312-0.39302 0.85484-0.62055 0.19171-0.22753 0.35461-0.58678 0.36304-0.83162 0.008429-0.24484-0.16886-0.59311-0.27017-0.76197-0.10131-0.16886-0.3103-0.4745-0.51079-0.75141zm-10.497 2.0854c0.00584 0.35725 0.092874 0.81896 0.20685 1.1609 0.11398 0.34194 0.29128 0.78096 0.44325 1.0174s0.42214 0.57833 0.67543 0.80629c0.25329 0.22796 0.71342 0.45591 1.0976 0.47702 0.38415 0.02112 0.8274-0.0211 1.0933-0.10554 0.26595-0.08444 0.63884-0.38254 0.71342-0.62055-0.05206-0.24223-0.16463-0.37992-0.24484-0.45591-0.08021-0.07599-0.31661-0.29128-0.78941-0.40948s-0.86539-0.18996-1.1356-0.27017c-0.27017-0.080209-0.62477-0.18996-0.89916-0.33349-0.27439-0.14352-0.49813-0.30816-0.69653-0.50657-0.19841-0.19841-0.3013-0.45857-0.46436-0.75986zm11.476 0c-0.16305 0.30129-0.26595 0.56145-0.46436 0.75986s-0.42214 0.36304-0.69653 0.50657c-0.27439 0.14353-0.62899 0.25328-0.89916 0.33349-0.27017 0.08021-0.66276 0.15197-1.1356 0.27017-0.4728 0.1182-0.7092 0.33348-0.78941 0.40948-0.08021 0.07599-0.19278 0.21368-0.24484 0.45591 0.07458 0.23801 0.44747 0.5361 0.71342 0.62055 0.26595 0.08444 0.7092 0.12665 1.0933 0.10554 0.38415-0.02111 0.84428-0.24906 1.0976-0.47702 0.25328-0.22796 0.52346-0.56989 0.67543-0.80629 0.15197-0.2364 0.32927-0.67543 0.44325-1.0174s0.20101-0.80364 0.20685-1.1609zm-11.569 1.2495c-0.081656 0.36875-0.088353 1.126-0.059099 1.564 0.029254 0.438 0.15722 1.0113 0.25751 1.3593 0.10029 0.34803 0.37076 0.93076 0.56145 1.1567 0.19069 0.22591 0.56225 0.64203 1.0131 0.71342 0.2121-0.15547 0.31565-0.54469 0.42003-0.7092 0.10438-0.16451 0.38391-0.58292 0.68598-0.81684 0.30207-0.23393 1.4766-0.97031 1.9081-1.41-0.31475 0.27676-0.79429 0.5076-1.0321 0.591-0.23785 0.08341-0.79941 0.24424-1.2263 0.21107-0.42691-0.033177-1.0827-0.35755-1.3234-0.56145-0.24075-0.2039-0.52346-0.54456-0.66698-0.8485-0.14353-0.30394-0.40284-0.84219-0.53823-1.2495zm11.662 0c-0.13539 0.40735-0.3947 0.9456-0.53823 1.2495-0.14353 0.30394-0.42624 0.6446-0.66698 0.8485-0.24075 0.2039-0.8965 0.52827-1.3234 0.56145-0.42691 0.03318-0.98847-0.12766-1.2263-0.21107-0.23785-0.08341-0.71739-0.31424-1.0321-0.591 0.4315 0.43964 1.606 1.176 1.9081 1.41 0.30207 0.23393 0.5816 0.65233 0.68598 0.81684 0.10438 0.16451 0.20794 0.55373 0.42003 0.7092 0.4509-0.07139 0.82245-0.48751 1.0131-0.71342 0.19069-0.22591 0.46116-0.80864 0.56145-1.1567 0.10029-0.34803 0.22825-0.92129 0.25751-1.3593 0.02925-0.438 0.02255-1.1953-0.0591-1.564zm-6.634 3.2969c-0.21107-0.01267-0.65432 0.05488-0.94138 0.28706-0.28706 0.23218-0.43903 0.41792-0.61633 0.61211s-0.39681 0.46436-0.56567 0.60788-0.4137 0.33771-0.7092 0.43058c-0.2955 0.09287-0.553 0.12664-0.93715 0.10976-0.38415-0.016881-0.92027-0.33772-1.1651-0.54456-0.24484-0.20685-0.66286-0.73993-0.94138-1.0976 0.092971 0.36844 0.35882 0.89916 0.66698 1.2664 0.30816 0.36726 0.55723 0.60789 1.0342 0.87806 0.47702 0.27017 0.99626 0.37148 1.6379 0.32083 0.64166-0.05065 1.0638-0.38837 1.334-0.66698 0.27017-0.27861 0.66698-0.68387 0.86539-0.83162s0.61633-0.1393 0.75141-0.23218c0.13508-0.09287 0.16354-0.27102 0.18152-0.39681 0.01798-0.1258 0.01953-0.22668 0.05065-0.38415-0.2089-0.18961-0.4348-0.34616-0.64587-0.35882zm1.6063 0c-0.21107 0.01267-0.43697 0.16921-0.64588 0.35882 0.03114 0.15747 0.03268 0.25835 0.05065 0.38415 0.01798 0.1258 0.04644 0.30394 0.18152 0.39681 0.13509 0.09287 0.55301 0.08443 0.75141 0.23218 0.19841 0.14775 0.59522 0.55301 0.86539 0.83162 0.27017 0.27861 0.69231 0.61633 1.334 0.66698 0.64166 0.05065 1.1609-0.05066 1.6379-0.32083 0.47702-0.27017 0.72608-0.51079 1.0342-0.87806 0.30816-0.36726 0.57401-0.89798 0.66698-1.2664-0.27852 0.35764-0.69654 0.89072-0.94138 1.0976-0.24484 0.20685-0.78096 0.52768-1.1651 0.54456-0.38415 0.01688-0.64166-0.01688-0.93716-0.10976-0.2955-0.09287-0.54034-0.28706-0.7092-0.43058s-0.38837-0.4137-0.56567-0.60788-0.32927-0.37993-0.61633-0.61211c-0.28706-0.23218-0.73031-0.29972-0.94138-0.28706zm-1.9651 1.887c-0.19325 0.17828-0.45555 0.44368-0.62899 0.62055-0.19538 0.19924-0.44325 0.43903-0.63321 0.60366-0.18996 0.16464-0.65854 0.37993-0.96671 0.34194-0.30816-0.038-0.57901-0.17698-0.87806-0.40526-0.02465 0.18543 0.64166 0.98359 0.83162 1.2115 0.18996 0.22796 0.50235 0.63321 0.70076 0.86117 0.19841 0.22796 0.5319 0.53612 0.75563 0.7683 0.22374 0.23218 0.38836 0.34193 0.68809 0.51924-0.02532-0.27439-0.06332-0.40948-0.09709-0.65432s-0.0971-0.67543-0.13931-0.95404c-0.04222-0.27862-0.01267-0.48968 0.0042-0.95404 0.01689-0.46436 0.12664-0.75141 0.18574-1.0976 0.0591-0.34616 0.12906-0.47029 0.1773-0.86117zm2.3239 0c0.04824 0.39088 0.1182 0.51501 0.1773 0.86117 0.0591 0.34616 0.16885 0.63321 0.18574 1.0976 0.01689 0.46436 0.04645 0.67543 0.0042 0.95404-0.04221 0.27861-0.10554 0.7092-0.13931 0.95404-0.03377 0.24484-0.07177 0.37993-0.09709 0.65432 0.29973-0.1773 0.46436-0.28706 0.68809-0.51924 0.22374-0.23218 0.55723-0.54034 0.75563-0.7683 0.19841-0.22796 0.51079-0.63321 0.70076-0.86117 0.18996-0.22796 0.85627-1.0261 0.83162-1.2115-0.29904 0.22827-0.56989 0.36726-0.87806 0.40526-0.30816 0.038-0.77674-0.1773-0.9667-0.34194-0.18996-0.16464-0.43783-0.40442-0.63321-0.60366-0.17344-0.17687-0.43574-0.44226-0.62899-0.62055zm-2.1403 0.08232c0.08778 0.37743 0.08232 0.64559 0.08232 0.88439 0 0.2388-0.06441 0.98976-0.08232 1.3002s0.05282 1.0154 0.08865 1.3319c0.03581 0.31641 0.22664 1.0705 0.33349 1.4205 0.10686 0.35 0.29713 1.0037 0.55512 1.6189 0.25798-0.61524 0.44826-1.2689 0.55512-1.6189s0.29979-1.1041 0.3356-1.4205c0.03582-0.31641 0.10656-1.0214 0.08865-1.3319-0.01791-0.31044-0.08232-1.0614-0.08232-1.3002 0-0.2388-0.0055-0.50696 0.08232-0.88439-0.24057 0.27927-0.35171 0.35261-0.5129 0.42425-0.13408 0.05959-0.35799 0.06099-0.42425 0.05277-0.06627-0.0082 0.01472-0.0078 0-0.0064s-0.06841-6.13e-4 -0.08232 0c-0.01391 6.14e-4 0.06631-0.0019 0 0.0064s-0.29017 0.0068-0.42425-0.05277c-0.16119-0.07164-0.27233-0.14498-0.5129-0.42425z" fill="#fff"/>
        <path d="m13.195 6.6719c-0.29117-0.01956-0.74637 0.087624-1.1113 0.24805 0.20786 0.17393 0.52914 0.40502 0.70898 0.71094 0.08993 0.15296 0.17361 0.29395 0.2207 0.46289 0.04638 0.16639 0.07386 0.34986 0.06836 0.45898-0.01103 0.21824 0.02572 0.68505 0.07813 1 0.0524 0.31495 0.16406 0.68942 0.22656 0.99023s0.30201 1.0628 0.34375 1.3164c0.04174 0.2536 0.113 0.67144 0.14062 0.97266 0.02762 0.30122 0.01784 0.7958 0.125 0.96094 0.09219-0.98065 0.10865-1.7187 0.10938-2.0859s0.0078-1.0781 0-1.1953 0.01564-0.97656 0.02344-1.1797 0.0664-0.74609 0.0625-0.89844c-0.0039-0.15234-0.08984-0.5-0.17969-0.72656-0.089855-0.22656-0.25392-0.49609-0.3711-0.63672s-0.27914-0.27731-0.44531-0.39844zm2.3457 0c-0.16617 0.12112-0.32812 0.25781-0.44531 0.39844s-0.28125 0.41016-0.37109 0.63672c-0.08985 0.22656-0.17578 0.57422-0.17969 0.72656-0.0039 0.15234 0.05469 0.69531 0.0625 0.89844 0.0078 0.20312 0.03124 1.0625 0.02344 1.1797s-7.26e-4 0.82806 0 1.1953 0.01719 1.1053 0.10938 2.0859c0.10716-0.16514 0.09543-0.65972 0.12305-0.96094 0.02762-0.30122 0.10084-0.71905 0.14258-0.97266 0.04174-0.2536 0.28125-1.0156 0.34375-1.3164s0.17417-0.67528 0.22656-0.99023c0.0524-0.31495 0.08915-0.78176 0.07813-1-0.0055-0.10912 0.02198-0.2926 0.06836-0.45898 0.04709-0.16894 0.13078-0.30993 0.2207-0.46289 0.17985-0.30591 0.50112-0.537 0.70898-0.71094-0.36496-0.16042-0.82016-0.26761-1.1113-0.24805zm-3.8574 0.38867c-0.37052 0.06361-0.60838 0.13919-0.84766 0.29883-0.23928 0.15964-0.43812 0.29549-0.66406 0.59766 0.25467 0.40713 0.47606 0.68985 0.6582 0.9707 0.18214 0.28086 0.79124 1.204 0.98633 1.4648 0.19508 0.26082 0.90549 1.14 1.4453 1.5176-0.18386-0.52837-0.38388-0.85062-0.50391-1.1016-0.12003-0.25095-0.25297-0.62634-0.27734-0.94531-0.02437-0.31897-0.09436-0.8808-0.14258-1.2539-0.04822-0.3731-0.14749-0.6346-0.25-0.87695s-0.14979-0.49242-0.4043-0.67188zm5.3691 0c-0.25451 0.17946-0.30374 0.42952-0.40625 0.67188s-0.19983 0.50385-0.24805 0.87695c-0.04822 0.3731-0.11821 0.93493-0.14258 1.2539-0.02437 0.31897-0.15731 0.69436-0.27734 0.94531-0.12003 0.25095-0.32005 0.57319-0.50391 1.1016 0.53982-0.37761 1.2483-1.2568 1.4434-1.5176 0.19508-0.26082 0.80614-1.184 0.98828-1.4648 0.18214-0.28086 0.40353-0.56357 0.6582-0.9707-0.22594-0.30217-0.42478-0.43802-0.66406-0.59766-0.23928-0.15964-0.47714-0.23522-0.84766-0.29883zm-7.0879 1.0762c-0.18553 0.25624-0.37891 0.53906-0.47266 0.69531-0.09375 0.15625-0.25781 0.47852-0.25 0.70508 0.0078 0.22656 0.15854 0.55899 0.33594 0.76953 0.1774 0.21054 0.60999 0.46997 0.79102 0.57422 0.18103 0.10424 1.211 0.4433 1.416 0.51172 0.20502 0.06842 0.65533 0.23461 1.1523 0.55664-0.37396-0.37038-0.84394-0.60914-1.207-0.92774s-0.64822-0.73209-0.83398-0.98438c-0.18577-0.25229-0.30151-0.48169-0.40039-0.66406-0.09888-0.18237-0.35125-0.74126-0.53125-1.2363zm8.8066 0c-0.18 0.49506-0.43237 1.054-0.53125 1.2363-0.09888 0.18237-0.21462 0.41177-0.40039 0.66406-0.18577 0.25229-0.4709 0.66578-0.83398 0.98438s-0.83308 0.55735-1.207 0.92774c0.49701-0.32204 0.94732-0.48822 1.1523-0.55664s1.235-0.40748 1.416-0.51172c0.18103-0.10424 0.61362-0.36367 0.79102-0.57422 0.1774-0.21054 0.32814-0.54297 0.33594-0.76953 0.0078-0.22656-0.15625-0.54883-0.25-0.70508-0.09375-0.15625-0.28713-0.43908-0.47266-0.69531zm-9.7129 1.9297c0.0054 0.33058 0.08594 0.75781 0.19141 1.0742 0.10547 0.31641 0.26953 0.72266 0.41016 0.94141 0.14062 0.21875 0.39062 0.53516 0.625 0.74609s0.66016 0.42187 1.0156 0.44141c0.35547 0.01954 0.76563-0.01952 1.0117-0.09766 0.24609-0.07814 0.59114-0.35398 0.66016-0.57422-0.04817-0.22414-0.15234-0.35156-0.22656-0.42188-0.07422-0.07032-0.29297-0.26953-0.73047-0.37891s-0.80078-0.17578-1.0508-0.25c-0.25-0.07422-0.57812-0.17578-0.83203-0.30859-0.25391-0.13281-0.46094-0.28515-0.64453-0.46875-0.18359-0.18359-0.27881-0.42433-0.42969-0.70312zm10.619 0c-0.15088 0.2788-0.24609 0.51953-0.42969 0.70312s-0.39062 0.33594-0.64453 0.46875c-0.25391 0.13281-0.58203 0.23437-0.83203 0.30859s-0.61328 0.14062-1.0508 0.25-0.65625 0.30859-0.73047 0.37891-0.17839 0.19773-0.22656 0.42188c0.06901 0.22024 0.41406 0.49608 0.66016 0.57422 0.24609 0.07814 0.65625 0.1172 1.0117 0.09766 0.35547-0.01953 0.78125-0.23047 1.0156-0.44141s0.48438-0.52734 0.625-0.74609c0.14062-0.21875 0.30469-0.625 0.41016-0.94141 0.10547-0.31641 0.18601-0.74364 0.19141-1.0742zm-10.705 1.1562c-0.07556 0.34122-0.081757 1.042-0.054687 1.4473s0.14548 0.93577 0.23828 1.2578c0.0928 0.32204 0.34308 0.86127 0.51953 1.0703 0.17645 0.20904 0.52027 0.5941 0.9375 0.66016 0.19626-0.14386 0.29208-0.50402 0.38867-0.65625 0.09659-0.15223 0.35525-0.5394 0.63477-0.75586s1.3663-0.89787 1.7656-1.3047c-0.29125 0.25609-0.73499 0.4697-0.95508 0.54688-0.22009 0.07718-0.73973 0.22601-1.1348 0.19531-0.39504-0.0307-1.0018-0.33086-1.2246-0.51953s-0.48437-0.50391-0.61719-0.78516c-0.13281-0.28125-0.37276-0.77931-0.49805-1.1562zm10.791 0c-0.12528 0.37694-0.36524 0.875-0.49805 1.1562-0.13281 0.28125-0.39442 0.59648-0.61719 0.78516-0.22277 0.18868-0.82957 0.48883-1.2246 0.51953-0.39504 0.0307-0.91467-0.11813-1.1348-0.19531-0.22009-0.07718-0.66383-0.29078-0.95508-0.54688 0.39928 0.40682 1.4861 1.0882 1.7656 1.3047s0.53818 0.60363 0.63477 0.75586c0.09659 0.15223 0.19241 0.51239 0.38867 0.65625 0.41723-0.06606 0.76105-0.45111 0.9375-0.66016 0.17645-0.20904 0.42673-0.74827 0.51953-1.0703 0.0928-0.32205 0.21121-0.85251 0.23828-1.2578s0.02087-1.106-0.05469-1.4473zm-6.1387 3.0508c-0.19531-0.01172-0.60547 0.05078-0.87109 0.26562-0.26562 0.21485-0.40625 0.38672-0.57031 0.56641s-0.36719 0.42969-0.52344 0.5625-0.38281 0.3125-0.65625 0.39844c-0.27344 0.08594-0.51172 0.11719-0.86719 0.10156-0.35547-0.01562-0.85156-0.3125-1.0781-0.50391-0.22656-0.1914-0.61337-0.68468-0.87109-1.0156 0.08603 0.34093 0.33203 0.83203 0.61719 1.1719 0.28516 0.33984 0.51563 0.5625 0.95703 0.8125 0.44141 0.25 0.92188 0.34375 1.5156 0.29688 0.59375-0.04687 0.98438-0.35938 1.2344-0.61719 0.25-0.25781 0.61719-0.63281 0.80078-0.76953s0.57031-0.1289 0.69531-0.21484c0.125-0.08594 0.15133-0.25078 0.16797-0.36719 0.01664-0.11641 0.01807-0.20976 0.04687-0.35547-0.1933-0.17545-0.40234-0.32031-0.59765-0.33203zm1.4863 0c-0.19531 0.01172-0.40435 0.15658-0.59766 0.33203 0.02881 0.14571 0.03024 0.23906 0.04687 0.35547 0.01664 0.1164 0.04297 0.28125 0.16797 0.36719 0.125 0.08594 0.51172 0.07813 0.69531 0.21484 0.18359 0.13672 0.55078 0.51172 0.80078 0.76953 0.25 0.25781 0.64062 0.57032 1.2344 0.61719 0.59375 0.04687 1.0742-0.04688 1.5156-0.29688 0.44141-0.25 0.67188-0.47266 0.95703-0.8125 0.28516-0.33984 0.53116-0.83094 0.61719-1.1719-0.25772 0.33094-0.64453 0.82422-0.87109 1.0156-0.22656 0.1914-0.72266 0.48829-1.0781 0.50391-0.35547 0.01562-0.59375-0.01562-0.86719-0.10156-0.27344-0.08594-0.5-0.26562-0.65625-0.39844s-0.35938-0.38281-0.52344-0.5625-0.30469-0.35156-0.57031-0.56641c-0.26563-0.21484-0.67578-0.27734-0.87109-0.26562zm-1.8184 1.7461c-0.17882 0.16497-0.42154 0.41055-0.58203 0.57422-0.18079 0.18437-0.41016 0.40625-0.58594 0.55859-0.17578 0.15234-0.60938 0.35157-0.89453 0.31641-0.28516-0.03516-0.53578-0.16377-0.8125-0.375-0.02281 0.17158 0.59375 0.91016 0.76953 1.1211 0.17578 0.21094 0.46484 0.58594 0.64844 0.79688 0.18359 0.21094 0.49219 0.49609 0.69922 0.71094s0.35937 0.3164 0.63672 0.48047c-0.02343-0.2539-0.05859-0.37891-0.08984-0.60547s-0.08985-0.625-0.12891-0.88281c-0.03907-0.25781-0.01172-0.45312 0.0039-0.88281 0.01563-0.42969 0.11718-0.69531 0.17188-1.0156s0.11942-0.43518 0.16406-0.79688zm2.1504 0c0.04464 0.3617 0.10937 0.47656 0.16406 0.79688 0.05469 0.32031 0.15625 0.58594 0.17188 1.0156 0.01563 0.42969 0.04298 0.625 0.0039 0.88281-0.03906 0.25781-0.09766 0.65625-0.12891 0.88281-0.03125 0.22656-0.06641 0.35156-0.08984 0.60547 0.27735-0.16407 0.42969-0.26562 0.63672-0.48047s0.51562-0.5 0.69922-0.71094c0.18359-0.21094 0.47266-0.58594 0.64844-0.79688 0.17578-0.21094 0.79234-0.94951 0.76953-1.1211-0.27672 0.21123-0.52734 0.33984-0.8125 0.375-0.28516 0.03516-0.71875-0.16406-0.89453-0.31641-0.17578-0.15234-0.40514-0.37423-0.58594-0.55859-0.16049-0.16367-0.40321-0.40924-0.58203-0.57422zm-1.9805 0.07617c0.08123 0.34925 0.07617 0.59739 0.07617 0.81836s-0.0596 0.91586-0.07617 1.2031c-0.01657 0.28726 0.04888 0.93963 0.08203 1.2324 0.03314 0.29279 0.20972 0.99058 0.30859 1.3145 0.09888 0.32387 0.27495 0.92874 0.51367 1.498 0.23872-0.5693 0.41479-1.1742 0.51367-1.498 0.09888-0.32387 0.27741-1.0217 0.31055-1.3145 0.03315-0.29279 0.0986-0.94516 0.08203-1.2324-0.01657-0.28726-0.07617-0.98216-0.07617-1.2031s-0.0051-0.46911 0.07617-0.81836c-0.22261 0.25842-0.32545 0.32629-0.47461 0.39258-0.12407 0.05514-0.33126 0.05644-0.39258 0.04883-0.06132-0.0076 0.01362-0.0072 0-0.0059s-0.0633-5.68e-4 -0.07617 0 0.06136-0.0018 0 0.0059-0.26851 0.0063-0.39258-0.04883c-0.14916-0.06629-0.252-0.13416-0.47461-0.39258z" display="none" fill="#fff"/>
    </g>
    <g display="none" fill="none">
        <rect transform="rotate(90)" x="7.8232" y="-20.923" width="13.1" height="13.1" display="inline" stroke="#000" stroke-width=".070382"/>
        <rect x="7.2241" y="8.6528" width="14.298" height="11.441" stroke="#5261ff" stroke-linecap="round" stroke-linejoin="round" stroke-width=".069589"/>
        <rect transform="rotate(90)" x="7.2241" y="-20.094" width="14.298" height="11.441" display="inline" stroke="#0f0" stroke-linecap="round" stroke-linejoin="round" stroke-width=".069589"/>
    </g>
</svg>
