<?xml version="1.0" encoding="UTF-8"?>
<svg version="1.1" viewBox="0 0 28.747 28.747" xmlns="http://www.w3.org/2000/svg" xmlns:xlink="http://www.w3.org/1999/xlink">
    <defs>
        <filter id="filter6206-7" color-interpolation-filters="sRGB">
            <feGaussianBlur stdDeviation="0.658125"/>
        </filter>
    </defs>
    <g transform="translate(0 -1093.8)">
        <path transform="matrix(1.0781 0 0 1.0641 -.093733 2.7509)" d="m4.4177 1028.2v1.6051h-1.6052v18.192h1.6052v2.1402h18.192v-2.1402h2.1402v-18.192h-2.1402v-1.6051z" fill="#3e2723" filter="url(#filter6206-7)" opacity=".2"/>
        <rect x="2.9987" y="1096.8" width="22.749" height="22.749" rx="1.1973" ry="1.1974" fill="#424242"/>
        <g transform="translate(-22.32 1056.5)">
            <path d="m0 0h51.2v51.2h-51.2z" fill="none" stroke-width="1.0667"/>
            <g transform="matrix(.33601 0 0 .33601 1.5296 73.043)">
                <path d="m0 0h51.2v51.2h-51.2z" fill="none" stroke-width="1.0667"/>
            </g>
            <g transform="matrix(.37187 0 0 .37187 38.802 63.239)">
                <path d="m0 0h51.2v51.2h-51.2z" fill="none" stroke-width="1.0667"/>
                <g transform="matrix(2.6891 0 0 2.6891 -82.906 -48.45)">
                    <path d="m0 0h51.2v51.2h-51.2z" fill="none" stroke-width="1.0667"/>
                </g>
            </g>
        </g>
        <path d="m4.1958 1096.8c-0.66332 0-1.1979 0.5346-1.1979 1.1979v0.3334c0-0.6634 0.53459-1.1979 1.1979-1.1979h20.354c0.66332 0 1.1979 0.5345 1.1979 1.1979v-0.3334c0-0.6633-0.5346-1.1979-1.1979-1.1979z" fill="#fff" opacity=".2"/>
        <rect x="128" y="546.52" width="42.667" height="42.667" fill="none" stroke-width="1.0667"/>
        <rect x="128" y="631.85" width="42.667" height="42.667" fill="none" stroke-width="1.0667"/>
        <rect x="128" y="674.52" width="42.667" height="42.667" fill="none" stroke-width="1.0667"/>
        <rect x="128" y="589.19" width="42.667" height="42.667" fill="none" stroke-width="1.0667"/>
        <rect x="128" y="717.19" width="42.667" height="42.667" fill="none" stroke-width="1.0667"/>
        <rect x="213.33" y="546.52" width="42.667" height="42.667" fill="none" stroke-width="1.0667"/>
        <rect x="213.33" y="631.85" width="42.667" height="42.667" fill="none" stroke-width="1.0667"/>
        <rect x="213.33" y="674.52" width="42.667" height="42.667" fill="none" stroke-width="1.0667"/>
        <rect x="213.33" y="589.19" width="42.667" height="42.667" fill="none" stroke-width="1.0667"/>
        <rect x="213.33" y="717.19" width="42.667" height="42.667" fill="none" stroke-width="1.0667"/>
        <rect x="298.67" y="546.52" width="42.667" height="42.667" fill="none" stroke-width="1.0667"/>
        <rect x="298.67" y="631.85" width="42.667" height="42.667" fill="none" stroke-width="1.0667"/>
        <rect x="298.67" y="674.52" width="42.667" height="42.667" fill="none" stroke-width="1.0667"/>
        <rect x="298.67" y="589.19" width="42.667" height="42.667" fill="none" stroke-width="1.0667"/>
        <rect x="298.67" y="717.19" width="42.667" height="42.667" fill="none" stroke-width="1.0667"/>
        <rect x="170.67" y="546.52" width="42.667" height="42.667" fill="none" stroke-width="1.0667"/>
        <rect x="170.67" y="631.85" width="42.667" height="42.667" fill="none" stroke-width="1.0667"/>
        <rect x="170.67" y="674.52" width="42.667" height="42.667" fill="none" stroke-width="1.0667"/>
        <rect x="170.67" y="589.19" width="42.667" height="42.667" fill="none" stroke-width="1.0667"/>
        <rect x="170.67" y="717.19" width="42.667" height="42.667" fill="none" stroke-width="1.0667"/>
        <rect x="256" y="546.52" width="42.667" height="42.667" fill="none" stroke-width="1.0667"/>
        <rect x="256" y="631.85" width="42.667" height="42.667" fill="none" stroke-width="1.0667"/>
        <rect x="256" y="674.52" width="42.667" height="42.667" fill="none" stroke-width="1.0667"/>
        <rect x="256" y="589.19" width="42.667" height="42.667" fill="none" stroke-width="1.0667"/>
        <rect x="256" y="717.19" width="42.667" height="42.667" fill="none" stroke-width="1.0667"/>
        <rect x="128" y="759.85" width="42.667" height="42.667" fill="none" stroke-width="1.0667"/>
        <rect x="213.33" y="759.85" width="42.667" height="42.667" fill="none" stroke-width="1.0667"/>
        <rect x="298.67" y="759.85" width="42.667" height="42.667" fill="none" stroke-width="1.0667"/>
        <rect x="170.67" y="759.85" width="42.667" height="42.667" fill="none" stroke-width="1.0667"/>
        <rect x="256" y="759.85" width="42.667" height="42.667" fill="none" stroke-width="1.0667"/>
        <rect x="341.33" y="589.19" width="42.667" height="42.667" fill="none" stroke-width="1.0667"/>
        <rect x="341.33" y="631.85" width="42.667" height="42.667" fill="none" stroke-width="1.0667"/>
        <rect x="341.33" y="717.19" width="42.667" height="42.667" fill="none" stroke-width="1.0667"/>
        <rect x="341.33" y="546.52" width="42.667" height="42.667" fill="none" stroke-width="1.0667"/>
        <rect x="341.33" y="674.52" width="42.667" height="42.667" fill="none" stroke-width="1.0667"/>
        <rect x="341.33" y="759.85" width="42.667" height="42.667" fill="none" stroke-width="1.0667"/>
        <rect x="160" y="578.52" width="192" height="192" fill="none" stroke-width="1.0667"/>
        <g transform="matrix(.37344 0 0 .37344 4.7333 1097.4)">
            <path d="m0 0h51.2v51.2h-51.2z" fill="none" stroke-width="1.0667"/>
        </g>
        <g transform="matrix(.36471 0 0 .36471 5.1356 1097.4)">
            <path d="m0 0h51.2v51.2h-51.2z" fill="none" stroke-width="1.0667"/>
        </g>
        <g transform="matrix(.41585 0 0 .41585 84.325 1055.9)">
            <g transform="matrix(.062269 0 0 .062269 -28.238 185.29)">
                <g transform="matrix(38.618 0 0 38.618 14724 -13542)">
                    <g transform="matrix(.71436 0 0 .71436 -400.52 188.34)">
                        <path d="m1293.2-120.67c-181.75 0.2763-511.18 0.13525-699.05 0.13998-2.3216 10.413-3.593 21.251-3.593 32.384v114c207.65 0.73695 494.72 0.38136 706.23 0.3733v-114.37c0-11.18-1.2522-22.07-3.593-32.523zm-458.69 295.56c-78.385-4e-3 -158.85 0.17892-243.95 0.55995v138.63c286.34-0.39317 421.73-0.13827 706.23-0.32664v-137.75c-163.2-0.53005-311.22-1.1113-462.28-1.1199z" opacity="0" stroke-width="1.4932"/>
                    </g>
                </g>
            </g>
        </g>
        <path d="m24.549 1119.5c0.66325 0 1.1979-0.5346 1.1979-1.1979v-0.3333c0 0.6632-0.53461 1.1978-1.1979 1.1978h-20.354c-0.66325 0-1.1979-0.5346-1.1979-1.1978v0.3333c0 0.6633 0.53461 1.1979 1.1979 1.1979z" fill="#3e2723" opacity=".2"/>
    </g>
    <image x="-229.89" y="-115.36" width="192" height="192" image-rendering="optimizeQuality" preserveAspectRatio="none" xlink:href="data:image/png;base64,iVBORw0KGgoAAAANSUhEUgAAAMAAAADACAYAAABS3GwHAAAAGXRFWHRTb2Z0d2FyZQBBZG9iZSBJ bWFnZVJlYWR5ccllPAAAZS1JREFUeNrsfQecG9W197kzo77S9mqve18XcAHbECABQk0gQAqEhBAI EPKlPALhPfKSvPC98KW9hJdGCqSQQBICDqGahNAxYDAY97Kuu96+WnVp6v3uHc1Id0ajXW211/H8 PJa0Go1Gd/7/c/7n3HPvBTixndhObCe2E9uJ7cR2YjuxndhObP9KGzrRBEe1PfGJJju6m3CiCcYU 8GgQIuATRDjhAY5nwDs9Z8GNi/wNnyDBCQ8wWUA/GODtuxPQzR0VIcSJ7QQBjjngFwM75/T6W2s/ Ob0xUDk94PacnsZSiOPQEv2DGLCKtS0a1g5JqrKZQwhziIPr1//kBfK2doIIJyTQsWjt7WBnH/Xn vzrn82fU+EKnewXX6QLiW2SslifVNGRkERSEn07KmSdfad/x+J92vjxgAN30AhrzWmNIcGI7QYCj bu3t4Kc7Tx+/vvpjM5dUz7iozO290MUJa+mH1IwEYioDsUwc0lIG4snkQ5uih77/QOcbhxhwq8xz E+yqjQQnPMAJCXTUgc9aeQp6/uurr5y5uGb6RSG3/0qB41s0SQYlJkIiNgBKSgRRkyHB6Y9vPNe/ +9ZHeza3GeDmHeIB8/s05jvxUTBKJ8j2L0yAYsBnrT1///m3fKDKF7rKy7vO12QF5IEkpCNJUNJS 7kRJToIUJ8UPp8P/79v7168zgOVizqU4gNoeHNvjjPEkAj5BiH9tCeQkcXhzv3rhe6s+OPvUj5d7 AjfwiGuWIgmQKOiTGStaCFyo1Y/hzJ6Xwnu/8Uj32zsYqaMYj7LxXGH+Zpc8bFwARQLvsQQ+htLS sPgEAY5fq2/KHN7wgvyVC86svmLeaZ8td/tvwIoaEom1F/tjgFXn2DSORIji9N4fH3r+5n2p3ogB cNlhN4GvOoCd9QBOBB1PAmBbQD4YIY5bMgj/QuBnd9PiCwT4NSzwUx1h3eLnzLzDRmVPVEu3/u/B 5750IN2XNABiWnzJ2FnrbweZufHM81zsceoZ11fMmveeZYFgzWKO48tdbv9p+gEc3wzEK5UibjDW 2jRNbSOPUUXObFM1NZpM9G07sOfldze+dG/EFpBjB2/0L0EE9C8EfrvVF35z3pcumRKs/m+kaFPT PdE88FmdY9skpEI3Tuy7++CztxxK94cNsGeYXTTArzLgxw5xRw7wV9/4wOkE7O8RBM9ijnctRgbI FUUDWcEgSipoGgZNpc+1wfFvXLLPl+WWS+BAILvbzRECZS8BE2KoqrxNUaRtyUTvy3/85dUvOxBC G4QUxw0Z0HEOfLABn+6uO0796Kz3TGn5qQu4NWI4Bpn+eFGpw5JAI/e8j0slH+1+59a/9+3YyYA+ beyiQQhT8mCb7NL3C6+4a0ZT87KLPJ7AaYLLewE9gIJcIuAWRVV/nkorI9M5eLD3MCGGAB43T3ZO f07JQf4eU2Xx1Uw6+lRXx/ZX1q/76gEoTN06SadJTwR0HIPfHuTqVn/dB7/6VRLg3irH05DqGgCa 3RkCNbmnMRL0vhE/+INfHH7xCQb4KeMxw4Cftfr695/ynmsrl6684iqfr/xKjhdaqHVPZ1RIJGX9 kVp4O1jHgwD2jXoISgSvl4cyv0v3EpqqbCdk+OOWTY88+Narvwk7xDDa8UIEdByD37S4FPiu/1z9 sVmnNS3SrX6yox8oAUpCjfG+jDRo1yJbb9v18L8xFj9pAz/bmaUD/5rP/eXiQLD2KpfLez4FfTKl QDwhQ0ZUh/jKiSGAXc/4vAKUBQQIlbl1MpD4Yf1AuO2eP9/3yZdsRCjmGU4Q4BiSPLrVf+Ci2z5Z 76v4byWRCVHwO8qdIbxAlFj/n7e/+Ik3owcPGlafBb+p+XXyUWu/ePklF5cFa29DiG+mgKd7OqMM g3NHhwDsRj1CMOiCAPEQNG5IxHu/t+Pdx55469Xf9hvgVxiPp01Gb4COQ/Czksf9t0u/9u0A7/lM msgd0R7klogcmdzjvUrvP76+52/fMoBPCZBgMj76h1esvbpq5dqP3+T1VdygqjgUi8sQiUkF8ma0 YJ0oAuRkEs/pRKgIuQEhiBF59Mstbz30M4MIZrBv9wiTggjoOAE/K3tcenpz4Zk1n2o55zEkqS00 tUnrdQbF1CBvJpAIP2t/4eqN0YP7DeCbul82bjq68danbzeBHx4QdYs/FAImgxdg36SSKFRGiFDu Bp5HsVSy/3u//fEHfwrOHX2TQhah4wj8ptV3fe/M65Yvq5t5v5YQp6YYyTMknoocsE/re+32XY/8 hwF+kwA6+D/x2T9eWFk97U5NQ80s8EsB1WQjALtVVXp0j0CaoC0a6fjqg7/46OM2IhTr5T5BgHEE v/vbZ3xqxcr6ueukgUSIyp5hgc7hTRr8vpTY+/17Dr3wVwb84nsvvK2p5aSLf8hx7jVRInMiUWep c7wSQNebxCOUExJQMqiqtOHg3lc/98xfv7rPJouKdQKeIMBYg/8uAv5VDfPWZTr6Q1IRvT9cAqQ5 Gf5z398uPZTu7zL0f+ZT/+fhT5ZXNn0xldZCfWERFFkdEagmDQHIZzStWD8JArdbgLo6H3g9XCyd Gvjub3908U8Yb+CULTpBgDEKeHPg//1Ft13TEKi8M9MZDhHrPzLQObzZjeP7P7fzwesp+JevvrJy zVk33Ik4zyk9fRk9f1/KifE4gHU8CUCP0VSVZn6ywCev2c811Pmhqydl+S7E0UDZA/W1AeAF2HBo 34ab1z/yH/ttRDjmSDBZa4HYHL9u+XPgHyzTQ28UGgQgDm/2yYkt9IZ94CPfOXPWvPd8LZXRgj19 qaKZncm8aaoCqqIQ4GtE0og9Yrp/azJ2aEs62dO5b/vv3mWCXLM/QG2a8f66UNXCulDl3JMVqXJl Ip45pbrKu7Zx6ikvfvS6P33uz/d97DHj9Gz/QUmq64QHcL5ejsn25GWPHfyDWbphmORX0vt+Gb7g +urK6hmXd/em9Y6s4Z70WPcAqg58GTRFSXpckdd3bH7s0bZ9j+8Fa4eX0xBObCOEXN2wyj9z4VVn NTZNvywU8q9RlczP//SrS79yrMYFaJKBn011ur995rUrV5CA19HyjwEBFJcbNp51bnfGX1PfSyTP oL23k5AAGGskfpEJ+MVkbKD1sT3v/vLRRPRglLXwNoDbO7tM/LAEyZWFn3XR91Y2TFlwC8dxeNeW R698e8OvwuCcLv2XJQAqESss+HXZc/m80+pvPOnC58TOgamOsmeUBEhWVMHOtedAH/ZAXzijS56R 9iNMdCBcCgGo1VeI1U/F2p7bvvF/7k3EDkXAOohHthHBTgDWIyOwllSrLBEuuOInq8urpn2mp2Pr 7c89oRfaHTMk4I8B8Jcy+MMCfrJ7737fDevVSGq22Bcb8wuj4N921oXQk+F08OPjTO4rsgSKlE6q iVd+sOHZbzwsidEME6yaYxrMR9G2myXf9jEPTqXU+r1r3fHUYeJlnps1/5wvTp99Rs/eHU91MbYB H01DjI4R4AMU70JnKzqp9PE8eunXvuOT0PWJtt6RWeRBAJ0sp+C/ADqiamGn1jHgAbDfAxrZ1dog YBcPWnkgq0HK/frrUs4JkgJaLNqrCEpPpuvgFuAQju956+3EoW2He1744yEbwGWbxVaLJCR4sI6r xjZ5pHuRy6558MNiOrr5yYc++w7ke9KPmhdARxH8uYmlnr3mo9PO+d2fDzo0Bit9qOX3/Oq8L3xo hrfmvvjhnmwPb7G7PQIC9MyYA3tXvgd6+tIF4D9aBFCqg6ARsKs1IQvI0woGhY5LlrMnkFS645K+ z80j8Bi+v8yFgLwEn4CyDa+pcU1M7ZLj4TfSHa0btn/ripcZC6/YMjkYis+mgWwKwxw1p37oE79/ fyrZ/84z677UavMc/xIEYKs10d8/+ZFlQbd7+pp7//BXppEcpc+tqy6fd970k/+ZPNwbUjPy4Aga JgFSVTXw9lkXQ2dP2lK1OdEEoBZeaawAtamSgD6ov0/BToFOx8jQ53Qf7LwjJZyXkIASwS9kiUGf 6/FCJrleSUY3RLa9/OTen9x0EJwrQFmDhRiPwHoGzRZnSLZzHdcEKBig8thVly2r9vuWnnbvA793 CIyAOVbX/U9fcefjSnd8tRRNlhLtlfwW1fzbz7wADvcrkMooY5I+HQ4gTdAr02t0K0+teVTSICFh iJNdxcM850gDZHuASO5WmRtBkJAh5OKI5yDHKPJ2ORH+Y2zHq0/tvvu6Aw4AxlBkxg2bJJJsgfZx 7QEKwP+rD54/8+TGuptX/uL+O5isAVtIhRjd7334kju+GpSFWxLtfaWmO0p6ywS/qflHLFdGQACx mQC+iVj7xsoc6MOZvIUf1MFNAAHsn6MeodqLoNydJQORSuvFcOeDb39x5RPgPHzSPjCJTZsqDvd8 wjdhAsGfA/QXVq+oXtnU8N0fb9z0eeNvxQaN69Wd/7by0jnlgv/6+OGusc2GuNywa+3ZjgHveG1U wyuzG0CeVg2KzwMREUM4oua0/HDig4neKDHbE2Qn+KUSqdrrO7+ycfb5a/7U1yZHe3/Z9ff7Hmh/ 5PsDUHzUGLKRgI31jsqv5SeIAJZxub+55IJHdvWHf3zHsy/tZ4wP21hsh5f362uvul/qiszO6f4x 2ra+72LoUL1AqzknBPjzmkBcNRvSNeXQJXNwOK7CACGANAmnxaXXHCXyrCet0UKgcl8g+L6qxadf 23D+ZwII0M747jdEsPYPABT2Hh/1fgA0weB3H/7C9d/uk+Sly3/+uyuYoFdkAiNzzkwd/L94/+c/ NEOovNcifUrLHw76Vuuq98C+6ul6xmdMMjZF3qTAl6nFn10PIsdDV4rKHG185co4SaChPlPl5aDR T+QRp8XkePiXb14/99tQfG6kY6JKlJtI6bP1M5/4AIfxjZt37bnblhnANutvan/3jLLab6a6I8M0 t4ODn6Y72xpn6p1c47kp02og/d4WSMxtgkMZBDvCigX8x9tGf9t28hsPJSCEAzW3rv5j7+aTfvjG pUYSw8wGYSg+xcpxQwC7jhfuu+jc2bPKgz/p7ex8/dMvvPYm0xiaLQjKpT3//MF/v12NpqfoU5eM kTgWA2Wwb8kp0NWTLpyKZIysP83qpE9fAMmTZ0IH4XEx4OPjnAjdGW6qu2neb099oPPJuV/45RzD qJlEGI/pH485D5AD82UL5v4kHQ6H9veF/wr56cHtY0lzBLhg1sqaSt5/XSYcHzPpQ7dda86GThL0 0ilKxkUbL5gCyfcvhXCoDHYSEHQl/3XXvegkv31XWIW45llTc9rlL6y8t/U/DW8gGDvnQIZJT4CC LE7rzdfe7BEza1KRAfjprn3PMQbQPljClD/ua1rOvknsiwctU5iMMi3Stuhk6BKCxUuaRxPkEquf onKHBLr7CMEOxlTH/P2/2kZ7p/eT9tgbxUQWVd9KvMFTc79031yDCMU8wnEhgXQdf88FZ89u9Ptu xb3dMCDJbz7X1ZuwgV9lAl/esP7VVULg2lyHV6ngH+SYeKgS9s9dWlT3jwarVOtT8Pd5fbBnQHFM af6rb7RTbxfxiLo3WH3pCyf94PVLDQKwJJhwInDjAHzLON2PLpr3Y9TbEwJVhbZUZpPxvr3ElpVM 7isXnHkVtf5jZfnpdujk1UCHMY5kJNdgXy8un6lr/QNp4mHik9fqj6ZeqdSNtg31BvvjOERjg1W/ 3v898mePQQJWEk1YXMCNE/h16//6tR/7gE+WV+NkAiTSilsj0U1QuIiEPfgVal3Ba+nCFNk6ATxq lNKsT4e/pmiNz4gA4+Ih/d5FEG+qgj0RVc+JjyVwJjoFOpFbVMSkzTSQPeWfWf1A90tTLv1SHSOJ JtQTjJcH0FOYi2qqv6n1dOtvUNRvHYh1gjUHbNf+wk/OufliLZ6ZMlZoob29B+efVJDvH438ofU6 NL3Z5/FBKwG/NAKzfzyIpNH0N9BeZUqCsCK0NH/kjhcXfe2vK2ySCE0ECbgxBr7Ze+vaedM1nxWi kamg5HtvHzzQ1mGTP/bCKVdzsObDoj3zM4qsT+fcFuhR3CMexG4/PQV/5vT50EV+ZltcO2qSx8OL MCXQbtkn20bb7hBpwy6Rn1re8p5HF97xl5VMlmhCSDCWtUA5K379SYtrppUF/g0fPljwm6FweF3u c5896aKZ7pR2TkrVxgT81PofmrEAwt3imFhiqToIyuo5cDiD9Fw3Hic7Xu3thaArBjX00R3Tn7sJ 4OnroZskf00dyan6Y1+mFkTVC0fI65gcgrgUOqaIQNOlkopC05e+d92Cf//zZbu+/dFNNsyMm+MU xgj4llFbt69Z+Vk0EA5hZjIlT12D+QPs4M9Z/9VNCy6UwskxAb9p/XuTY9NmNNMjL5+hW31asTkG l5ez5E3+dqjx9emPTcSSm8TKKCRoxwQcmmQAJW2BQFrJZ7ToqvNu3p3DCH3tE7I96PPKvfrrVXXu rBcj5+xMTSMEaYZeQg5KDFH1HFUS9OttikLTTjp73Uk/evvrm7+w/Hc2Eph4wccaAYABv/DpZS01 jR73p3FPp0GPrPfiEjEA5wrBXPBbLQSuEJO9Y4Is0/rHu6URW//cV1UGIHXyDNg3oFlKlUdj4SnQ 51fshBpPbw7soipBNwG5qIqgaIqjqcH2QaOGOKCgTivWOCcpZyevGsh9BBPCuUHgXFAmxGFxVSsh iVd/r52Q4EBsNuyPzzlqHoKSgDRvaFrNtDuJJ9jGeAK2mO6YlEC5vP9nly+9mIsMBLEzYLUi8oe/ YdkFM7m0smCsUhgdc8bG+uuaf+08OBi1gn+48ofKmAUE8PMrdkAZeU4BTgHamUxaLPmg1HRaTNXp cOT00exBlGR0T8p5TxsQ/IQQUVhdfwBOb3wBolIZbO1fqZMhJk4sGWh5ONlCs4gnsMkhmcEQPlYI YB/w4J5XEfoSbj9cDMC4iHQS1jQtvEDqS44K9OzHOqbOgnhYHpX1NwNeqvmH07nFXjYFPN2b/EcI 6GUCrhiRUKm8hS91TgSn40rNhw5xfkpEuven+3UZFXAFCBkiOhmoPNo10AI7yT6RJDiESExASXDH Xy7bddeH3zJ+kTwI7Ue08WNEACou3Y9/5IPvm8PBtZBKFR7ocsGSWTPffHhX6z6wrqiilz1/cu6Z n8f9yVmjTs0Z1Z67y6fpC86NNPClef7M6QvgsMwXaP6hrD/V9SfXvAXnNz8Os4K7gMOd0EPAFc5E QFREULE2YlRj43hUqIIGv0slHqxiVZdjUTGmk6LcHYd5FQdhUeUO8AgSCajryDHCOJVxYya+oeMk kKd+yvT3qen4w4m9b6VhHCpHhVGC3zJV4crG+utwV6fzjxNJsBcsmwrW2QNy0smv8menxgD8dOtq nlN0hBcu8TxmqnM45cs0U7O8+jVYWL6TBJ1JGBCjOog0rDlmabL4L32Bdswcj5nbgB0oiQaTSCWS QSJSqSfVqwfQQfcALK8Jw7LqTfBu/wrY3Ld83APnftL2bp6bOv3j//Vo11M/PwvGoYR6tBIoF/x+ vGVBdbkin4OVIrJD06A54DuFPLvf+Ixqyp9vnf7J0+V4atTA1zVuoAw6AzWgpdMjPhctb6CdXF1x bVArxQJ/adVmWFL5DjkgRlx4nEimBCyI8LAgjqEm6YUakYOpsgBlicEJpXpFiARd0CaoINVxcNAr w0AjCVJTKkQUDaKylrfoiEEzvXBkvEGD5ex/BtCxM78wlCTDKIGpR6B70F1GiJAkvzdLhHf7x5cI NEXq5lyLVtzbetem6+fcbosBRh0PjFUM4Lp99YqPQWzwWdoqsbYK8nVCJgG46eV1q5X21KjBT7dw 07SiQxxLaSma7qTlDR2R0iz//PIdsLb+Jd3iB/tiMKUnDcv7XQT8RikTMQjU+4FEdkUFLImD6gPO 44Yqjocq8ojaPHCKkAVXrA5DYibRx/UAh8tUaE+rcDChwMGkCsgcVV2AbsR4DktSrvAwB6/gRPa4 lND3MoMICyu3wcaeteMaI7QnVJhbUXn9ku++9NrWr5xhTp+jjUU8IIwS+MhMYU4N+K/AA32DBl5u WW76+fnvW3bT+uc2Qr74SQgowqmaqo0K+OZ2cPoCECPqiMCv+TyQXtwMB2NakalIsCWVeWbDM9DM 90HL/iSceiANNWnycxQecDIGmHggnE7pnm9YkXc6ZT2c4wD5/BCM+CB4JACNggtmBQToXcRDfKEb hCDxEjEZdkVl2E32KM1UcSbYcd4DYEMusWRwkkQlyCPaDnEpru9V3ji8tykCCyq2w8udZ+kxwlhv 9F7QezJ36qIfzrrpR1v2//wLe8A6UdeISTBaD6CnML915tqZ3kxqAR4iC4GTSbjwpKXXwvrn3mEY 7BZkvEAaBehZ+RPhfJCdvnIEuv/U2XrGZ6janpW1b8DZvg1wxq4UnNQmZq088X4a9YDFJOBIbRQh EC0mhEQcgHYZuFzgCYZgajQE8KYLemcq0HhyBqY2euH8aT4iGVR4t0+C3TGTDNgql3IgR3RxFyvO h0kE3eNmBojki0KNNwkfm9MGb/SsgY3da8e0Ccyg+EgShZrXXv5jQoAPgPOqlBOWBWLH7Xq+deaa S+rTqXNoyfNQN9Pn9U7ZGYk9tKt/gGJe+MSi981scdffUGzGh+FkQnvp1IauGnIZeFgNTr9DXtAE PTWVJOjDRa0etfpXVa+Dmw+/A5dsTkBDdwJwXx/g3p6s5dZG0U9T6g+l30Hjm0iEMF6EQNwFda1+ UPtI0B0Igz+owbxKH6xp8EG9hweFAKePxA/I1D6OM7Ai89+Iske0bZJKCjJqBuaU98Kciv1wmOi1 4cQGGIaex4mSwO91T51+/rVC5xM/3XA0CWCZqfn/nnbKrd5oZFaJH/Qsnz1D+dnbW+i4YP6S2acu qxd9l2iKOmpXuW/hcuiQXMMGPx3NFVs5R3ezuMjNWRbYDndFH4FPbe3IAr+nG3A4TJgjDf1to81X FCMH/e54TCdEMFkGDfsqQYqK0B/qAiykoNbHwdKaIJxc4wEPCbk69fEKqHAkLrKmjpAdkKi0/gra txGX4xB0ZWBZzV4C2LIxl0QxCUNNRWiNr7JuXeTtvw+MlgDcCK2/ZbaHoCKdUvK9JDdsut/3yfNm Ta+h5JlZ3rCaruE72k3iXXr2Z7jg16WTUePjpHxohudG9CQ8uOcvcMaeHsBH2kEjOx5hlmnUbs6J XcT74CNt+rU17/DCkqeagd/HQTzZA6nMPvBx/XDmFA/ccnIFnFHrATf9ocTeYNX4asvkJMY6CE6e Ag+9XgHNGPWme4ksOgzvnfIknDN1/ZjHAzQorjnjo/8L1tkm0ER5ALbs2fPXyy8+ay6PrgSpdBBz GHvOXDiv/kdvbX7p/XWLV5eJ3PLRNsxA/RRoLZ8CkqwND/zN1RBuroOedOGNDWkZuDt5P1y/fxt4 esKAu7uImVOGZ97xBJKDxh+xKLhkDuq660BLcjBQToJxVxoUNQI8p8DsygCc0uAHjoC/M65YPAJi 5E5BsIxK8Qb5a5U1WU8FN5fFYW7FAdgTXaB3oI3FRtcmpFKo8dQLd/c8+9u9o5FCIyVATv9/Y82K q8oTsVMsLTakuRYhVF4+v6Wh/mAZbn4/l5QbRguS/umzoJWrHNbQYX1U18pZsC+JClputtYN67rv gZUdHaDRzr1EHMZlG631d4wYiXcigXN5shLKu0PQVUVe++hU8mKWCEiBOYQIS2t8EE4oJEbQAHFs tsImf6gsQkWQMIQ3oCSgkmhx1QESxDZDSgmMSP/btySxQ/W1NSvUxMBfkvveScMIp1kfCQFysz1Q CXPHKSff4E3SDPUwWoZeJfEY86ZNXd3VzXnkpFo2WvC0zl0GPap7WHhT5jVCZ0WFPgMzu52sHIKH D/4WavuIzicEKB7cj7P1H81GPVUsAh7NCw2dteR3pkAtU2lWlcTRtNo0Al4XgpPqQzAr6IJ9fTKI GtaD5dzSp/ZAudjtHSJATpEAmZaHLK05BIfiMx1JMBIpxPF8qH7OErXryZ+NOCAeLgHYun8a4vu+ flLL7XwmHRz8I06/gNwMTXNX13vLOjtx6QmUIibh7QWrrev2DvFRav3jy2fBAduSwh+JvQO/6H4Q /J1HskHueKJ7lHMclbQRT8BJKtQPNEIcqZCoEIHnzYRSmgApAVU+D5wxLQSYKKh9AzLxBsjxDmKE c0FyaZKITWNmyGEinFzbNmYkSCkkIC4va9EGOh9MHdxCO1DU4ZJgpASgHsDzoXmz6z/S3HAriJlh niIvhTxlbqgjAVpREpQAApr/3904j4QhWslYota/LRDUF51gwf+DzoeB7+gCPKjkKUVnjbeJH8YX iCJwaQnqYvUQd6kQN0iQvRMk+NcS5P80zK0KQUu1F3Z1SyBinE+d2vFt/B3ZOxHQ4G1Pa4soCVY3 tEJcLh91hiireThP07ylatdT92yAEaw1MBIC5PT/N9+zes18Hj5UGBgOz0J5ylyEBF7o7NBAG0E2 NFlRDbsrpuXy/0Pxx7T+h1OF4KcZHhhthof1NDUkGG0hAeD8ECgzEMgrAiDP1kCey4M8T7DsypIq 0Op9gGc2A9TOACQqgFLJEXw/dk6ZknPVxRt0EiQqpZwn0NcH12hAHINyrxdWNQUhltSgk8QH1Nyh QTQPGqYkoiSg1aZLqjvgQGwu0fL+UTU17RuorQgu0iKdDxheYFjFcsMlADvTs/ff16y8uCYRP330 bjqpk2DKTB/092NqsIa19c6cSwLgipIdhzi3EdrL8tb/v3qfhv/oXZ8F/5BfXsJwSAJ69bQlILVg kGsPg5r4B3E524jk2w+u1H4QxDYQMu0FO5/YR47bD2pmO7Ep74Ay2wNqy3SA6YsARSWGDCN0LzSW oSSQG6CnOgOyX9FjAjDq6KheV3EcBBIkL60vBz8vwK5eKVtrhPI6B9kD5GGSgPYX0FFvK+qOwOH4 jKJyqNSyauoFGmbOH+h+5ld08Ix9HbNx8QD6gnWfa5n3/ipFWjkmHp2QwEWCsunzA7pDiURKv8md tc1wxF1RsmpKnjQDDmc4aJYj8Jcjv4bzw5uzmZ5Rgh8vaAF5TRNI1btAG1hPQL0HXFoPePwYBNJi BE8kcKPjdbEOPP25bafHCG4MLi8GXu4lF7sXlMQmkGd5AC9eQT5XDaivZ8RxA6YdjmkZ6qON0NmQ As2r5khg1gxRmaLhFMyoCMDiGh9sbpdAQQbUC4rqkP45ixwqIS6gJKDfcxIxEKONCbJeIDS7+9Hv 3zdcGTQSAuR6gO9Yvvh6v5iZ4SAIR/hLiPTIpKFuRhAaGjnKiZLUyIHZi6FXK63bXW2sgFhNGVzb +zLc1/lHqI2QYLfLKb9fOvjxtBkgnzEdJP55QJGXwY17wOXDWcBzheehTYWQtUcx/zecH2jBZQnh 8hACETKo0XdBqhgAvGwt0fQ+4hUiI2tnIoc4SYFGsQH21cRA8OFcJXUevCqJDeIQ8rjh5MYQtBJP EFewUTKBihp5ZOtdHtQTEy9ASdBS0Q17D08HnNEAyUT2GVPYYK70flpB4ENTV527p/e53++GwhnH h5uiGZQwVP9TuoY6r77sL6FkfIVzC4xioxWQVcTSlVfokmjvXk1/LGbxXjrpbDjgqhrytLV8Ct4z dQA+IG+BQCaud2yV1qM7yMRb7z0NJN/bwPe+ToCq6XKhoAWa1gAiOzSSPTiV7M3OJ4u3kZ3IsE4S z3W8RvYNhVdC4hxJRKDUrQF3cgUI/3ylZA9gfwvVN0DiFDe83dIJvgARErzhmcydgp2j1YpVRFdU wy/ejECXavxGDnIsRrbZe1gSDC5jsm9WeStBSzf2/vGR5idQsKYWVTa3gLd8Jj0RdrlAc7sAC8Kg d4Qu6LfYl3x203UzP0GdPGQXXVGGigdGQgC3SYCBj1/6ijuVbCxOr1GSQXARIlQBCoZ0T9DVpUF3 FyZksMq7x8+9GsIRsSjoW1x9sMrTQfbObOVmuF+v3hxNtoVafWl5GWidj4ObjwIn2GQABf28jwDM PI+0WEgvIdBoZadeaoCLNBfSd44aAHoyiVzjgfUAex4yyJD/nCojkLRyQA0fBPebCUCHDwwtfxze 5pqnw5GLM7CnvBfKyrLA5rnsY54IxAPxIdBQA/yckkAhJBCy12vmBZFttn+29q6YHGI7wOr8tZA6 kHziDzfcf69u/BsW+IWzbj61dsGp54T5qsWUAJrXoxOh2K+cHuRBfu7naw/f/9VdkC0JlofyBKMi QOq6j+2jYBqeiBrmV9K7RqwA8gd0IoAnK3WoR6CkSKcx7JyxBERbCrTF3Qu1XEonQK6kOBbL1uiP MtVItX5mfhi4zvW6PEGsBqbAX3GL/kgBT3dVHVmhH8/zOhnornuFTf8DcGSDpWnkDCKy7gLw7CCG Yue24YcGpD25RdNg67ndEHEnwOuFfHxigJ/+NvpcEMrB42qAP2+Nw9v9IiB3lrBmJQ4qtuRFkZiA JQAddtlU1gS7n9p51z++/8yrbBDLt5zf6Drnlo+jmplnU4+g+ryO8ogu5zo1feC/t/7bKT82vIDE eIExJ0B56qoPto5pUVip8sjnzxLB7SaWyjmM0UdeycTak5hCD26H3ankfLy6agWI5UTuJHbowWpu 0AmRNWjtfwHMOE8HPN3xGM1GS0FGyUB3OEg8woavZ+WSKcMk4g38i8AzsAa4jW8NOzamXlY9sxw2 zice0i3RZtVlTtYDYF0KcYaVF/gy8n4j3L2BegKsewId/BwqIAF2sneoEPw5LvJuaPA2JNd/66mb dz+/qwOsM4cLhAhNrou/8W8QrF2i+n26PLJvC8rkXduunXK2QYA0FK49PSZpUD0I/uqS+V8YVR/A iHLsOJvTpsRLJPTqUqddn5mCdtCN6PqKg1+qeB086e3Au5gRVwT06KI/gFa5kHBO1q3+WG+mN0GV cwEt+BhApDW7g2Gt5R4QgxLwVacCOtIxnMSQ3lZ8MgQVyz1wIJMAjxusgTorabCk78ub6mB3lwgJ Je/9zI4ze1q0IENULEGBVSKzNPeClQtmvfmnjU9BfuFEHcS4tzWmvHrfs6hubj8fnLKEsM6NXdbY wONy1YTKAn+NbX2hv5SM0OQjwGg6g0YR7FLZI9a/Be7Udh1wJvip1UdrvwkKpoNPxr8tdHLxRLbM u4zc7XKAtuezk6VQ7W6QQHAtGzxV6tROkgweXxXgGRjCGRH0mBNhi543iUDCcGKOZVjRVA07O0WI q1BAglxxJCr0AhjhQTvKAoFAw9xT58W2PbV1s0ECy4Rq2ran94GUfodraFnI8e5K0xPotpEc0VhX 3dnzzL1vgnW94qKAHvEma9qxCfyxBj8JeDPzwoXgP+uHgBdfB5IkjVjnj6w/S9W/Ey++HvBZd+dv Jrk2T2YbiAvDgKfPHJYd0GOjzSLMReUgqG6qHvXSFDqji4ZzQwVyu6JEgUfd8KnlIfDIWD8O9OON vgTmA7oUxKV2p9C1h3ugZn7tp5dfvqLGCGZThqRJGa8zyoZf75R/84nbINa3n0+lLX0Caqjh/ZCf YXrQsQKjIoCiqNZWOdqgH/E1DP45mu0RutcXgn/eFVkgHoXfTr9T/+65HwawkUDofQqklcMvsMX9 /YA3arCwsoKoomxtFp2rQCcCLtwpCYKuCHx2VTloKTWXcKSpWtCAGViDrJNWDDHFLS2jDsvhstM+ ffo3DQ+QZkiQMF5ntM4dYfnXn/gKJQGXztejZYSyVVDiFOujkkC3z53+BWGwrA5C4wf4sTnR0CR/ 72mkyR8GlyuT78QisgcvvFoH4NHeqCTiapcConKo/fkcCXDqIODZHwBu/+HS21GRAaVC4FspQ5KA NkFeC3xOyTAyJ9+Zh3EKyr0eqPL5YVunRILiLLoRO84YMYEBwiXFA3RAjd/rb5qzau6ObU9v3cWk NC2SBid6Zdz6yiv8wvNWYo+/khY40dM2t6x8q//Vhw8MFQdwE2aZR2qhx+IcjsAvoaaHSB+lbBMI KJoDPw14TdlzrGw08KZyCGacn+9CIdesBN/KSaGSWyYyALBThkWVIVBETvcA+jyp2FkK6bpb6YEV UxCsrHODRtPRmjF0kh1eaeRh8KBSyPqHvkwf1C2s/09T+RlpzRTjEUxP0K+8dM/3+EQsgYhBoOM7 vFPmrYESllriJvxuOQF6sH3sL6B0YC0rB1ff6/k8P011nvUDHXDH2qYH4GfenetlpqLDHX4NlOXl w/KiOEEUxhYvCDgK08uCkMlkJZDGSiFGEmVrhzTSJp3wwUU+qOBQbpwxdgK9/RYMcjtovVBCS0y5 4S+f/bL5J4MEaSYm0EmgvnLvLm3Piz/j0ml9sEzGW3UqFK4+ObYEEPFkWelq+NNJ0qwPTv4TOBcz CyeRPgofOCqav5SYgF4brLkzhzjaOw2pfxC5tngYEpJY7SMEZ10pmBH0gipxehFpziYRdGmsjQLT Q4gkKO7Vg2KVxAOm5jcD4OzxWeYMJx6IiBHwVHquXXLx0krIrzAqMsFxLjCWH7jpCYj2bkbEGKQ5 7wLIL9hYNA4YFQEkTeucHMAf/sfkuQK4pLZ8KEN7dqedO6HZnpHEA3j6eeRa8xNT0d+gLBjeYHQc jwLuCupeYEYwqHenmB5AtTln9rmiRqGhLAPnzSZGQtTyM04UDFbE7NNBXQENiCNyJLT6mrU3MTGr YpAgbSOBrP79u//NEbclanxw6se+NmOoTNCoCJBUjlUCjGKqGJyt5wd1o55bzwV+K26ZkDz/mEih FbfmvRb9DeobgGvrSrL+WdcuAmr1kjaIw0zDC2hGijNn+RlJxJ5WIlLo3DkuKKcFRbnjsW798WCO eJDLiolx6gU+TbxAFYNZ1UYC+iiqbz/cDv1tT6ZFBfzTFzePqwTSxnam6gmXOcU4o548C/jojvx7 xPqr9acck9LHSQppDasBGvNegI9tB3X57OGdpzWbaHEB8QKhkB4LqIz2ZxfdzL42Z+PTQCJB8ZXL gqClcS4AtsQD9vmHLFM2FpFCUjR48mXLL4ZsNTKC/NygJgnSORK8/ItfiMkMeKfOX20LhMdWArWl xU3OAMQTDHg8+lOxxA60GTl/w4rO+8gxLX3sm36t8z+av8k0LVrWVpr1Nzc62VaHnwA3oXsBMZ0F rGZ2jA3iBegY4xkVIrTUuAErmmM8YP4Rl5iboBPxBqeGvgTWdYQ1JjDOGLukbnzwMER7ns9gIcTg fEw9gH65UUWNlw7QkQJ1rM5TmlKi8odT91sJMf3cSWH9LV6AxgLMJXPavrwMKuUctGe426uj3YUi MKWsTJ/hHdvSojlNb2tL6gUubfGBW0UkcLbJH4cZ54oFxGyzp7TUlCt/djX1AoJNCpkkEI1dwb37 n9M470LmuDGXQLg1ntyTGVGV5XD2iQ0RtJnNgAZ2WMqbNaEMJtumXzMTDHMD2wDPmlZ6apia9h7j HTUJzcQLUAJobBqU9QBMRihr5WUIemJwxnQvaJLJGHuphA3hQ9xuOgt11bSqDzNewPwUJYHM7uqL 9/wjkcz11aBiJOBGY5IfO9K1W9QmESpK4JQWTABbYU1Hck0m+cNmhHQCGFJDl0GhxPBOkpt6VoMa r0bMrqCnRDUmBapbfzsGDJjJchjOmOkCDy2FsJRG2DJC9qn0sXO8rq+Z7JbOWXReS7UtxakxJJD0 BOXeFwc83NCWdDQSSHuzPxJLqGrXpAB9ic4E8X3Wj9OAcpJumA7BZH+b0De89EtPPm+PtQhMCxky yIgFDG4U9A7nz0xIw4XhzJk+wDLbH4AtMYGFBENNaCCn4NSrV3/M8AIcQ5kCL4Ck5I6hzsiNwobq X9onya2THfSWrY6dB5PcwkDTpCWAFphiHXhSP5wVKSnaOKY9JWgOefQ5kHMSyNYp5mS5ad+A6QXy tRR5KeQYBSMo9Co5AiTBW+O7wogDBCa7Y/Y65AggJ5OHYYjpUUohgFOrmd0b6pG0uFc7DrKguR8r x3J3UW9VfWHLSbqZg++x7beVumVExrwDBPgklAlukI1BhlqRihVsS5FSL7Bqqgc0Gef6Bkx3gJl7 V6oXkDhpwRk3nTkT8p1cdlzqg2j8qa5tMMSkudwQwEdFcqjml6lbo/FNaZbNkzALavnRyLhrKJ9R mbQSyFaHj9AwrL8djbrVTkK136vPwq5h504xXMQLnEm8gB4Ms+sRaKjIijUwaL9ATIrDrLVzLgBr yTMbEOtyCPHCkNOjcENY/WLgN/WWcue2PW+mNDy8ZM9YJIzGHi36rvV2wfG/ldaAIkW1hTUKzCh3 gyjZahZZzhQ5dcibhMX1btCULGOynzMyQ7lLsmWIitRw0vmEhJCwGgoHvWAmIFY4l4ctn3b0AkN6 gM0/WnuWjQR2VyO3ZTKvjEsmdGLMpMVccbUNVi062T3ASNuEoohWvdrOESKY4oiedxokA0WIkB08 E4ZTm336DNTsPTZJAHn8O3uEfM4oe2v86GywdoqxyNK9wK5vf+AlGMGQSMsK8KKsmbUUjiyj+/5k +h1psgGlxHLr448Aw5iSXVUcDFcaavw+fchkLgvk1Ctc8K0aLKzLQIULGWUR2DFwNrNKQ11uggTD H/r25afZ0qEsCTQb+PFwPECOBFKeAE4ySCfA39q7X4hrePKAvgRQIzgeNzz6j+IkVPjc+RJpYGQQ ExjbuaTzSYvBkgZPgRfIn2jwa2QzWmklDVXTq9ZAYbWnxhhocx9WEGzxAE1VwjKHL8GMBFLWtXe2 9Ujyvslu7fXNbVvrI3Zk8sI91m59LftLt/4026I5D1+s8WeXI7NLIG0InqkkiD5lGg9Ywcyg+bxk 0ooFw04pXuIqNA9eBM7lziwJRpUF4jU5w6abOJsHyOVdt0UTT2eOFbkwilFlKO61nifRPmkJgOLt lt+CBluJyqGdNJfzyLfaAJedDcdBs2NbSYT99A1BIoM8nOMYAcsDtgoXp4m0sBsvgMLB73YDrY00 C6QPgPe6YQkUjqwpkEE/3L3/ibiqHRugH81ppHLLnUEdr09exUMn2GXQhMWKYX1c9BcrARHB7xL0 8uhcDZBWqGCwg4aiKVFTBlmkkwZQcmmoSVBea5p75rwqKOwPwA7Zn2HFAKa1592chm67rLnaId3E EkB+NxKLtCbTG7SJmCZlvMYO6xa/0nILuK7JSwDU+Zq1bYzfVor11z9fU2zNIwkqvC7dC1gkvG3Q vFNGiA6dXNLIGenQwsyfU2dYsYm0RFWChecuWgyFg15sQ/GL5xW5IeI/LpWIo5svbLrQJoGQnQBU Mm4aiD4VZb3AcAfAH62B8sx5uX2HAVctyjdG1xukpWOTD/3kmjnTA9CfWNUCaN/hksGvC+hAkQVD CIjL/b7sclYMcIv25NoAPLNKzs4dZGSqNK00GWTfaCBc0VSxqIg6KSmpPlgMoDMqGR/YUVuGLmS0 Fu+gs/Q44PZ3dz3fJyvdkzoV2tUB2Dc/95KnA8v3/2PyBcCtz2QHxZuv6W/qPFIS+HVwkYjUXQ+O OXmKMj+JD1StMG1ZuFw0dgiGEzCnmg6WYWp+jAm0CsYDDDVpGZIrID9f1bCTd0OlQVE4ycUDfPL8 e26eOxOK97qZZajyK/2R3x7TKdGhPAlNcGfmWAeTtD4y+eTPnr9Y/5CZl/1tJW5p0j58TcZRF9Cm CXgE3QMUBLyDpEHN15qWgrk1LvJ5dmR9vt8C40JvUGwTyoVVUMIUiCPxAHogvKdL3ijGe+Gjp9fe BtmeN8FGAoUhgPTLfYdfJF4gOalAb2+UzVYZxHW/Drj9jclj/dteJ7HLa7m7iKuJ/Hn7UMnWXyeA LwHeWn9Rcezm0haJgtlHBsSOq3QSuzmrWiMyyPb5giBac1ynm/UOavYkLPjRWBFAP9mWNqVDzIhQ 6clc8dOb5swEa/0FgHVcprQlEhvYGkusO+peYDQxw6EDgANn5hqf1lShTXdPHvO/8QfAM/MZ4cB7 yW/aXzL49fmeKmIgBF0F01uaryr8fr2j2Gl6lFKavDEo6UMlwZ7uLKbciyh55EJNMMT8nyMlgP51 P3o22ZmRURxSXXDN2fX/a/MCbDpUhux4TOmuHa1/pl5AO1qAH22gTKQC2kc0amBK7lxCL/EC+479 WEDb+wzwPfngF8qaAe115+VPCW0TJ9JEIPJH8LsLjs8teoHFApWPgCXB4N/jESSo8vHWmaSZs+Eh lpk0YwPexTeOpr24IsC39MX1J2A3yAkIoMSp23+68uP0+hlPAGAbmLw1Gg9vjcXXRcerX2DcM0OY SIY3AVd+0BIMc6/deWxnhOi1vfLNfPBL5U/VJeS3bCzdNNNJwVwiuBqMhfByK98ZDyifJ8K2jA22 UWIwj6DhDFQTAuQXRncojS5SWMQGxjQVCqOoXOEGsf65SznUD5t0RZM8Agua3N/46x0tJ0N2hmg2 +LCMybzytc33dctyt6JNgjSo089OpwBtV7Nz7Bh/orOs4WdvO2bxr67/MrnGw3mQNq4BtFUd1rpo SXK/+IY+EgAHmHQIckyRuPj8LUGlNC2r7okHmVPrglwOFGMmfmCnS8HjWpjFDXKpuU6Ere3yppRE DiVs45JtofNXVN594/mNtQYJBFssYE5NIT3T1fezfu1YH1BePFWMtr0LWDtfX+VRf02awNX5d8Dv /ObYkz6b7gPhyPr8gH5PiGjsCwC2bR6W9Y8SQLobIiQADhSMCkEIWzLtlQEfFHb74EGAb/2Dh5dy E2blg+ECAZK/dDR0WnSsPYA+tOwrD8U3JkXjUCkKXqV/4f9+ZvY6QoI6sE5RwcYC4h1bdj/flpG2 JI+5tGiJgw5EEfh/vAJq40dyh+pS6I07Ae94+NgB//a/ANrwX9bAd8YNwP39ldIXCMTZ1CdUh0F1 aeCt81sWvEPsomH6HxQmjWm2JiN98NA5mSnlnLVYOXdrUPGyCHuFqayNCwHYoWR60Vt3DN7O+8kj 4NEiiygJbr6gqdYWFFu8wHd37f9OtzLBAfFoQG//VLgfuO1u0JovyulPt08D7oVbjwkSUPDDP28B lze/WB2e9gHgXh0g195XMvjpNkDMecWsbtCCAUA8ymn+7HmxxSNgRQJNUotbesfVIXFBHGC5O/aR 8Nh6KqfAWlHkMScAi5RcPfXuTu0lUWZcafywToIfXDfrr49/bfEKwxOY5Ml5gSc7eg6/EY7+vveo zK0zRsPLthDuty3WV4E0LZw7gHUSaO/8+qjKHgp+t48Bf00LIHKtmK4ZPAzwm9afL5PAVRcsPAjl kUy/iw5w53gpHwQjPOTaX04egJZEYGx1F7nXyOGTNmIpWB1zAoAtvanv6zZlXohleGsWJnYIPGrf oguXVz6y955VV0N+rhbL9BTXv7n1ocMZaev49g2M1/SJdLWFDKDXXib+7PJcB5lJAv71O0F97MaJ zQ6R71If/YwuewrAL16RvVZZKhn8dOtXstY/JXPgnxJi1ke1ZoAQypOgN4OIJMzmgzAefot7BaMr Wdf5+enl0BCryk9kDJAb9PKnjZkjPTFUOAdQ4ghw8QOhOY2uu1MPnfa3e7KdZRzYBs9/e8e+71Mp NPqhkxM0gNiecaJZoRcIsMTLLb3Ebj+RRN3PgPrARYD3/X38rf7eZ0C5/3wQOtY7g//5FwGnhtcR T6WP0NALvnIRJI8PXEGXLfhF1lXgLTIGl5CkKbIaDTj3TRSOBRg/AV1skTw2/ncZu/v0ee7gnDp0 qou3z1lH1I4YAZfb07xifs1nvnBR0/TKMmHXP7dEEkZ8wLcmUpkGr7trVjBwRhmPjt0hh4MRlM6b 39lNpMK5gKeWA4rt0YFBMy88joK68wnQDr0OqHwqoNDYzidEyxtomhO981Nw81F9oe7ce0Tzo56z AL3yMuBYtHQ7Atle3zAvQnXLYVDpnZpaC776QHZdAb3+F+mrwNOYQPcAfPY1LWfe0YfA6zVWkefM leXzO0LWBfXAllHlkAv+sUcA5DbOzWUPQOzK8+bf7Kg0g+AUhta/7v6RIbllGGIalFIJYH6NWWVH m8ZNLEHi7IXuj5R5HBhJ051SBGiHmc/nXXR6S82nb/nwolMvXOpHezrS3W19ovZCb7jzjNqqUKXb PT/AockBekcSdJCbRmKChacDSmwnTS6Sm4n1LAyfagdt2yOgHX49eyMpEQTPiKWOtvsxUJ+/E2Dj D8GjtGWDXY5Jdc75PHDvePXOLpyIDwv8dOsi0qdsThuU1aWAStzA4kYQfEIOkCbgOXq/6COfJQVd BmnnACL3OgtqzpEAefA7EQARAvx9Nw+cB+W9DGcQICe/cI4UTnGAKqqdrX/d85uREkAooalyNf8P v5Vp/+K5/ldrg3Aah5x9BiIEgGgCsKsMgp7KU05bWH7Ki/+9FGIptfVgd2Zbe0+mO7xb6nEp7rpK npscoLdvtGPpzdeAb2sCde0tBCTrCZKy5Qe0F9ZTRpx25DVQnn8N1L+ThpmyGlAz2aeuBggV9w76 GN5oO+D210FrI+drf00nlYdYe67MVo/cuEbP8/NPbgaNljnL0rDB36NkpU+wKZrNeZeHwB1y50CX l0BQYI37SaygL6GKreHCcDZpDGZWVlLKqFYpEoZoKnb6E72Xd+N++elFjcJpVQGlqN/QsUWJQHfc Bkgog5BQNmfp1LI5S5rLINGsQedzKggyguBEeoIx7EXGkgz48CHg6KqKi9aANmc5oIG/EY/QniOC W8g2IyWD2vcaaG9CdjaFIqNUczKCfJbKTC7kMCi9rFkvb+BaPYB2vAJaqalOG/hpQiLjS0EdCXwF N4Yotf6ziazjgbHayFjv14Zu8lzNqFn4sENQhjPzHAWWSiHltXwQ2QJfNMTv0UQtPl4EAHAY9PLl P8efv3BpVXdVAOqLaieU7xzRnxIiUM+AjQ4OP/nWmhY/9Gwm8bLmHj8SjEPZREFHZ7g/6w0O1BFJ dA1ozRFAyecBhfNLLFFAs4NThsSGw3XTkmZa1YnaK4DftBW0vp7SO7ls30k7JvuwBHULDxJvlTVk ac4NdVODluA3J4IZE6/3BpMnUQlZppEvAL/T0qjI+hsxVga5XFzS7xEj4p7x9AAFwx7p802HlIeb KrjPhbxqkV4PyI8WQGyVINatCrVyoYYU4GUHoPfdmSBgN/jGYlX5cawTGvTUBIjaEeLpaKdZVTXg xjNBm/chEj3tBJTZRf6+3TnFUOyLzMxOVUt2JJeyCLg9YeA62wjhiOQxa3tGAH4a9PaR21jdsh98 laKO66TEgae5ipCUAbuu+cGi4bO6PHt9ooiBY4JSxHwZsg9OREM1JoaRFvwQCRQv2eWM0AOw6Uy9 2vP7T6eePHVm6FOEAAHH77b8HmQpKKT5XtqQNH9c3khuJD4AXW/PgQYXXxoJJnDqleF+FS06w0fI b+rpAu5gBaBAAHDtGYCbLieenlhsuqhmKFOkz4DYPHcIUIymVZoAMnWADvQCRyw9TrwFODpAPKk8 /Auzgb9DViE0pxMC9amsBSdNHlNcUDOjIp+BsQCe9QjZG4slDfpoDOAt9PyoSGw4nEbNSh805G+i k+0mOuJ7RpMHL2UBWXYeUL3Sc3ObEnm3XV1XF+I/kfcChdbfnGk5xwd2xmWUdaGhhiTIc9uhY89U qBO4iY0JxotjkgS4lwC3lzw/0g5otw/A5wfkItGsj87MUFk8TU5JpBwij7uyhLIPYxwh+GlPbxcF /+x2KG8OA2+An1p/99RKcPkFRuqwwM++Rly+h0olwEtrCASUPwQPZYQdbqvTqrPD6fCii250vNG+ ezQdQkKJTcjKIL3E4c6/JR9aNjV0WZlHdc5oIhsfmOmuWedA89mVs8LgCqShd+ssOhvTUSHBmDgW p5MQAOsgjsWcpnYav4u0Bbw9igoVFPzTwiB4cC67E5OJ9Z9TlZc7HBMAm68N8JtgF0UNMliAEDMQ UU95gjXdWZD6tJU2JzNIt+J8qZbfpi6UtNI1sKc/BkNMfjXYxg2jOXO9utTGbWlXwu+2qesiqSE4 ZOtBRIw7NRuJ5rZDTSmoXbqf6FMZBlQ8YaAfkyEGIzrJOIHfZgfpoCSq+auWtBaAP5om2p9a/4DL itTcxJjWUgjz/TBR3WwGGwGGIdWrw/UPxLReOakksTKyJhMjUqst7z9sL8ANo0lNL5Cr9LzzseRD nVGuW1ZRaRfN5JWRjQTUE4QasySIChk9R60dy6AfFfDx+HyH7TDahmFiUKoX7delJgt+amOSyANB 0/qb1tzsgbX04qLc+1S+9iRBj+HyWSGrZUal6n5R7unc1P4TJaEOu9aHFtGlupJvQwnzf46VBygI hokXGHhyi/SzvoQwuAfAhSOWHUkgZEnQuKIVMr40Cdg0UPDYAX7M4ucRn2xiJA9ts3ai9/U8//Ld EKhL5TR/FtQYwkkeyubVZa2/oV1y8p9H1rnWzAI4CoC0BjHMZc/HxHYFwwWKkYHZOtoz2/c+vv31 RHvseTUzRBRhr74h0inVm9hjIwCMhwdgg2GWAPrK3Lf/JfHCoX7YkhC5kmVQUU/AZUngr5ahceVe EGrD0EZuZKkDasZ/qPBogD8x4Kdt1SYrwNWEoWbxPvBXyRZrTds5o3CgBALgbw5ZtH+u7sdi+VG+ 9ELvACNehWaAhLz1t6Q9Ub4fCCHr77CTITKgL7SubX9w86+U2CBT6Tg0BSFiYvv9W95kYtMJ8QAm CSTIr8wt3fVE8rt9cR40bQgE2tNklq72PAloP4GvXIPaxW1QPrcderCsu3P1aAwVHtUXjBD4IwA/ vTF9RO/3YEnP9FQvbANfhcKkNHEuW9NHrH/FkgYiO5G1k0snAc71AbDW3wR4dzQrn3LTHSIoCH5z 91YrPrkVXW3ywL4knVJfTnTFI9GDA4+ZXsCSKSky3WKmL7OZiUnZqdBhvDyAeRkK4wHSlASPvysd euug+ofumGtwABkEQcxkkvpzwy0D0rI3isvunjINKmf1Q/3yvZDxprJufaL6AUbFqhGWaA+74yGf 4qSeMuVJ6R1cNNj1+HGBh6Wg6k/x4J1eA54qn5HeNDM/KJ8B4gqtvz4IRtLgSAKBy6VZMqZ2EujH YzzoVFWUAAdbk0cMEMt7Ht3xiJpUkwU1b+bUE+xoNBlD7HD0ZQOLChMIj0sQzDa3qbVkxgPQbsnM h++J3Uuk0NbcoJlB4gG7O2R1JBsT6IPQSeAWrMtA46q9xGV36x053Yo6PhXio3YnowD+cK2+sSAF 9Yy0TXxTuqHu5L1QVp/KB7tsRSYxKGkZgez2Q/n8mmzND8egmMNMEMx4AMb6ywkNuiQEgosJlG2H Zf+GiwfEZr9EGidffbGv3TCkYqIjFuEG0AYa3BZWfiK7/IGed7reciAAjLcHsMcCIpsVuuvJ1Hc6 o3xSVFDJHSKoBBLQm+ULaVA9vwsaVu0GJZiAw5KiD+Q4NtJCoxiUM0KrT9Obh0gbiGVxqFm6Fyrn dIE3qOmdi6zsASOPTzN1YdENoaVNwHv5fGBrkMO09vndtP6M94hq5EajfK0/sP0GeZONSkjl9/cp +2z4Efe8vPMRGtziIZpTDEv7jmw43MYQQBvpTRjpSvHsuF9TCmWoFHpup3wPlUKlxK0IOWRJi5GA y46+CtZnoP5k4ubntUNMEOEwsX7DGmo5poHDKIE/AvDT33qI/OYwknWtT9PGQWL1aV9KvmTZnMIk Ky3pt/QmXeCfUwfeal/eevPWTA8ygmBL5sdAMwXmoTiVP0y2hyGBDibOmgVC9v4f04IS9LQfFt+x YUg89Pz+nXJS6Ua2wcCWtY9oFqot9jTkh9yOWP+P1APYU6IWEtz8h8TjW9q1R3vjQkknc6ofccoO 5Tw1uWle4g0qZ4ahYcVe8BFZ1E/UWFEijE8edOKBr2aBTzu1snJnN5RPD4OXxEmcYC1a44wYyhyp FU4JIDRUQtmMyrz0YUZc6YNeeOQ8BNK4D1JUhk6RyxLAQCVXoP/xkBkc+jJD0LJ3d2ITY/0zporI 9KXftcsDdoJcNY1h76M7nxgL/T9SArDxgD0g1n/IB34U/XF7hNsfTgoln7AYCcy8tcU9G73HNF1a PY/IopW7wDfVJIJC5IEK2pinhvCEA19jgY/zwK+c26WnN2kdv9VL0tdavr3I3yNpHtIuH5S31APv RkzOHzNSB1lGfwGXz/uDMdtD9wAhgTkijJE8XO6xyOgvVMgFOmT5Vz/at5FNpxu7lOxKvGOfhYLt /Ep2pzZE9w9EmAyQCuNcDDdYZpYlgcDs/Kfui3/5gRuCPxd4rj7k1YY+m9FwLEZMiZSNnXF+oREj mKaNTweGuzwauMs6oaypDxId1RDpqYQB0QUBYgLLyUHuEZdaj+HMEsPYaNVmlN5sGuMIKgSm9EOg sY/8RsUCekugaRoKJrVM+2Zi2AvVy5tBMHQ/q/kB2TQ/4wHY4YhSVIFDKQ7crnyltCUDZJRIW2rp UPGW7OqUXmESKaaGp59wiwNimyYDM9YA52SYmiLB7+bOh4zPsQQYcS0QP8pbi4p4FKEnrimKBjsW N3ne63Fht0fQhs4O2UpPHHuQAVksEEC+A83tU8FTkQR/fRg4twwZmYOBtABxAijaO0qrF/mSyDDx wFd0fa9BN2m0CAU+CfTLpvZA5bw2CNQnwFOm6uUinEXnmwPStZzcMS1/QuKgN+OGyqVTwUfXNc0N cjctfV76ZGURk/Y0OsNMMgx0yvBOVAC/P//95rhf3pBaHLKPHWASOMia/ty8Kfm3557pecvIIIoG kPVVSft29AzMvWzB9ZxZasqhHDwyvVL3W9/f8ENDbaQMryGPxgsIY6ALNOYHmIPoaa8euvelzA6C ga98+f2+73JVOOA4mN4pHYQdOkNyDYpzc8nkKIfzRHATaeTyqiRg7odQ0wCICTekw0FI9VZCNOkl JEAQILuXPnJobAE/TODTXluaw6ePCl2RxS2BvyECvtoBYu0lfTwwtfiArNnAvPXVbK+zj2mFgD9N wL+sOTvHJwt+Lj/rgjXjY6Y+UT6NSZ7LcRUOxoj1d0POY+QypQgzXsW5AtQ+1IWO23/+7z0vMNbb 9AAcY9VtvWtU+5PAf2ffbxnPITvEAEeFAHYplGKIwN33coaODfzKbed7vzulQhmcBE4xAc6WUhcO MGKHmxXuLjcFDyFCWRp8VSIoU/tBTmXJkA6HIBrNrn7iMyQS3T0IRi6XSlh0QjHm36RzI6WNgN0d Ih6rMkYeE+AOZnTACwT4iC8Efa7nFWFLepIlAC1z6I4JUElkj68uAFlLipnpRljws1bfOuLLbOJk vwL7iRf1Bq3XYAF/Efnj1CL9feq+fz7d3cZkcRSwTsImF2hj+seokjz0z9YXIV+FII8W/GNBANYL gHFRvOGieIYEO0+eJvzifQtcN06pVAKOg2iKSCKLU0A2B2H3BuYx5pTd9JGnXkHTO9S8REb4KtOg NveBnOFBjAZASXkhTR7j5FGTs4qQkoAmRbzGnTRfmxt9zTHAT9vAnzHATUFPGybNZKco4D1krwxk dNC7PGp2wl19tw2kKygjx/lHsAaj9CFONH9PXIDQ/AYL+O1BLjKmNgHW6rOzPxvSh1r/vVFOn7fH zP1n5Q7OBcCOo8As94hpFz37k2RTmKx+N9OZ6pTqRuhKdeXr/pMqxA5G1w3sGRhgCKCAtQjuqBHA nhqVTD0HTE3h/3kg8cSnT/fuu/U833ehEkojgV0S2TrN8iPNsG1WYWz1DIzlpHPaU4lEyyx8FVHQ FLojfbkfhWhmlQTPUixA/sZDMpkd8zcQCzgY/OJGx0XAjXgCbI8MgkfSwe7yZ8hrSY9VdLDzBuht 5QIFVt9ScOYMfDACXl3zE8vvJZo/B36Ut/a5u2FOdMWUQOSq18wgGEzr7yKGg7X02FIyYdf+Tv07 FvnzTM+LthSmautg1SKZKFP3QFOwSnLXQ9v/zFQfjIn8GUsCFIsHLCHQr1/J7KRyiJJACaFA0alV SpBEYGaFjMwRMuaORwis02uzREB5rpg1R6CvAmSIKi0DWBVBJUEn7azBxjgHVbHKHEoQtsUFAm5O yBM61xtrBog86IDXLa+NONYZz4wRUQ5VlogBPwt8ekw4xetZr4qlVtmjg5s3Ac8AP3d9KJe2QMjK RGlAgb1E+3PufAcXm17l2Lohm/xxQiNtz0MHpQ3PPZOTP/YUZu7RnH9UXwQvpUGkNfy72MFI2Owr GG3gO54EYOMBERwWLsuSAH/lC+d4vyGpfF1dUIEhR0AicJ44gCm7xZaYOU+EXEVuQTMzZDCX59T9 FtarJLH5Uxya2BtMWC+DH7z731IW7Gjx2ZJhex0Ndkh5GsWW5D3a4ZjEXgL+JhI8B4yZHQYBPxv0 GoSzdnpRQ4AhQqz/ARJI00m+ssdjJvgtrP23xGi4UMLFYgA7tkSfKpLCzCnKlR87ZYp5D2neX+yX ujfd/fq4WP+xJoA9HihKkl+/Iu54fb/y2d9dV/Y9UXbPaiiXwSPgkiURmybFyDFhlLOo2aJEZCUR 84gwM145dxItTxxkuwiaTnVjm4OxW3WUf98EPmcNC1FRMjBEAKu1ZzNhEpFt3XEi2TxeqCSW3xNy AxLYkoY8+C2dXSz4mZFerPRJ98iwI84TyUZBj3JDHnOSx0ECDVX8Fu7Tuu/+f3uetwW/9hoeVDe3 fqpqqCIlqkLP5q6fMuAfs+B3tD3BpZDAjOjNXuIkm7/d0aGGV/3f6E3vtmuPtoXdMOiAmqIRlm3S MgSOnUTZHlJsK/dlU4NZwHG2XmdLbp0DS6k2Z+zZc9vy37q11PQd5Y6x9Wbb8vbI0imFba9NsGXP Q1fraY8QbVJTBdUrZoC3Igt+e4aHY8FvPufzXoUFf27Gh7QGXREMnTIPLhcyrp+x+pZg2GagioCf Tp63c3v8YVsKU2U6wMysIV89q+YUkchQTdTomN/N23+3+Tmmx1i0fRaOJQk0XE+gH3PJj+M/+dZl /q2XnuS+pcKvBag3KEkSseYe5WvHMZMJYvsI2J41xCzsnNOsnLM9QbZaFKdfgpBDOpQrsezDSQpZ 8v756QFpMokOP6Xz+JTNqYNAcwUIXnYwC7INabTJHj7fX2IZ8G7M+EClT6ZXgk0REvgGcCE5GeAj piMOHCe+ZVOfOPmHew89aUthKtboLHvFfIg7BTQE4oCc2PvIjm8xqfUM81ltrDzAeBGgGAnYalLT S3i+ui71wqut8t7/vMh/m6i4lzSEFPC5SyD4YESwZZGQbeYa00vkx20ga5qVTcPiobrLsHP2qtgl O4z6sM4jVpj2or3a3UTvY68XqpZMAXe5h0gUplfcJnMsPb6GhtfFGUMUFvx62raPSJ8IT2emAQ/P TBCHzF5fq/QxfzmHiksfav337Eys27Mz7pTCZMHPzzljXhX24JVylwqxA5Ffd7ze3gbWkukxtf7j TYBSSaDvT22R257aEv3yn28su2bxFNel1BvUkgC5YC2CUohgZIicltZBxWbhQ/kF3nIgtQcYBZgv YQlPVLxuBFDeiKEin1NUBH1JQZeI/uZqKJtRA4Kfz1pzu95HYMnz52SPCfRBwE9z7X0DGuxNE+8S BEsPL8cV9vayr4tZf5r56evVkvf9dL9TEKsxMlzfV1656v3xeBLEsPj2W/+z4UHjM2mb/h8z6z8R BHAiAQt+Nhese4SP/iLxmwuWuP7xtYt9X05JriWVARWqA2rpva7YVjqBrZYeI5t84cAykW8BQG2e ADsVqUNpHMVgmyTKdoD9lLSMeSBFgtGgH6oW14M7RKy+j8vLGFuO30IGjilr5sAy974Z8ObSdgqG OAl834gIdAK73MAwFvj52h+bQRnE+seiGPbuSq7buysxWAoz5wEC1WWX9/a0xVsf3/1NW+ArjmXm h914mPiN7TSzs1l/3dpDrMYr4rMN5dzBhnJhYVriA1TWDlpQV8Tq2ntVEXLOwuSeMnltcFghEaGR 7TmdzhDIYkmZa42JPHTGXMT0eYjWb4Dg7FoiedzAuVHO6udz+ozc4ZkCN5YY5vheW8Br6v50lwhv 93OQ4o2KTwbs+uo37KIXXJ4cuf4BrtD6K4RUR9q17puu3nSHLQkiMvofGUbYfcldl52luPGX2je3 /TvR/u/aEiim/tdgjAu3hAkGvmaTQHYpxHoD11fXpV8k+6t/urHsk0umCJf43MRIEG8wZC/yYGQA 67QdrOTBRXQ5YnNmI5ocAjsX+dmuk46npvP1KATJvimV4Ce7q8wFnIutgDUkDmv9kVXvmylO4KAg 1cnKHl3398twIIKgS+H0ak+2yjS384z+t0kfZ0+Iob8f4NUX+382SAoT2OxPWXXFv3V0ddy/+Z43 nzXet2t/bTwIcDQ8gN0TYLCuSQw2oqCHN0lbnt+lPD23XlB8LmFWQuLdGtEyXjo7wXCkSDHPwPa2 Ioesnm3em5J3cOj8sp2fZnYGiNTpTggQV1zgaaqG8nlN4GsIEfALtiwOsqY1efZvJgmwNe05CPil iAy9fSpsJN4mEEBWqcMzHsAIiHnbWmDOwx6xPuDl0AF5y1e/tPVnjPVP2ay/CX7Xdf9z4wczgrjq iVvW3WK8Z440TNuC5jHf+KMIfqegmCWBxWP0JbBoEqGpko+WefnmeEYI0MHe9MaUFCxDYfbFiSBs z6htkuSCwx13h5UT7ZMu05LlfmLtuwj4JM4DninVEJrbCL56AvygoFv9bMkCymn6wo4tK9Bz0ogD 28CWQvDLCQUGuhV4OewGX5lV4lDA2y1/7m9ckZp/w4Do433bcfIX/7v/3w8fSPUy4DdljMpYf2Hx RSfV1Cyuvf3137z6xciRARmsQ23HvOPrWPIAQ6VHVQcPoREiSI9tlnf8/AXxb40V3AEiizwYhKlU Pih0ym5iAQVuKM6VJpXY9GoBkItZe7bX1lYkRmfLoAN0eoi1HyDgx+UhCEyrgSDR+d5av27xqc43 A1iwVXFyPLJafSGf4izQ+5xtjK8N/PEuCV6LuAH5SJvx2FgIj9H7rOXnnVZ/LPSedOvpAdj8Zuy+ +3958BUD+E7aP2f9z/7ied/ct6H17m1PvxsGaxmNyBBmnNbChaO+Wim7EA/HBEW0cdzG7jF2+txc stU8Rl/B8oIlrsYPr3SvXTKFPyfkQ7NcnAZ03AHtS/C7NRjX2dYHyUhReZOSOEjLnJ7GpN5KCHgI 2EPgriojgPcA5+FyK7Mgy1JEeX1v0fI5C2+O67X2BVhlHbJml8jxtKc32i7CKwNuUAjZ6BSHuYI9 mwTK5f45ZwLkjUK2DWi1Z+teeet1H3nz/xjAp1MfJoznJgFM6+++4n+uuoZY/V3P/uDpPaYiBOt0 O8rxTABWGfO2lBi7PKuLIYOdBAJznP6ZCxZTMrjWzqzhljZVcKvpSWmdESUCffS4tKHrjkYIemrh RSJt6CMFvjk/kivkB09VANzVQRD8JKh1c3rFplmVyU5Oa3nO5WWMuU5vLqWJrDl+4Gw1QwV6Deu5 /kyPDP/scYFKTIogoIIUp275kVnBygDf3g/AJgtQdqhjextO/ug7e298+bm+fQbwTQKwQxf1+3TF 96/6ULw32vnMd57czRg/xQH82niBf6KzQEU9wOZHLpxRVeE+adrZjz5uC4JNKcSuUWYSgh2EbxKC e3qbfJjsdMYxWnvC3Xae96QV0/mlzVXckgriHQQeAiYp6HhWnzvbti4ODxJHWP8uq1lrTjc625pK u+4NsCOivwS/l4DdD75yH7jKs7X5iOyci8vVFIF9bLN9ULo9d2+SAYay+nbwZzNQdHBLvFOCrUR+ yaS1cgPcbdadR84LXyPkNOA9C36q+3uJ9HnhH73fJ+A/xASwGZuOz+XTBtrD2/559/puBoOK7dhx B/+x4AFysuedRy48qarctWz6OX/7g4PL41jJw4DeTgbe+BsP1iKr3ACd81pcTS1NXMPCRn62z43K ZlRzLaEKf50XybW4YM0e57bXQR7IDpahkoYjrHKFfMB5XcCTXdfqFPDG7hQb5LNQVpljKW1gLL0F +Ma0JXarbxY2IWTt3dbBTzR/VvaQa3ZlvyuXz2fkDm/4X34Q68+Cn27dBMY7t6Ue/fKNm39o6P64 IXtM/c/O/MCZuX/GcGk2I2ef8vy4JADHAFPfX/79ucvmTg9+/HeP7r/r9h9sHoCCMV3WykEbEeyy yGnn7LLph/+xYvXVF03/vADJAKj94DgEDRe2GscznVL0tZBFE2vd8yBnJkS1Lz4NjLVnZ2nOrY6O bQGtXS45Wf08+OnAlkSfXBz8Dp1d5t9YD6HfMK4Q/DTf33lE2X/NZRs/w4A+zoCfDWSRg9cGJvUp OyRA4Hj2AHarzj/w3dOaz13bcFdbV/JnK65Y/2KRhmCJwNnkkD02sL/WLc/SBZWh+39w2k3zZgbf pwN/qPWW8TBbzqlG3paatAe9wNTsIHBarR0VeBC2V5eVPLSHlxa3RSMabIy4QDYCXntPLhv0oiJB b5671h5xGvS2t2vd/5+9KwFu4jrDby9ZtoSxzZVCDcUEKEdwwpQACZNOgLSd1mUCdAppJ+mEXpmG hgwlpNMUJpDSlnKVhkCYlgzQQgsBp0DIUZucY6BtUmrOGowcm8OH5FNaXSvtdt/KK/379q0PMCDL 2hmxWGakx9vv///v/99/rFh69inXJV8Dof1h3F8mnrkA/Dad/kRuN/iTwQKwhEbQ3lv83TH9X/zJ hJ14r2oaA7+dPOfoR8jc+wFaEZbQ9CTg45Ziyr0DB2xaOWVh4fi8eQIbciiyBze+pIO8K+NraRPS ScCTZwwsY6Iuhuay7WGrONUhyiBhY1va9+Jc+oBbQvWNjPuTAD/I5iD6+TB08LMd8n7joAsM/rpa Rdy7s2bZof3XzrUDvg2EPuEJrkJRXBwwtzK6yVFHvdkC8ACosF2rfOW9OS/1d9p/pGTxZV4G/fWP uyuOrlr7aQuiZ5myRASJBZpG2LRq6qS535j4xOA86WGOjThRtDmm9RWFHtTp1iNQrFMuQMUOQwyc g5NXGCYxS4qJq1wFUCEr4Bu/X4/0nDovvnmsbrD7vqnSkyyo/iIFwAR+BhEdpq3Bv+e16uWHD1w/ 2w56H7gHLQ6wGOI5IeL8R7md4E8WJ5iz4PAawE/unfbVcQW5m4V+Odn2IU4UlqLHvT6p7Mo1sazS 1Vb97UWl1cQGa+Ave+ubM3KybSMG5dkf7OcQpvECMwxFVaWktCBFm8yjGI/gkDllp3uciJLxSeRT xN+HnF9RzHF7hhIo7gT4WjGLCvxAa0T88xHPH55dW/2vl3fM/v6IUYEimNIcz+3nKNGe7oP/PND4 IgB/2CKKYzo+tLDsfUYAGIIGwYhOfJN+s2RE/qK5gzdkZTmn24fkId6J+3TYEoUr2qcNULfck4Cm 9of6DGS/ijHVF5PV5yNL8T039aBXzCF+szBYg96g9cmdjYMa0iEFaHpk6v5msBSdWBys9THfr2sI n126rmbT4febcXiRPfBO0WZ7VvPIOO8noj4dg99c6C/6YuD/5GTT9nWrK95EiRJXCP4gMha8dHT+ o9yozU21k2COsAQCoEdxQTn1euGTI4fanxEcbLZ9sA2xgl3dNZaunJWgVtxuALWiED8jY6E8+IBE EwelS3aAIUu9YKE9pEBKIk5J1/TIcMxKL6Jp5/qRmKOLtf7Hn3r3PrrkYrG+pFGjc7O37npwf0Ru 1mL7hhRnoua5O+D/i6r5jxy4fgEZa72h0yvdrhBmT1xckq1HIdxK2GCL3/56/Vkpqrw9eaxjHCPK wxhVw3O2qPqwIuo/jAUS9DsJPF3bMqD5k2kuFovirQFZ0EQKweSzeB/NxPss6BNiKHRnwffoKcqg RWHiJKT9s/TfI0qNOWOkO1JLjOvX1YXO/PTXn/3yxa3XTgLeLT/7/NSHh42QH2DVvWFJ8JMWgAZ+ 8BSamhDyNFDB70eJRLdQJ5o/KS8midbBEGFNMgUCHnKx+zeMnTnz/v7LMjLYobb+PLLl8tTgjKES mEp5FKMBUJQb3Brj8LN4S3dEp0TQL7AMNlEyVvGhVrhJQj5ftOFgSdOrT6/Rks5gGFETq6Pvfe9l 3l5ZaDrRJaI8iWgPaLveviCtpFFllc2NcsO+3TWrDtPBHyCc3rQA9IBPACkRTIbjCYrEHtsx4bH7 vuj4gS2DdQo5PBKcXDyMaI5U6tRGuYmIT3eEwfxftOqabH4idOCHgrJ46oJ4aPYP/7cLJU5P4QES W/To6PylL0wolmW3obULGd6kgr/9wrk9HrcK/qaIa9Xyc8+5KkW9rNEPBKBXgz/ZBICMEpBCYEP0 rFB+ykRn9oZlX1gwcXTWtwSBcdpUQeD7cbHT2i6E743ONLrxmcCMsSUj09XjBIYujRrVaY0iqS2i Af8/KvCXra8pLq/wtyBj6gDMs+cOvD1/Td6g1iKMT71tCTzggqOU4hQRrAFHejDtqaoU//6zp8q3 ImN5os77g70d/MkoAIgSL4bOsZUgaBZBtQS5yxcNnaFSo8cz7ewQ3sEhQRUEfL+lmr5Hdj3xWThl WfJGNK3vD8oNJSda96zfWVumAr8VJRoQw6KReI/9hU+MH/n00gnvRqLXKYCHdbxm8GtJbarW97Up 4oel7o1bN2rtyGF1VjCVwJ/MAkCjRDBUmgFeAiEM2gHYS4vz7503e8Dc/Lts0zAl4h2sVmmld1W4 cQwrPbzD7V1IQ7IGeBzSxNGdK3Xhk+//u61k8ZrPypBxmIQEoi1kpqVQcuKxv2VkuqfISiCu9RnY 05NVDA0C9L/jMkYM/pYm6cxr26rWlX3guYaMQ+yChMPb68Gf7AJAUiKyRgBaAztxjhBPh5g0Jit7 9eL8r0we55yd048r0IWBy+Q0YTBka/aklu/kMzG9wZoeAx7fMehbvFGXSnNKV265+o/TF/1eZMyP genCYQKEeJHC7gNF37l7rH1tRK4lQG/m+rqzG4nGEtoCftzAyrvnF0vO7ELGopQgMndnSAnw9wYB oFkDGi2C1sCyWGburLzPzZudV6gKw/S7Bgr3CDzjwAKgCUIGq01RNFmIHrrwiJ9oWNY0fTSsxDR+ RBHrPNIZFfQnikubyt841lwLgAW1PnR2yT45Gu//1fqHJs/62vB9UflqP8RIhKNr1vqY7rSphKq1 Nab1d7zi2nD8o8arwKeAwA8ByhNJFfD3JgGAa4Vp1GRdgA2ZT5Rh5iEc2sGqNKnwnjFZo0YPt08a kMMXZNnZwdoX4dh+Rns+vxATCM7eNcHAIMfQkKWYVlckFeyR2JkQ5vONLRFXrTvsOlHuK1+x5Wo5 MreFgbnxNPDD6ejaPsyZP3rg8yunHmR59zhZ8ZlSGcjhFdjJxbNWRJ/ccPxDz3aV63+MzLW4ASAA 5PemBPh7mwB0Rot4wk8QKJSIJ4UAvlS65Jz/SN7dhWMdBY5M1jl0kK0gw8Y4nFncEF04OrswyH3+ aH0oLIvXVaCLAdmnOq+ugyVNlSqt8RGAJ8FPav0wMrYThxNV8MXPWzBm4LIXpr7BC95xEdlNPc3V 38PAb2nGo4oU8fIl36E/bXEVV1WKLeB7ghTtTxtnlBLg760CYEWLaFVjsOqIZgl0gSAL83VL0xOX DJwJqD3hhESa5pcIKwC1rrb2+QvGDnpuxf3FvCCOl6L1hhFGOvBxRBdTHa8Xj2FXxEsXfYdUuoOB 3wa0fhho/wAQAtowipQBf28XALh+WF5Jqw2AAkDWDLCUO9ODewNbvkQpd5rmj1CEQ1+PtvbN22dN njZj6GYd/DHAJ7R+KBTrzOzTgC83XDjXdmjPjup3qy7HgR9B5v6bASK0mnKUJ9UEgCYINIeZ9uIt fmaA9md6APwI0Yv8ox28IDVCQOtr6zxybP7jnx/uXC0rrdlS1B0HvqTC1uuLRXRwebOnIXTy9KnW km0bK8sAmCWCXgUB9QlZOLopCf5UEoCuWAXai7OwCGwPWwCy4Rd8kf1RScDFrdrazV8uePiR4a9k ZLDTpWgdikS9KKjqbL8/NoI0qn6aKEZclyt8pcfeaShTHdxa4rto0aSQhdZXUh38qSoAHVkFxsJ3 gAJBJmMyNwF8hMw9UGFTYBJkZCcMbZ2bts0sUOnOzzmOWxgOi0gMuFEgIGn5OvjyeaXy6ir/8dK3 6o+XfeCpR+b287RoEtT4fUrr9xUBsBIG1IlAMLdgX8jWj7T1weoB5sfPfCn3gYfy52Q5hCKHg/96 OBxAUrRV1fKBtlBQrmj0hE5dPO/976u/v3waJeomEAF+WihVsogu9Rmt3xcFoDsCgW6RAMC79vmr fjczd+SonEJZVhhFUZjMTGESxzMjOI4tbJ/awQSDoXOBYLOvusrzz4rz3vp9u2vqkTEHikXm4nKo +eHpMXSwSX+jTwG/rwtAR/twq/aExutZwumGP0MnnTzhhg67fsHIEgylhjsBvUxZX5+5+DT2TQ9f uQ3CxhBcH3XgsMOmXgyiT9ehOboRSrSJ9D/6LPDTAnDnBY7txEEnO9ohSrQIUh6rKJPcBYc7LQDp 6475ICxxZyicHoKVbCJFnhvQhCQN+rQPkFR7TlKdrkalrGarkRo+re3TFqBX0CDZwipQG0Mg8zip jsCeBn3aAiS9FUAWQKeFY2kHa2nApwUgZfa+K8/ijndSS7Xr/wIMALkypOzpnkHcAAAAAElFTkSu QmCC "/>
    <path d="m13.904 7.2714-0.32325 0.052087c-2.181 0.35131-3.8432 1.8757-4.3654 4.0033l-0.14758 0.60153-0.19162-0.40407c-0.2361-0.49781-0.22132-1.1279 0.038985-1.6613l0.1752-0.35909-0.23771 0.28285c-1.3864 1.8556-1.4246 4.2107-0.40786 5.9112 0.17125 0.28239 0.29923 0.52616 0.28443 0.54171-0.014801 0.01554-0.15979-0.01555-0.32215-0.06913-0.52259-0.17247-0.97177-0.66356-1.1816-1.2919-0.042606-0.12761-0.050065-0.0238-0.020045 0.2808 0.75943 2.5591 2.3864 3.8882 4.5166 4.4686l-0.36366 0.16889c-0.50379 0.2339-1.0803 0.22452-1.5825-0.02572l-0.39744-0.1981c2.0157 1.5436 4.3117 1.7354 6.2078 0.64146 0.29702-0.17357 0.54013-0.28039 0.54013-0.23739s-0.05661 0.2134-0.12564 0.37866c-0.20933 0.50112-0.64251 0.87612-1.2477 1.0801 1.7089-0.08411 3.8883-1.8267 4.4342-3.4428 0.08459-0.26871 0.18614-0.61491 0.22571-0.76931l0.07197-0.2808 0.15689 0.3212c0.23129 0.4737 0.21874 1.2733-0.02651 1.6949l-0.18799 0.32325 0.20377-0.20203c1.4067-1.6064 1.3387-4.1955 0.48899-5.8839-0.3221-0.61384-0.33692-0.66669-0.17283-0.61778 0.62087 0.18506 1.1292 0.67978 1.318 1.2828 0.09816 0.31351 0.10346 0.31773 0.10859 0.08413-0.44996-2.4338-1.8244-3.9174-3.8677-4.5601l-0.68519-0.21103 0.31947-0.15468c0.45404-0.21983 1.1857-0.21287 1.6529 0.015783l0.36366 0.17804-0.28285-0.24323c-1.7944-1.355-4.514-1.3463-6.1516-0.22713-0.29398 0.20933-0.36038 0.16303-0.24418-0.17031 0.14545-0.41725 0.55525-0.86168 1.0032-1.088zm0.3774 5.1607c1.0712 0 1.9395 0.86836 1.9395 1.9395 0 1.0712-0.86836 1.9395-1.9395 1.9395-1.0712 0-1.9395-0.86836-1.9395-1.9395 0-1.0712 0.86836-1.9395 1.9395-1.9395z" fill="#fff"/>
    <g display="none" fill="none">
        <rect transform="rotate(90)" x="7.8232" y="-20.923" width="13.1" height="13.1" display="inline" stroke="#000" stroke-width=".070382"/>
        <rect x="7.2241" y="8.6528" width="14.298" height="11.441" stroke="#5261ff" stroke-linecap="round" stroke-linejoin="round" stroke-width=".069589"/>
        <rect transform="rotate(90)" x="7.2241" y="-20.094" width="14.298" height="11.441" display="inline" stroke="#0f0" stroke-linecap="round" stroke-linejoin="round" stroke-width=".069589"/>
    </g>
</svg>
