<?xml version="1.0" encoding="UTF-8"?>
<svg version="1.1" viewBox="0 0 26.95 26.95" xmlns="http://www.w3.org/2000/svg">
    <defs>
        <filter id="filter6206-7" color-interpolation-filters="sRGB">
            <feGaussianBlur stdDeviation="0.658125"/>
        </filter>
    </defs>
    <g transform="translate(0 -1025.4)">
        <path transform="matrix(1.0107 0 0 .99762 -.087875 2.579)" d="m4.4177 1028.2v1.6051h-1.6052v18.192h1.6052v2.1402h18.192v-2.1402h2.1402v-18.192h-2.1402v-1.6051h-18.192z" fill="#1a237e" filter="url(#filter6206-7)" opacity=".2"/>
        <rect x="2.8113" y="1028.2" width="21.327" height="21.327" rx="1.1225" ry="1.1226" fill="#424242"/>
        <g transform="translate(-20.925 990.46)">
            <path d="m0 0h48v48h-48z" fill="none"/>
            <g transform="matrix(.33601 0 0 .33601 1.434 68.477)">
                <path d="m0 0h48v48h-48z" fill="none"/>
            </g>
            <g transform="matrix(.37187 0 0 .37187 36.377 59.287)">
                <path d="m0 0h48v48h-48z" fill="none"/>
                <g transform="matrix(2.6891 0 0 2.6891 -77.724 -45.422)">
                    <path d="m0 0h48v48h-48z" fill="none"/>
                </g>
            </g>
        </g>
        <path transform="translate(0 1025.4)" d="m3.9336 2.8105c-0.62186 0-1.123 0.50115-1.123 1.123v0.3125c0-0.6219 0.50118-1.123 1.123-1.123h19.082c0.62186 0 1.123 0.50115 1.123 1.123v-0.3125c0-0.6219-0.50118-1.123-1.123-1.123h-19.082z" fill="#fff" opacity=".2"/>
        <rect x="120" y="512.36" width="40" height="40" fill="none"/>
        <rect x="120" y="592.36" width="40" height="40" fill="none"/>
        <rect x="120" y="632.36" width="40" height="40" fill="none"/>
        <rect x="120" y="552.36" width="40" height="40" fill="none"/>
        <rect x="120" y="672.36" width="40" height="40" fill="none"/>
        <rect x="200" y="512.36" width="40" height="40" fill="none"/>
        <rect x="200" y="592.36" width="40" height="40" fill="none"/>
        <rect x="200" y="632.36" width="40" height="40" fill="none"/>
        <rect x="200" y="552.36" width="40" height="40" fill="none"/>
        <rect x="200" y="672.36" width="40" height="40" fill="none"/>
        <rect x="280" y="512.36" width="40" height="40" fill="none"/>
        <rect x="280" y="592.36" width="40" height="40" fill="none"/>
        <rect x="280" y="632.36" width="40" height="40" fill="none"/>
        <rect x="280" y="552.36" width="40" height="40" fill="none"/>
        <rect x="280" y="672.36" width="40" height="40" fill="none"/>
        <rect x="160" y="512.36" width="40" height="40" fill="none"/>
        <rect x="160" y="592.36" width="40" height="40" fill="none"/>
        <rect x="160" y="632.36" width="40" height="40" fill="none"/>
        <rect x="160" y="552.36" width="40" height="40" fill="none"/>
        <rect x="160" y="672.36" width="40" height="40" fill="none"/>
        <rect x="240" y="512.36" width="40" height="40" fill="none"/>
        <rect x="240" y="592.36" width="40" height="40" fill="none"/>
        <rect x="240" y="632.36" width="40" height="40" fill="none"/>
        <rect x="240" y="552.36" width="40" height="40" fill="none"/>
        <rect x="240" y="672.36" width="40" height="40" fill="none"/>
        <rect x="120" y="712.36" width="40" height="40" fill="none"/>
        <rect x="200" y="712.36" width="40" height="40" fill="none"/>
        <rect x="280" y="712.36" width="40" height="40" fill="none"/>
        <rect x="160" y="712.36" width="40" height="40" fill="none"/>
        <rect x="240" y="712.36" width="40" height="40" fill="none"/>
        <rect x="320" y="552.36" width="40" height="40" fill="none"/>
        <rect x="320" y="592.36" width="40" height="40" fill="none"/>
        <rect x="320" y="672.36" width="40" height="40" fill="none"/>
        <rect x="320" y="512.36" width="40" height="40" fill="none"/>
        <rect x="320" y="632.36" width="40" height="40" fill="none"/>
        <rect x="320" y="712.36" width="40" height="40" fill="none"/>
        <rect x="150" y="542.36" width="180" height="180" fill="none"/>
        <g transform="matrix(.37344 0 0 .37344 4.4375 1028.8)">
            <path d="m0 0h48v48h-48z" fill="none"/>
        </g>
        <g transform="matrix(.36471 0 0 .36471 4.8146 1028.8)">
            <path d="m0 0h48v48h-48z" fill="none"/>
        </g>
        <g transform="matrix(.41585 0 0 .41585 79.055 989.88)">
            <g transform="matrix(.062269 0 0 .062269 -26.473 173.71)">
                <g transform="matrix(38.618 0 0 38.618 13804 -12696)">
                    <g transform="matrix(.71436 0 0 .71436 -375.49 176.57)">
                        <path transform="matrix(1.3999 0 0 1.3999 525.63 -247.17)" d="m490.56 95.75c-121.72 0.18504-342.34 0.090577-468.16 0.09375-1.5548 6.9739-2.4062 14.232-2.4062 21.688v76.344c139.06 0.49354 331.32 0.2554 472.97 0.25v-76.594c0-7.4875-0.8386-14.78-2.4062-21.781zm-307.19 197.94c-52.495-3e-3 -106.38 0.11982-163.38 0.375v92.844c191.76-0.26331 282.43-0.0926 472.97-0.21875v-92.25c-109.29-0.35498-208.43-0.74426-309.59-0.75z" opacity="0"/>
                    </g>
                </g>
            </g>
        </g>
        <path d="m23.015 1049.6c0.6218 0 1.123-0.5012 1.123-1.123v-0.3125c0 0.6218-0.5012 1.123-1.123 1.123h-19.082c-0.6218 0-1.123-0.5012-1.123-1.123v0.3125c0 0.6218 0.5012 1.123 1.123 1.123h19.082z" fill="#1a237e" opacity=".2"/>
    </g>
    <flowRoot fill="#000000" font-family="Roboto" font-size="3.75px" letter-spacing="0px" stroke-width="1px" word-spacing="0px" style="line-height:125%" xml:space="preserve"><flowRegion><rect x="10.664" y="11.235" width="4.49" height="5.0512"/></flowRegion><flowPara>your</flowPara></flowRoot>
    <g transform="matrix(.12059 0 0 .12059 32.437 14.081)">
        <g transform="matrix(.73032 0 0 .75402 -1299.1 -1759.6)">
            <circle transform="matrix(.96726 0 0 .96726 235.7 548.05)" cx="1324.9" cy="1792.4" r="7.3256" fill="#fff" opacity=".99"/>
            <circle transform="matrix(.96726 0 0 .96726 308.75 539.35)" cx="1324.9" cy="1792.4" r="7.3256" fill="#fff" opacity=".99"/>
            <circle transform="matrix(1.2054 0 0 1.2054 -25.197 182.2)" cx="1324.9" cy="1792.4" r="7.3256" fill="#fff" opacity=".99"/>
            <circle transform="matrix(.79537 0 0 .79537 449.34 925.45)" cx="1324.9" cy="1792.4" r="7.3256" fill="#fff" opacity=".99"/>
            <circle transform="matrix(.79537 0 0 .79537 499.3 973.25)" cx="1324.9" cy="1792.4" r="7.3256" fill="#fff" opacity=".99"/>
            <circle transform="matrix(.79537 0 0 .79537 556.3 956.69)" cx="1324.9" cy="1792.4" r="7.3256" fill="#fff" opacity=".99"/>
            <circle transform="matrix(.79537 0 0 .79537 581 902.91)" cx="1324.9" cy="1792.4" r="7.3256" fill="#fff" opacity=".99"/>
            <circle transform="matrix(.62348 0 0 .62348 800.66 1180.7)" cx="1324.9" cy="1792.4" r="7.3256" fill="#fff" opacity=".99"/>
            <circle transform="matrix(.62348 0 0 .62348 766.33 1140)" cx="1324.9" cy="1792.4" r="7.3256" fill="#fff" opacity=".99"/>
            <circle transform="matrix(.62348 0 0 .62348 664.75 1230.2)" cx="1324.9" cy="1792.4" r="7.3256" fill="#fff" opacity=".99"/>
            <circle transform="matrix(.62348 0 0 .62348 701.59 1267.5)" cx="1324.9" cy="1792.4" r="7.3256" fill="#fff" opacity=".99"/>
            <circle transform="matrix(.79537 0 0 .79537 440.41 869.81)" cx="1324.9" cy="1792.4" r="7.3256" fill="#fff" opacity=".99"/>
            <circle transform="matrix(.79537 0 0 .79537 484.51 829.4)" cx="1324.9" cy="1792.4" r="7.3256" fill="#fff" opacity=".99"/>
            <path d="m1590 2271.6-18.628 72.673" fill="none" stroke="#fff" stroke-width="8"/>
            <path d="m1589.1 2273.5-72.559 8.4545" fill="none" stroke="#fff" stroke-width="8"/>
            <path d="m1571.3 2343.4-54.698-61.88" fill="none" stroke="#fff" stroke-width="8"/>
            <path d="m1571.3 2343.9-18.07 55.944" fill="none" stroke="#fff" stroke-width="6"/>
            <path d="m1516.4 2281.3 21-24.344" fill="none" stroke="#fff" stroke-width="4"/>
            <path d="m1493.9 2295.5 21.768-14.331" fill="none" stroke="#fff" stroke-width="4"/>
            <path d="m1503 2350.6 13.396-69.975" fill="none" stroke="#fff" stroke-width="4"/>
            <path d="m1552.2 2398.5-49.535-46.59" fill="none" stroke="#fff" stroke-width="6"/>
            <path d="m1610.1 2381.3-58.117 16.969" fill="none" stroke="#fff" stroke-width="6"/>
            <path d="m1634.2 2328.4-24.14 53.126" fill="none" stroke="#fff" stroke-width="6"/>
            <path d="m1570.5 2343.4 62.861-14.631" fill="none" stroke="#fff" stroke-width="6"/>
            <path d="m1590.1 2273 43.117 55.164" fill="none" stroke="#fff" stroke-width="6"/>
            <path d="m1501.8 2350.6 66.977-7.1954" fill="none" stroke="#fff" stroke-width="6"/>
            <path d="m1551.4 2398.1-24.419-13.132" fill="none" stroke="#fff" stroke-width="4"/>
            <path d="m1489.4 2347.3 36.349 37.296" fill="none" stroke="#fff" stroke-width="4"/>
            <path d="m1493.2 2295.9-2.721 51.327" fill="none" stroke="#fff" stroke-width="4"/>
            <path d="m1537.4 2254.9 54.07 1.8588" fill="none" stroke="#fff" stroke-width="4"/>
            <path d="m1627.2 2298.5-34.256-41.973" fill="none" stroke="#fff" stroke-width="4"/>
            <path d="m1635.5 2328.2-9.0001-30.101" fill="none" stroke="#fff" stroke-width="4"/>
            <path d="m1589.5 2272.3 3.2093-15.29" fill="none" stroke="#fff" stroke-width="4"/>
            <path d="m1503.7 2351.2-14.163-2.6983" fill="none" stroke="#fff" stroke-width="4"/>
        </g>
    </g>
    <g display="none" fill="none">
        <rect transform="rotate(90)" x="7.3342" y="-19.616" width="12.282" height="12.282" display="inline" stroke="#000" stroke-width=".065984"/>
        <rect x="6.7726" y="8.112" width="13.405" height="10.726" stroke="#5261ff" stroke-linecap="round" stroke-linejoin="round" stroke-width=".06524"/>
        <rect transform="rotate(90)" x="6.7726" y="-18.838" width="13.405" height="10.726" display="inline" stroke="#0f0" stroke-linecap="round" stroke-linejoin="round" stroke-width=".06524"/>
    </g>
</svg>
